<?xml version="1.0" encoding="UTF-8" standalone="no"?>
<!-- Created with Inkscape (http://www.inkscape.org/) -->

<svg
   width="1189mm"
   height="841mm"
   viewBox="0 0 1189 841"
   version="1.1"
   id="svg5"
   inkscape:version="1.1.1 (1:1.1+202109281949+c3084ef5ed)"
   sodipodi:docname="apsoc_simple.svg"
   inkscape:export-filename="/home/dorfell/Downloads/fer_sys_dev/docs/00_book/img/hnn/apsoc_simple.png"
   inkscape:export-xdpi="96.206001"
   inkscape:export-ydpi="96.206001"
   xmlns:inkscape="http://www.inkscape.org/namespaces/inkscape"
   xmlns:sodipodi="http://sodipodi.sourceforge.net/DTD/sodipodi-0.dtd"
   xmlns="http://www.w3.org/2000/svg"
   xmlns:svg="http://www.w3.org/2000/svg">
  <sodipodi:namedview
     id="namedview7"
     pagecolor="#ffffff"
     bordercolor="#666666"
     borderopacity="1.0"
     inkscape:pageshadow="2"
     inkscape:pageopacity="0.0"
     inkscape:pagecheckerboard="0"
     inkscape:document-units="mm"
     showgrid="true"
     inkscape:zoom="0.64379275"
     inkscape:cx="1401.072"
     inkscape:cy="285.02962"
     inkscape:window-width="1920"
     inkscape:window-height="948"
     inkscape:window-x="0"
     inkscape:window-y="27"
     inkscape:window-maximized="1"
     inkscape:current-layer="layer1">
    <inkscape:grid
       type="xygrid"
       id="grid824" />
  </sodipodi:namedview>
  <defs
     id="defs2">
    <marker
       style="overflow:visible;"
       id="marker8170"
       refX="0.0"
       refY="0.0"
       orient="auto"
       inkscape:stockid="Arrow2Mend"
       inkscape:isstock="true">
      <path
         transform="scale(0.6) rotate(180) translate(0,0)"
         d="M 8.7185878,4.0337352 L -2.2072895,0.016013256 L 8.7185884,-4.0017078 C 6.9730900,-1.6296469 6.9831476,1.6157441 8.7185878,4.0337352 z "
         style="stroke:context-stroke;fill-rule:evenodd;fill:context-stroke;stroke-width:0.62500000;stroke-linejoin:round;"
         id="path1504" />
    </marker>
    <marker
       style="overflow:visible"
       id="Arrow2Mstart"
       refX="0.0"
       refY="0.0"
       orient="auto"
       inkscape:stockid="Arrow2Mstart"
       inkscape:isstock="true">
      <path
         transform="scale(0.6) translate(0,0)"
         d="M 8.7185878,4.0337352 L -2.2072895,0.016013256 L 8.7185884,-4.0017078 C 6.9730900,-1.6296469 6.9831476,1.6157441 8.7185878,4.0337352 z "
         style="stroke:context-stroke;fill-rule:evenodd;fill:context-stroke;stroke-width:0.62500000;stroke-linejoin:round"
         id="path1501" />
    </marker>
    <marker
       style="overflow:visible"
       id="Arrow1Mstart"
       refX="0.0"
       refY="0.0"
       orient="auto"
       inkscape:stockid="Arrow1Mstart"
       inkscape:isstock="true">
      <path
         transform="scale(0.4) translate(10,0)"
         style="fill-rule:evenodd;fill:context-stroke;stroke:context-stroke;stroke-width:1.0pt"
         d="M 0.0,0.0 L 5.0,-5.0 L -12.5,0.0 L 5.0,5.0 L 0.0,0.0 z "
         id="path1483" />
    </marker>
    <marker
       style="overflow:visible;"
       id="Arrow1Lend"
       refX="0.0"
       refY="0.0"
       orient="auto"
       inkscape:stockid="Arrow1Lend"
       inkscape:isstock="true">
      <path
         transform="scale(0.8) rotate(180) translate(12.5,0)"
         style="fill-rule:evenodd;fill:context-stroke;stroke:context-stroke;stroke-width:1.0pt;"
         d="M 0.0,0.0 L 5.0,-5.0 L -12.5,0.0 L 5.0,5.0 L 0.0,0.0 z "
         id="path33422" />
    </marker>
    <marker
       style="overflow:visible;"
       id="Arrow2Mend"
       refX="0.0"
       refY="0.0"
       orient="auto"
       inkscape:stockid="Arrow2Mend"
       inkscape:isstock="true">
      <path
         transform="scale(0.6) rotate(180) translate(0,0)"
         d="M 8.7185878,4.0337352 L -2.2072895,0.016013256 L 8.7185884,-4.0017078 C 6.9730900,-1.6296469 6.9831476,1.6157441 8.7185878,4.0337352 z "
         style="stroke:context-stroke;fill-rule:evenodd;fill:context-stroke;stroke-width:0.62500000;stroke-linejoin:round;"
         id="path933" />
    </marker>
    <marker
       style="overflow:visible;"
       id="marker7228"
       refX="0.0"
       refY="0.0"
       orient="auto"
       inkscape:stockid="Arrow1Mend"
       inkscape:isstock="true">
      <path
         transform="scale(0.4) rotate(180) translate(10,0)"
         style="fill-rule:evenodd;fill:context-stroke;stroke:context-stroke;stroke-width:1.0pt;"
         d="M 0.0,0.0 L 5.0,-5.0 L -12.5,0.0 L 5.0,5.0 L 0.0,0.0 z "
         id="path7226" />
    </marker>
    <marker
       style="overflow:visible;"
       id="Arrow1Mend"
       refX="0.0"
       refY="0.0"
       orient="auto"
       inkscape:stockid="Arrow1Mend"
       inkscape:isstock="true">
      <path
         transform="scale(0.4) rotate(180) translate(10,0)"
         style="fill-rule:evenodd;fill:context-stroke;stroke:context-stroke;stroke-width:1.0pt;"
         d="M 0.0,0.0 L 5.0,-5.0 L -12.5,0.0 L 5.0,5.0 L 0.0,0.0 z "
         id="path6863" />
    </marker>
    <rect
       x="40"
       y="180"
       width="1105.2158"
       height="1875.6505"
       id="rect25187" />
    <marker
       style="overflow:visible"
       id="Arrow1Mend-3"
       refX="0"
       refY="0"
       orient="auto"
       inkscape:stockid="Arrow1Mend"
       inkscape:isstock="true">
      <path
         transform="matrix(-0.4,0,0,-0.4,-4,0)"
         style="fill:context-stroke;fill-rule:evenodd;stroke:context-stroke;stroke-width:1pt"
         d="M 0,0 5,-5 -12.5,0 5,5 Z"
         id="path6863-6" />
    </marker>
    <marker
       style="overflow:visible"
       id="marker7228-7"
       refX="0"
       refY="0"
       orient="auto"
       inkscape:stockid="Arrow1Mend"
       inkscape:isstock="true">
      <path
         transform="matrix(-0.4,0,0,-0.4,-4,0)"
         style="fill:context-stroke;fill-rule:evenodd;stroke:context-stroke;stroke-width:1pt"
         d="M 0,0 5,-5 -12.5,0 5,5 Z"
         id="path7226-5" />
    </marker>
    <marker
       style="overflow:visible"
       id="marker918"
       refX="0"
       refY="0"
       orient="auto"
       inkscape:stockid="Arrow1Mend"
       inkscape:isstock="true">
      <path
         transform="matrix(-0.4,0,0,-0.4,-4,0)"
         style="fill:context-stroke;fill-rule:evenodd;stroke:context-stroke;stroke-width:1pt"
         d="M 0,0 5,-5 -12.5,0 5,5 Z"
         id="path916" />
    </marker>
    <marker
       style="overflow:visible"
       id="marker922"
       refX="0"
       refY="0"
       orient="auto"
       inkscape:stockid="Arrow1Mend"
       inkscape:isstock="true">
      <path
         transform="matrix(-0.4,0,0,-0.4,-4,0)"
         style="fill:context-stroke;fill-rule:evenodd;stroke:context-stroke;stroke-width:1pt"
         d="M 0,0 5,-5 -12.5,0 5,5 Z"
         id="path920" />
    </marker>
    <marker
       style="overflow:visible"
       id="marker926"
       refX="0"
       refY="0"
       orient="auto"
       inkscape:stockid="Arrow1Mend"
       inkscape:isstock="true">
      <path
         transform="matrix(-0.4,0,0,-0.4,-4,0)"
         style="fill:context-stroke;fill-rule:evenodd;stroke:context-stroke;stroke-width:1pt"
         d="M 0,0 5,-5 -12.5,0 5,5 Z"
         id="path924" />
    </marker>
    <marker
       style="overflow:visible"
       id="marker930"
       refX="0"
       refY="0"
       orient="auto"
       inkscape:stockid="Arrow1Mend"
       inkscape:isstock="true">
      <path
         transform="matrix(-0.4,0,0,-0.4,-4,0)"
         style="fill:context-stroke;fill-rule:evenodd;stroke:context-stroke;stroke-width:1pt"
         d="M 0,0 5,-5 -12.5,0 5,5 Z"
         id="path928" />
    </marker>
    <marker
       style="overflow:visible"
       id="marker7228-7-5"
       refX="0"
       refY="0"
       orient="auto"
       inkscape:stockid="Arrow1Mend"
       inkscape:isstock="true">
      <path
         transform="matrix(-0.4,0,0,-0.4,-4,0)"
         style="fill:context-stroke;fill-rule:evenodd;stroke:context-stroke;stroke-width:1pt"
         d="M 0,0 5,-5 -12.5,0 5,5 Z"
         id="path7226-5-3" />
    </marker>
    <marker
       style="overflow:visible"
       id="Arrow1Mend-9"
       refX="0"
       refY="0"
       orient="auto"
       inkscape:stockid="Arrow1Mend"
       inkscape:isstock="true">
      <path
         transform="matrix(-0.4,0,0,-0.4,-4,0)"
         style="fill:context-stroke;fill-rule:evenodd;stroke:context-stroke;stroke-width:1pt"
         d="M 0,0 5,-5 -12.5,0 5,5 Z"
         id="path6863-1" />
    </marker>
    <marker
       style="overflow:visible"
       id="marker7228-2"
       refX="0"
       refY="0"
       orient="auto"
       inkscape:stockid="Arrow1Mend"
       inkscape:isstock="true">
      <path
         transform="matrix(-0.4,0,0,-0.4,-4,0)"
         style="fill:context-stroke;fill-rule:evenodd;stroke:context-stroke;stroke-width:1pt"
         d="M 0,0 5,-5 -12.5,0 5,5 Z"
         id="path7226-7" />
    </marker>
    <marker
       style="overflow:visible"
       id="marker14554"
       refX="0"
       refY="0"
       orient="auto"
       inkscape:stockid="Arrow1Mend"
       inkscape:isstock="true">
      <path
         transform="matrix(-0.4,0,0,-0.4,-4,0)"
         style="fill:context-stroke;fill-rule:evenodd;stroke:context-stroke;stroke-width:1pt"
         d="M 0,0 5,-5 -12.5,0 5,5 Z"
         id="path14552" />
    </marker>
    <marker
       style="overflow:visible"
       id="marker14558"
       refX="0"
       refY="0"
       orient="auto"
       inkscape:stockid="Arrow1Mend"
       inkscape:isstock="true">
      <path
         transform="matrix(-0.4,0,0,-0.4,-4,0)"
         style="fill:context-stroke;fill-rule:evenodd;stroke:context-stroke;stroke-width:1pt"
         d="M 0,0 5,-5 -12.5,0 5,5 Z"
         id="path14556" />
    </marker>
    <marker
       style="overflow:visible"
       id="marker14562"
       refX="0"
       refY="0"
       orient="auto"
       inkscape:stockid="Arrow1Mend"
       inkscape:isstock="true">
      <path
         transform="matrix(-0.4,0,0,-0.4,-4,0)"
         style="fill:context-stroke;fill-rule:evenodd;stroke:context-stroke;stroke-width:1pt"
         d="M 0,0 5,-5 -12.5,0 5,5 Z"
         id="path14560" />
    </marker>
    <marker
       style="overflow:visible"
       id="marker14566"
       refX="0"
       refY="0"
       orient="auto"
       inkscape:stockid="Arrow1Mend"
       inkscape:isstock="true">
      <path
         transform="matrix(-0.4,0,0,-0.4,-4,0)"
         style="fill:context-stroke;fill-rule:evenodd;stroke:context-stroke;stroke-width:1pt"
         d="M 0,0 5,-5 -12.5,0 5,5 Z"
         id="path14564" />
    </marker>
    <marker
       style="overflow:visible"
       id="Arrow1Mend-36"
       refX="0"
       refY="0"
       orient="auto"
       inkscape:stockid="Arrow1Mend"
       inkscape:isstock="true">
      <path
         transform="matrix(-0.4,0,0,-0.4,-4,0)"
         style="fill:context-stroke;fill-rule:evenodd;stroke:context-stroke;stroke-width:1pt"
         d="M 0,0 5,-5 -12.5,0 5,5 Z"
         id="path6863-7" />
    </marker>
    <marker
       style="overflow:visible"
       id="marker7228-5"
       refX="0"
       refY="0"
       orient="auto"
       inkscape:stockid="Arrow1Mend"
       inkscape:isstock="true">
      <path
         transform="matrix(-0.4,0,0,-0.4,-4,0)"
         style="fill:context-stroke;fill-rule:evenodd;stroke:context-stroke;stroke-width:1pt"
         d="M 0,0 5,-5 -12.5,0 5,5 Z"
         id="path7226-3" />
    </marker>
    <marker
       style="overflow:visible"
       id="marker33991"
       refX="0"
       refY="0"
       orient="auto"
       inkscape:stockid="Arrow1Mend"
       inkscape:isstock="true">
      <path
         transform="matrix(-0.4,0,0,-0.4,-4,0)"
         style="fill:context-stroke;fill-rule:evenodd;stroke:context-stroke;stroke-width:1pt"
         d="M 0,0 5,-5 -12.5,0 5,5 Z"
         id="path33989" />
    </marker>
    <marker
       style="overflow:visible"
       id="marker33995"
       refX="0"
       refY="0"
       orient="auto"
       inkscape:stockid="Arrow1Mend"
       inkscape:isstock="true">
      <path
         transform="matrix(-0.4,0,0,-0.4,-4,0)"
         style="fill:context-stroke;fill-rule:evenodd;stroke:context-stroke;stroke-width:1pt"
         d="M 0,0 5,-5 -12.5,0 5,5 Z"
         id="path33993" />
    </marker>
    <marker
       style="overflow:visible"
       id="marker33999"
       refX="0"
       refY="0"
       orient="auto"
       inkscape:stockid="Arrow1Mend"
       inkscape:isstock="true">
      <path
         transform="matrix(-0.4,0,0,-0.4,-4,0)"
         style="fill:context-stroke;fill-rule:evenodd;stroke:context-stroke;stroke-width:1pt"
         d="M 0,0 5,-5 -12.5,0 5,5 Z"
         id="path33997" />
    </marker>
    <marker
       style="overflow:visible"
       id="marker34003"
       refX="0"
       refY="0"
       orient="auto"
       inkscape:stockid="Arrow1Mend"
       inkscape:isstock="true">
      <path
         transform="matrix(-0.4,0,0,-0.4,-4,0)"
         style="fill:context-stroke;fill-rule:evenodd;stroke:context-stroke;stroke-width:1pt"
         d="M 0,0 5,-5 -12.5,0 5,5 Z"
         id="path34001" />
    </marker>
    <marker
       style="overflow:visible"
       id="Arrow1Mend-3-5"
       refX="0"
       refY="0"
       orient="auto"
       inkscape:stockid="Arrow1Mend"
       inkscape:isstock="true">
      <path
         transform="matrix(-0.4,0,0,-0.4,-4,0)"
         style="fill:context-stroke;fill-rule:evenodd;stroke:context-stroke;stroke-width:1pt"
         d="M 0,0 5,-5 -12.5,0 5,5 Z"
         id="path6863-6-6" />
    </marker>
    <marker
       style="overflow:visible"
       id="marker7228-7-2"
       refX="0"
       refY="0"
       orient="auto"
       inkscape:stockid="Arrow1Mend"
       inkscape:isstock="true">
      <path
         transform="matrix(-0.4,0,0,-0.4,-4,0)"
         style="fill:context-stroke;fill-rule:evenodd;stroke:context-stroke;stroke-width:1pt"
         d="M 0,0 5,-5 -12.5,0 5,5 Z"
         id="path7226-5-9" />
    </marker>
    <marker
       style="overflow:visible"
       id="marker50874"
       refX="0"
       refY="0"
       orient="auto"
       inkscape:stockid="Arrow1Mend"
       inkscape:isstock="true">
      <path
         transform="matrix(-0.4,0,0,-0.4,-4,0)"
         style="fill:context-stroke;fill-rule:evenodd;stroke:context-stroke;stroke-width:1pt"
         d="M 0,0 5,-5 -12.5,0 5,5 Z"
         id="path50872" />
    </marker>
    <marker
       style="overflow:visible"
       id="marker50878"
       refX="0"
       refY="0"
       orient="auto"
       inkscape:stockid="Arrow1Mend"
       inkscape:isstock="true">
      <path
         transform="matrix(-0.4,0,0,-0.4,-4,0)"
         style="fill:context-stroke;fill-rule:evenodd;stroke:context-stroke;stroke-width:1pt"
         d="M 0,0 5,-5 -12.5,0 5,5 Z"
         id="path50876" />
    </marker>
    <marker
       style="overflow:visible"
       id="marker50882"
       refX="0"
       refY="0"
       orient="auto"
       inkscape:stockid="Arrow1Mend"
       inkscape:isstock="true">
      <path
         transform="matrix(-0.4,0,0,-0.4,-4,0)"
         style="fill:context-stroke;fill-rule:evenodd;stroke:context-stroke;stroke-width:1pt"
         d="M 0,0 5,-5 -12.5,0 5,5 Z"
         id="path50880" />
    </marker>
    <marker
       style="overflow:visible"
       id="marker50886"
       refX="0"
       refY="0"
       orient="auto"
       inkscape:stockid="Arrow1Mend"
       inkscape:isstock="true">
      <path
         transform="matrix(-0.4,0,0,-0.4,-4,0)"
         style="fill:context-stroke;fill-rule:evenodd;stroke:context-stroke;stroke-width:1pt"
         d="M 0,0 5,-5 -12.5,0 5,5 Z"
         id="path50884" />
    </marker>
    <marker
       style="overflow:visible"
       id="Arrow1Mend-1"
       refX="0"
       refY="0"
       orient="auto"
       inkscape:stockid="Arrow1Mend"
       inkscape:isstock="true">
      <path
         transform="matrix(-0.4,0,0,-0.4,-4,0)"
         style="fill:context-stroke;fill-rule:evenodd;stroke:context-stroke;stroke-width:1pt"
         d="M 0,0 5,-5 -12.5,0 5,5 Z"
         id="path6863-2" />
    </marker>
    <marker
       style="overflow:visible"
       id="marker7228-7-5-7"
       refX="0"
       refY="0"
       orient="auto"
       inkscape:stockid="Arrow1Mend"
       inkscape:isstock="true">
      <path
         transform="matrix(-0.4,0,0,-0.4,-4,0)"
         style="fill:context-stroke;fill-rule:evenodd;stroke:context-stroke;stroke-width:1pt"
         d="M 0,0 5,-5 -12.5,0 5,5 Z"
         id="path7226-5-3-0" />
    </marker>
    <marker
       style="overflow:visible"
       id="Arrow1Mend-9-9"
       refX="0"
       refY="0"
       orient="auto"
       inkscape:stockid="Arrow1Mend"
       inkscape:isstock="true">
      <path
         transform="matrix(-0.4,0,0,-0.4,-4,0)"
         style="fill:context-stroke;fill-rule:evenodd;stroke:context-stroke;stroke-width:1pt"
         d="M 0,0 5,-5 -12.5,0 5,5 Z"
         id="path6863-1-3" />
    </marker>
    <marker
       style="overflow:visible"
       id="marker7228-2-6"
       refX="0"
       refY="0"
       orient="auto"
       inkscape:stockid="Arrow1Mend"
       inkscape:isstock="true">
      <path
         transform="matrix(-0.4,0,0,-0.4,-4,0)"
         style="fill:context-stroke;fill-rule:evenodd;stroke:context-stroke;stroke-width:1pt"
         d="M 0,0 5,-5 -12.5,0 5,5 Z"
         id="path7226-7-0" />
    </marker>
    <marker
       style="overflow:visible"
       id="marker51863"
       refX="0"
       refY="0"
       orient="auto"
       inkscape:stockid="Arrow1Mend"
       inkscape:isstock="true">
      <path
         transform="matrix(-0.4,0,0,-0.4,-4,0)"
         style="fill:context-stroke;fill-rule:evenodd;stroke:context-stroke;stroke-width:1pt"
         d="M 0,0 5,-5 -12.5,0 5,5 Z"
         id="path51861" />
    </marker>
    <marker
       style="overflow:visible"
       id="marker51867"
       refX="0"
       refY="0"
       orient="auto"
       inkscape:stockid="Arrow1Mend"
       inkscape:isstock="true">
      <path
         transform="matrix(-0.4,0,0,-0.4,-4,0)"
         style="fill:context-stroke;fill-rule:evenodd;stroke:context-stroke;stroke-width:1pt"
         d="M 0,0 5,-5 -12.5,0 5,5 Z"
         id="path51865" />
    </marker>
    <marker
       style="overflow:visible"
       id="marker51871"
       refX="0"
       refY="0"
       orient="auto"
       inkscape:stockid="Arrow1Mend"
       inkscape:isstock="true">
      <path
         transform="matrix(-0.4,0,0,-0.4,-4,0)"
         style="fill:context-stroke;fill-rule:evenodd;stroke:context-stroke;stroke-width:1pt"
         d="M 0,0 5,-5 -12.5,0 5,5 Z"
         id="path51869" />
    </marker>
    <marker
       style="overflow:visible"
       id="marker51875"
       refX="0"
       refY="0"
       orient="auto"
       inkscape:stockid="Arrow1Mend"
       inkscape:isstock="true">
      <path
         transform="matrix(-0.4,0,0,-0.4,-4,0)"
         style="fill:context-stroke;fill-rule:evenodd;stroke:context-stroke;stroke-width:1pt"
         d="M 0,0 5,-5 -12.5,0 5,5 Z"
         id="path51873" />
    </marker>
    <marker
       style="overflow:visible"
       id="Arrow1Mstart-3"
       refX="0"
       refY="0"
       orient="auto"
       inkscape:stockid="Arrow1Mstart"
       inkscape:isstock="true">
      <path
         transform="matrix(0.4,0,0,0.4,4,0)"
         style="fill:context-stroke;fill-rule:evenodd;stroke:context-stroke;stroke-width:1pt"
         d="M 0,0 5,-5 -12.5,0 5,5 Z"
         id="path1483-6" />
    </marker>
    <marker
       style="overflow:visible"
       id="marker930-7"
       refX="0"
       refY="0"
       orient="auto"
       inkscape:stockid="Arrow1Mend"
       inkscape:isstock="true">
      <path
         transform="matrix(-0.4,0,0,-0.4,-4,0)"
         style="fill:context-stroke;fill-rule:evenodd;stroke:context-stroke;stroke-width:1pt"
         d="M 0,0 5,-5 -12.5,0 5,5 Z"
         id="path928-5" />
    </marker>
    <marker
       style="overflow:visible"
       id="Arrow1Mstart-1"
       refX="0"
       refY="0"
       orient="auto"
       inkscape:stockid="Arrow1Mstart"
       inkscape:isstock="true">
      <path
         transform="matrix(0.4,0,0,0.4,4,0)"
         style="fill:context-stroke;fill-rule:evenodd;stroke:context-stroke;stroke-width:1pt"
         d="M 0,0 5,-5 -12.5,0 5,5 Z"
         id="path1483-2" />
    </marker>
    <marker
       style="overflow:visible"
       id="marker930-70"
       refX="0"
       refY="0"
       orient="auto"
       inkscape:stockid="Arrow1Mend"
       inkscape:isstock="true">
      <path
         transform="matrix(-0.4,0,0,-0.4,-4,0)"
         style="fill:context-stroke;fill-rule:evenodd;stroke:context-stroke;stroke-width:1pt"
         d="M 0,0 5,-5 -12.5,0 5,5 Z"
         id="path928-9" />
    </marker>
    <marker
       style="overflow:visible"
       id="Arrow2Mstart-1"
       refX="0"
       refY="0"
       orient="auto"
       inkscape:stockid="Arrow2Mstart"
       inkscape:isstock="true">
      <path
         transform="scale(0.6)"
         d="M 8.7185878,4.0337352 -2.2072895,0.01601326 8.7185884,-4.0017078 c -1.7454984,2.3720609 -1.7354408,5.6174519 -6e-7,8.035443 z"
         style="fill:context-stroke;fill-rule:evenodd;stroke:context-stroke;stroke-width:0.625;stroke-linejoin:round"
         id="path1501-8" />
    </marker>
    <marker
       style="overflow:visible"
       id="marker8170-7"
       refX="0"
       refY="0"
       orient="auto"
       inkscape:stockid="Arrow2Mend"
       inkscape:isstock="true">
      <path
         transform="scale(-0.6)"
         d="M 8.7185878,4.0337352 -2.2072895,0.01601326 8.7185884,-4.0017078 c -1.7454984,2.3720609 -1.7354408,5.6174519 -6e-7,8.035443 z"
         style="fill:context-stroke;fill-rule:evenodd;stroke:context-stroke;stroke-width:0.625;stroke-linejoin:round"
         id="path1504-9" />
    </marker>
    <marker
       style="overflow:visible"
       id="Arrow2Mstart-1-0"
       refX="0"
       refY="0"
       orient="auto"
       inkscape:stockid="Arrow2Mstart"
       inkscape:isstock="true">
      <path
         transform="scale(0.6)"
         d="M 8.7185878,4.0337352 -2.2072895,0.01601326 8.7185884,-4.0017078 c -1.7454984,2.3720609 -1.7354408,5.6174519 -6e-7,8.035443 z"
         style="fill:context-stroke;fill-rule:evenodd;stroke:context-stroke;stroke-width:0.625;stroke-linejoin:round"
         id="path1501-8-2" />
    </marker>
    <marker
       style="overflow:visible"
       id="marker8170-7-3"
       refX="0"
       refY="0"
       orient="auto"
       inkscape:stockid="Arrow2Mend"
       inkscape:isstock="true">
      <path
         transform="scale(-0.6)"
         d="M 8.7185878,4.0337352 -2.2072895,0.01601326 8.7185884,-4.0017078 c -1.7454984,2.3720609 -1.7354408,5.6174519 -6e-7,8.035443 z"
         style="fill:context-stroke;fill-rule:evenodd;stroke:context-stroke;stroke-width:0.625;stroke-linejoin:round"
         id="path1504-9-7" />
    </marker>
    <marker
       style="overflow:visible"
       id="Arrow2Mstart-1-0-9"
       refX="0"
       refY="0"
       orient="auto"
       inkscape:stockid="Arrow2Mstart"
       inkscape:isstock="true">
      <path
         transform="scale(0.6)"
         d="M 8.7185878,4.0337352 -2.2072895,0.01601326 8.7185884,-4.0017078 c -1.7454984,2.3720609 -1.7354408,5.6174519 -6e-7,8.035443 z"
         style="fill:context-stroke;fill-rule:evenodd;stroke:context-stroke;stroke-width:0.625;stroke-linejoin:round"
         id="path1501-8-2-2" />
    </marker>
    <marker
       style="overflow:visible"
       id="marker8170-7-3-2"
       refX="0"
       refY="0"
       orient="auto"
       inkscape:stockid="Arrow2Mend"
       inkscape:isstock="true">
      <path
         transform="scale(-0.6)"
         d="M 8.7185878,4.0337352 -2.2072895,0.01601326 8.7185884,-4.0017078 c -1.7454984,2.3720609 -1.7354408,5.6174519 -6e-7,8.035443 z"
         style="fill:context-stroke;fill-rule:evenodd;stroke:context-stroke;stroke-width:0.625;stroke-linejoin:round"
         id="path1504-9-7-8" />
    </marker>
    <marker
       style="overflow:visible"
       id="Arrow2Mstart-1-0-9-7"
       refX="0"
       refY="0"
       orient="auto"
       inkscape:stockid="Arrow2Mstart"
       inkscape:isstock="true">
      <path
         transform="scale(0.6)"
         d="M 8.7185878,4.0337352 -2.2072895,0.01601326 8.7185884,-4.0017078 c -1.7454984,2.3720609 -1.7354408,5.6174519 -6e-7,8.035443 z"
         style="fill:context-stroke;fill-rule:evenodd;stroke:context-stroke;stroke-width:0.625;stroke-linejoin:round"
         id="path1501-8-2-2-3" />
    </marker>
    <marker
       style="overflow:visible"
       id="marker8170-7-3-2-6"
       refX="0"
       refY="0"
       orient="auto"
       inkscape:stockid="Arrow2Mend"
       inkscape:isstock="true">
      <path
         transform="scale(-0.6)"
         d="M 8.7185878,4.0337352 -2.2072895,0.01601326 8.7185884,-4.0017078 c -1.7454984,2.3720609 -1.7354408,5.6174519 -6e-7,8.035443 z"
         style="fill:context-stroke;fill-rule:evenodd;stroke:context-stroke;stroke-width:0.625;stroke-linejoin:round"
         id="path1504-9-7-8-1" />
    </marker>
    <marker
       style="overflow:visible"
       id="Arrow2Mstart-1-0-9-7-9"
       refX="0"
       refY="0"
       orient="auto"
       inkscape:stockid="Arrow2Mstart"
       inkscape:isstock="true">
      <path
         transform="scale(0.6)"
         d="M 8.7185878,4.0337352 -2.2072895,0.01601326 8.7185884,-4.0017078 c -1.7454984,2.3720609 -1.7354408,5.6174519 -6e-7,8.035443 z"
         style="fill:context-stroke;fill-rule:evenodd;stroke:context-stroke;stroke-width:0.625;stroke-linejoin:round"
         id="path1501-8-2-2-3-3" />
    </marker>
    <marker
       style="overflow:visible"
       id="marker8170-7-3-2-6-1"
       refX="0"
       refY="0"
       orient="auto"
       inkscape:stockid="Arrow2Mend"
       inkscape:isstock="true">
      <path
         transform="scale(-0.6)"
         d="M 8.7185878,4.0337352 -2.2072895,0.01601326 8.7185884,-4.0017078 c -1.7454984,2.3720609 -1.7354408,5.6174519 -6e-7,8.035443 z"
         style="fill:context-stroke;fill-rule:evenodd;stroke:context-stroke;stroke-width:0.625;stroke-linejoin:round"
         id="path1504-9-7-8-1-9" />
    </marker>
    <marker
       style="overflow:visible"
       id="Arrow2Mstart-1-0-9-7-9-7"
       refX="0"
       refY="0"
       orient="auto"
       inkscape:stockid="Arrow2Mstart"
       inkscape:isstock="true">
      <path
         transform="scale(0.6)"
         d="M 8.7185878,4.0337352 -2.2072895,0.01601326 8.7185884,-4.0017078 c -1.7454984,2.3720609 -1.7354408,5.6174519 -6e-7,8.035443 z"
         style="fill:context-stroke;fill-rule:evenodd;stroke:context-stroke;stroke-width:0.625;stroke-linejoin:round"
         id="path1501-8-2-2-3-3-8" />
    </marker>
    <marker
       style="overflow:visible"
       id="marker8170-7-3-2-6-1-4"
       refX="0"
       refY="0"
       orient="auto"
       inkscape:stockid="Arrow2Mend"
       inkscape:isstock="true">
      <path
         transform="scale(-0.6)"
         d="M 8.7185878,4.0337352 -2.2072895,0.01601326 8.7185884,-4.0017078 c -1.7454984,2.3720609 -1.7354408,5.6174519 -6e-7,8.035443 z"
         style="fill:context-stroke;fill-rule:evenodd;stroke:context-stroke;stroke-width:0.625;stroke-linejoin:round"
         id="path1504-9-7-8-1-9-5" />
    </marker>
    <marker
       style="overflow:visible"
       id="Arrow2Mstart-1-0-9-7-9-7-3"
       refX="0"
       refY="0"
       orient="auto"
       inkscape:stockid="Arrow2Mstart"
       inkscape:isstock="true">
      <path
         transform="scale(0.6)"
         d="M 8.7185878,4.0337352 -2.2072895,0.01601326 8.7185884,-4.0017078 c -1.7454984,2.3720609 -1.7354408,5.6174519 -6e-7,8.035443 z"
         style="fill:context-stroke;fill-rule:evenodd;stroke:context-stroke;stroke-width:0.625;stroke-linejoin:round"
         id="path1501-8-2-2-3-3-8-6" />
    </marker>
    <marker
       style="overflow:visible"
       id="marker8170-7-3-2-6-1-4-1"
       refX="0"
       refY="0"
       orient="auto"
       inkscape:stockid="Arrow2Mend"
       inkscape:isstock="true">
      <path
         transform="scale(-0.6)"
         d="M 8.7185878,4.0337352 -2.2072895,0.01601326 8.7185884,-4.0017078 c -1.7454984,2.3720609 -1.7354408,5.6174519 -6e-7,8.035443 z"
         style="fill:context-stroke;fill-rule:evenodd;stroke:context-stroke;stroke-width:0.625;stroke-linejoin:round"
         id="path1504-9-7-8-1-9-5-0" />
    </marker>
    <marker
       style="overflow:visible"
       id="Arrow2Mstart-1-0-9-7-9-7-3-3"
       refX="0"
       refY="0"
       orient="auto"
       inkscape:stockid="Arrow2Mstart"
       inkscape:isstock="true">
      <path
         transform="scale(0.6)"
         d="M 8.7185878,4.0337352 -2.2072895,0.01601326 8.7185884,-4.0017078 c -1.7454984,2.3720609 -1.7354408,5.6174519 -6e-7,8.035443 z"
         style="fill:context-stroke;fill-rule:evenodd;stroke:context-stroke;stroke-width:0.625;stroke-linejoin:round"
         id="path1501-8-2-2-3-3-8-6-2" />
    </marker>
    <marker
       style="overflow:visible"
       id="marker8170-7-3-2-6-1-4-1-0"
       refX="0"
       refY="0"
       orient="auto"
       inkscape:stockid="Arrow2Mend"
       inkscape:isstock="true">
      <path
         transform="scale(-0.6)"
         d="M 8.7185878,4.0337352 -2.2072895,0.01601326 8.7185884,-4.0017078 c -1.7454984,2.3720609 -1.7354408,5.6174519 -6e-7,8.035443 z"
         style="fill:context-stroke;fill-rule:evenodd;stroke:context-stroke;stroke-width:0.625;stroke-linejoin:round"
         id="path1504-9-7-8-1-9-5-0-6" />
    </marker>
    <marker
       style="overflow:visible"
       id="Arrow2Mstart-1-0-9-7-9-7-3-3-3"
       refX="0"
       refY="0"
       orient="auto"
       inkscape:stockid="Arrow2Mstart"
       inkscape:isstock="true">
      <path
         transform="scale(0.6)"
         d="M 8.7185878,4.0337352 -2.2072895,0.01601326 8.7185884,-4.0017078 c -1.7454984,2.3720609 -1.7354408,5.6174519 -6e-7,8.035443 z"
         style="fill:context-stroke;fill-rule:evenodd;stroke:context-stroke;stroke-width:0.625;stroke-linejoin:round"
         id="path1501-8-2-2-3-3-8-6-2-6" />
    </marker>
    <marker
       style="overflow:visible"
       id="marker8170-7-3-2-6-1-4-1-0-7"
       refX="0"
       refY="0"
       orient="auto"
       inkscape:stockid="Arrow2Mend"
       inkscape:isstock="true">
      <path
         transform="scale(-0.6)"
         d="M 8.7185878,4.0337352 -2.2072895,0.01601326 8.7185884,-4.0017078 c -1.7454984,2.3720609 -1.7354408,5.6174519 -6e-7,8.035443 z"
         style="fill:context-stroke;fill-rule:evenodd;stroke:context-stroke;stroke-width:0.625;stroke-linejoin:round"
         id="path1504-9-7-8-1-9-5-0-6-5" />
    </marker>
    <marker
       style="overflow:visible"
       id="Arrow2Mstart-1-0-9-7-9-7-3-3-3-5"
       refX="0"
       refY="0"
       orient="auto"
       inkscape:stockid="Arrow2Mstart"
       inkscape:isstock="true">
      <path
         transform="scale(0.6)"
         d="M 8.7185878,4.0337352 -2.2072895,0.01601326 8.7185884,-4.0017078 c -1.7454984,2.3720609 -1.7354408,5.6174519 -6e-7,8.035443 z"
         style="fill:context-stroke;fill-rule:evenodd;stroke:context-stroke;stroke-width:0.625;stroke-linejoin:round"
         id="path1501-8-2-2-3-3-8-6-2-6-6" />
    </marker>
    <marker
       style="overflow:visible"
       id="marker8170-7-3-2-6-1-4-1-0-7-2"
       refX="0"
       refY="0"
       orient="auto"
       inkscape:stockid="Arrow2Mend"
       inkscape:isstock="true">
      <path
         transform="scale(-0.6)"
         d="M 8.7185878,4.0337352 -2.2072895,0.01601326 8.7185884,-4.0017078 c -1.7454984,2.3720609 -1.7354408,5.6174519 -6e-7,8.035443 z"
         style="fill:context-stroke;fill-rule:evenodd;stroke:context-stroke;stroke-width:0.625;stroke-linejoin:round"
         id="path1504-9-7-8-1-9-5-0-6-5-9" />
    </marker>
    <marker
       style="overflow:visible"
       id="Arrow2Mstart-1-0-9-7-9-7-3-3-3-5-2"
       refX="0"
       refY="0"
       orient="auto"
       inkscape:stockid="Arrow2Mstart"
       inkscape:isstock="true">
      <path
         transform="scale(0.6)"
         d="M 8.7185878,4.0337352 -2.2072895,0.01601326 8.7185884,-4.0017078 c -1.7454984,2.3720609 -1.7354408,5.6174519 -6e-7,8.035443 z"
         style="fill:context-stroke;fill-rule:evenodd;stroke:context-stroke;stroke-width:0.625;stroke-linejoin:round"
         id="path1501-8-2-2-3-3-8-6-2-6-6-7" />
    </marker>
    <marker
       style="overflow:visible"
       id="marker8170-7-3-2-6-1-4-1-0-7-2-0"
       refX="0"
       refY="0"
       orient="auto"
       inkscape:stockid="Arrow2Mend"
       inkscape:isstock="true">
      <path
         transform="scale(-0.6)"
         d="M 8.7185878,4.0337352 -2.2072895,0.01601326 8.7185884,-4.0017078 c -1.7454984,2.3720609 -1.7354408,5.6174519 -6e-7,8.035443 z"
         style="fill:context-stroke;fill-rule:evenodd;stroke:context-stroke;stroke-width:0.625;stroke-linejoin:round"
         id="path1504-9-7-8-1-9-5-0-6-5-9-9" />
    </marker>
    <marker
       style="overflow:visible"
       id="Arrow2Mstart-1-0-9-7-9-7-3-3-3-3"
       refX="0"
       refY="0"
       orient="auto"
       inkscape:stockid="Arrow2Mstart"
       inkscape:isstock="true">
      <path
         transform="scale(0.6)"
         d="M 8.7185878,4.0337352 -2.2072895,0.01601326 8.7185884,-4.0017078 c -1.7454984,2.3720609 -1.7354408,5.6174519 -6e-7,8.035443 z"
         style="fill:context-stroke;fill-rule:evenodd;stroke:context-stroke;stroke-width:0.625;stroke-linejoin:round"
         id="path1501-8-2-2-3-3-8-6-2-6-67" />
    </marker>
    <marker
       style="overflow:visible"
       id="marker8170-7-3-2-6-1-4-1-0-7-5"
       refX="0"
       refY="0"
       orient="auto"
       inkscape:stockid="Arrow2Mend"
       inkscape:isstock="true">
      <path
         transform="scale(-0.6)"
         d="M 8.7185878,4.0337352 -2.2072895,0.01601326 8.7185884,-4.0017078 c -1.7454984,2.3720609 -1.7354408,5.6174519 -6e-7,8.035443 z"
         style="fill:context-stroke;fill-rule:evenodd;stroke:context-stroke;stroke-width:0.625;stroke-linejoin:round"
         id="path1504-9-7-8-1-9-5-0-6-5-3" />
    </marker>
  </defs>
  <g
     inkscape:label="Layer 1"
     inkscape:groupmode="layer"
     id="layer1">
    <text
       xml:space="preserve"
       transform="scale(0.26458333)"
       id="text25185"
       style="font-style:normal;font-weight:normal;font-size:40px;line-height:1.25;font-family:sans-serif;white-space:pre;shape-inside:url(#rect25187);fill:#000000;fill-opacity:1;stroke:none" />
    <rect
       style="fill:#ffffff;stroke:#000000;stroke-width:1;stroke-miterlimit:4;stroke-dasharray:none;stroke-dashoffset:0"
       id="rect25504"
       width="224.89583"
       height="54.578415"
       x="34.659008"
       y="45.698635" />
    <rect
       style="fill:#8dd35f;stroke:#000000;stroke-width:1;stroke-miterlimit:4;stroke-dasharray:none;stroke-dashoffset:4.99999"
       id="rect14370"
       width="109.80209"
       height="25.135429"
       x="36.511089"
       y="59.531033" />
    <text
       xml:space="preserve"
       style="font-style:normal;font-weight:normal;font-size:10.5833px;line-height:1.25;font-family:sans-serif;letter-spacing:0px;fill:#000000;fill-opacity:1;stroke:none;stroke-width:0.264583"
       x="38.0392"
       y="68.666298"
       id="text5890-36"
       transform="rotate(0.01698)"><tspan
         sodipodi:role="line"
         style="stroke-width:0.264583"
         x="38.0392"
         y="68.666298"
         id="tspan6222">Cortex A9 MPCore</tspan><tspan
         sodipodi:role="line"
         style="stroke-width:0.264583"
         x="38.0392"
         y="81.895409"
         id="tspan6766">32/32 kB I/D caches</tspan><tspan
         sodipodi:role="line"
         style="stroke-width:0.264583"
         x="38.0392"
         y="95.124535"
         id="tspan5482" /><tspan
         sodipodi:role="line"
         style="stroke-width:0.264583"
         x="38.0392"
         y="108.35366"
         id="tspan5480" /></text>
    <rect
       style="fill:#8dd35f;stroke:#000000;stroke-width:1;stroke-miterlimit:4;stroke-dasharray:none;stroke-dashoffset:4.99999"
       id="rect14370-5"
       width="109.80209"
       height="25.135429"
       x="148.16667"
       y="59.531246" />
    <text
       xml:space="preserve"
       style="font-style:normal;font-weight:normal;font-size:10.5833px;line-height:1.25;font-family:sans-serif;letter-spacing:0px;fill:#000000;fill-opacity:1;stroke:none;stroke-width:0.264583"
       x="150.22398"
       y="68.633385"
       id="text5890-36-3"
       transform="rotate(0.01698)"><tspan
         sodipodi:role="line"
         style="stroke-width:0.264583"
         x="150.22398"
         y="68.633385"
         id="tspan6222-5">Cortex A9 MPCore</tspan><tspan
         sodipodi:role="line"
         style="stroke-width:0.264583"
         x="150.22398"
         y="81.862511"
         id="tspan6766-6">32/32 kB I/D caches</tspan><tspan
         sodipodi:role="line"
         style="stroke-width:0.264583"
         x="150.22398"
         y="95.091637"
         id="tspan5482-2" /><tspan
         sodipodi:role="line"
         style="stroke-width:0.264583"
         x="150.22398"
         y="108.32076"
         id="tspan5480-9" /></text>
    <rect
       style="fill:#b7c8b7;stroke:#000000;stroke-width:1;stroke-miterlimit:4;stroke-dasharray:none;stroke-dashoffset:18.8976"
       id="rect15288"
       width="221.7184"
       height="10.874453"
       x="36.355511"
       y="86.93116" />
    <text
       xml:space="preserve"
       style="font-style:normal;font-weight:normal;font-size:10.5833px;line-height:1.25;font-family:sans-serif;letter-spacing:0px;fill:#000000;fill-opacity:1;stroke:none;stroke-width:0.264583"
       x="107.37791"
       y="96.132011"
       id="text5890-36-1"
       transform="rotate(0.01698)"><tspan
         sodipodi:role="line"
         style="stroke-width:0.264583"
         x="107.37791"
         y="96.132011"
         id="tspan6766-7">512 kB L2 Cache </tspan><tspan
         sodipodi:role="line"
         style="stroke-width:0.264583"
         x="107.37791"
         y="109.36114"
         id="tspan5482-0" /><tspan
         sodipodi:role="line"
         style="stroke-width:0.264583"
         x="107.37791"
         y="122.59026"
         id="tspan5480-93" /></text>
    <text
       xml:space="preserve"
       style="font-style:normal;font-weight:normal;font-size:10.5833px;line-height:1.25;font-family:sans-serif;letter-spacing:0px;fill:#000000;fill-opacity:1;stroke:none;stroke-width:0.264583"
       x="76.020416"
       y="55.482136"
       id="text5890-36-6"
       transform="rotate(0.01698)"><tspan
         sodipodi:role="line"
         style="font-weight:bold;stroke-width:0.264583"
         x="76.020416"
         y="55.482136"
         id="tspan6766-62">Processing System (PS)</tspan><tspan
         sodipodi:role="line"
         style="stroke-width:0.264583"
         x="76.020416"
         y="68.711266"
         id="tspan5482-6" /><tspan
         sodipodi:role="line"
         style="stroke-width:0.264583"
         x="76.020416"
         y="81.940392"
         id="tspan5480-1" /></text>
    <rect
       style="fill:#ffffff;stroke:#000000;stroke-width:1;stroke-miterlimit:4;stroke-dasharray:none;stroke-dashoffset:0"
       id="rect25504-3-0"
       width="141.35849"
       height="40.295197"
       x="301.88748"
       y="111.578" />
    <rect
       style="fill:#ffcc00;stroke:#000000;stroke-width:1;stroke-miterlimit:4;stroke-dasharray:none;stroke-dashoffset:4.99999"
       id="rect14370-6-2"
       width="137.25999"
       height="25.133642"
       x="303.74255"
       y="125.41335" />
    <text
       xml:space="preserve"
       style="font-style:normal;font-weight:normal;font-size:10.5833px;line-height:1.25;font-family:sans-serif;letter-spacing:0px;fill:#000000;fill-opacity:1;stroke:none;stroke-width:0.264583"
       x="305.28894"
       y="134.4682"
       id="text5890-36-7-3"
       transform="rotate(0.01698)"><tspan
         sodipodi:role="line"
         style="stroke-width:0.264583"
         x="305.28894"
         y="134.4682"
         id="tspan6766-5-5">System Gates, LUTs, </tspan><tspan
         sodipodi:role="line"
         style="stroke-width:0.264583"
         x="305.28894"
         y="147.69733"
         id="tspan26025">CLBs, DSP, RAM.</tspan><tspan
         sodipodi:role="line"
         style="stroke-width:0.264583"
         x="305.28894"
         y="160.92645"
         id="tspan5482-62-9" /><tspan
         sodipodi:role="line"
         style="stroke-width:0.264583"
         x="305.28894"
         y="174.15558"
         id="tspan5480-91-2" /></text>
    <text
       xml:space="preserve"
       style="font-style:normal;font-weight:normal;font-size:10.5833px;line-height:1.25;font-family:sans-serif;letter-spacing:0px;fill:#000000;fill-opacity:1;stroke:none;stroke-width:0.264583"
       x="302.5235"
       y="121.29578"
       id="text5890-36-6-8-9"
       transform="rotate(0.01698)"><tspan
         sodipodi:role="line"
         style="font-weight:bold;stroke-width:0.264583"
         x="302.5235"
         y="121.29578"
         id="tspan6766-62-7-4">Programable Logic (PL)</tspan><tspan
         sodipodi:role="line"
         style="stroke-width:0.264583"
         x="302.5235"
         y="134.5249"
         id="tspan5482-6-9-7" /><tspan
         sodipodi:role="line"
         style="stroke-width:0.264583"
         x="302.5235"
         y="147.75403"
         id="tspan5480-1-2-8" /></text>
    <rect
       style="fill:#abc837;stroke:#000000;stroke-width:1;stroke-miterlimit:4;stroke-dasharray:none;stroke-dashoffset:18.8976"
       id="rect15288-4"
       width="221.7184"
       height="10.874453"
       x="34.659008"
       y="115.33177" />
    <rect
       style="fill:#abc837;stroke:#000000;stroke-width:1;stroke-miterlimit:4;stroke-dasharray:none;stroke-dashoffset:18.8976"
       id="rect15288-4-5"
       width="96.837517"
       height="10.874453"
       x="55.5625"
       y="-286.57016"
       transform="rotate(90)" />
    <rect
       style="fill:#55ddff;stroke:#000000;stroke-width:1;stroke-miterlimit:4;stroke-dasharray:none;stroke-dashoffset:4.99999"
       id="rect14370-6-0"
       width="18.520851"
       height="10.583361"
       x="34.92358"
       y="141.81653" />
    <text
       xml:space="preserve"
       style="font-style:normal;font-weight:normal;font-size:10.5833px;line-height:1.25;font-family:sans-serif;letter-spacing:0px;fill:#000000;fill-opacity:1;stroke:none;stroke-width:0.264583"
       x="35.41737"
       y="150.95256"
       id="text5890-36-7-36"
       transform="rotate(0.01698)"><tspan
         sodipodi:role="line"
         style="stroke-width:0.264583"
         x="35.41737"
         y="150.95256"
         id="tspan6766-5-0">SPI</tspan><tspan
         sodipodi:role="line"
         style="stroke-width:0.264583"
         x="35.41737"
         y="164.18169"
         id="tspan5482-62-6" /><tspan
         sodipodi:role="line"
         style="stroke-width:0.264583"
         x="35.41737"
         y="177.41081"
         id="tspan5480-91-3" /></text>
    <rect
       style="fill:#55ddff;stroke:#000000;stroke-width:1;stroke-miterlimit:4;stroke-dasharray:none;stroke-dashoffset:4.99999"
       id="rect14370-6-0-3"
       width="18.520851"
       height="10.583361"
       x="58.206959"
       y="141.81641" />
    <text
       xml:space="preserve"
       style="font-style:normal;font-weight:normal;font-size:10.5833px;line-height:1.25;font-family:sans-serif;letter-spacing:0px;fill:#000000;fill-opacity:1;stroke:none;stroke-width:0.264583"
       x="58.700779"
       y="150.9456"
       id="text5890-36-7-36-6"
       transform="rotate(0.01698)"><tspan
         sodipodi:role="line"
         style="stroke-width:0.264583"
         x="58.700779"
         y="150.9456"
         id="tspan6766-5-0-7">I2C</tspan><tspan
         sodipodi:role="line"
         style="stroke-width:0.264583"
         x="58.700779"
         y="164.17473"
         id="tspan5482-62-6-5" /><tspan
         sodipodi:role="line"
         style="stroke-width:0.264583"
         x="58.700779"
         y="177.40385"
         id="tspan5480-91-3-3" /></text>
    <rect
       style="fill:#55ddff;stroke:#000000;stroke-width:1;stroke-miterlimit:4;stroke-dasharray:none;stroke-dashoffset:4.99999"
       id="rect14370-6-0-5"
       width="23.548"
       height="10.583361"
       x="80.961441"
       y="141.81641" />
    <text
       xml:space="preserve"
       style="font-style:normal;font-weight:normal;font-size:10.5833px;line-height:1.25;font-family:sans-serif;letter-spacing:0px;fill:#000000;fill-opacity:1;stroke:none;stroke-width:0.264583"
       x="81.455307"
       y="150.93904"
       id="text5890-36-7-36-62"
       transform="rotate(0.01698)"><tspan
         sodipodi:role="line"
         style="stroke-width:0.264583"
         x="81.455307"
         y="150.93904"
         id="tspan6766-5-0-9">CAN</tspan><tspan
         sodipodi:role="line"
         style="stroke-width:0.264583"
         x="81.455307"
         y="164.16817"
         id="tspan5482-62-6-12" /><tspan
         sodipodi:role="line"
         style="stroke-width:0.264583"
         x="81.455307"
         y="177.39729"
         id="tspan5480-91-3-7" /></text>
    <rect
       style="fill:#55ddff;stroke:#000000;stroke-width:1;stroke-miterlimit:4;stroke-dasharray:none;stroke-dashoffset:4.99999"
       id="rect14370-6-0-5-0"
       width="29.633347"
       height="10.583361"
       x="108.74234"
       y="141.81656" />
    <text
       xml:space="preserve"
       style="font-style:normal;font-weight:normal;font-size:10.5833px;line-height:1.25;font-family:sans-serif;letter-spacing:0px;fill:#000000;fill-opacity:1;stroke:none;stroke-width:0.264583"
       x="109.23626"
       y="150.93095"
       id="text5890-36-7-36-62-9"
       transform="rotate(0.01698)"><tspan
         sodipodi:role="line"
         style="stroke-width:0.264583"
         x="109.23626"
         y="150.93095"
         id="tspan5482-62-6-12-6">UART</tspan><tspan
         sodipodi:role="line"
         style="stroke-width:0.264583"
         x="109.23626"
         y="164.16008"
         id="tspan5480-91-3-7-0" /></text>
    <rect
       style="fill:#55ddff;stroke:#000000;stroke-width:1;stroke-miterlimit:4;stroke-dasharray:none;stroke-dashoffset:4.99999"
       id="rect14370-6-0-5-0-6"
       width="26.987532"
       height="10.583361"
       x="142.60889"
       y="141.81656" />
    <text
       xml:space="preserve"
       style="font-style:normal;font-weight:normal;font-size:10.5833px;line-height:1.25;font-family:sans-serif;letter-spacing:0px;fill:#000000;fill-opacity:1;stroke:none;stroke-width:0.264583"
       x="143.10266"
       y="150.92091"
       id="text5890-36-7-36-62-9-2"
       transform="rotate(0.01698)"><tspan
         sodipodi:role="line"
         style="stroke-width:0.264583"
         x="143.10266"
         y="150.92091"
         id="tspan5482-62-6-12-6-6">GPIO</tspan><tspan
         sodipodi:role="line"
         style="stroke-width:0.264583"
         x="143.10266"
         y="164.15004"
         id="tspan5480-91-3-7-0-1" /></text>
    <rect
       style="fill:#55ddff;stroke:#000000;stroke-width:1;stroke-miterlimit:4;stroke-dasharray:none;stroke-dashoffset:4.99999"
       id="rect14370-6-0-5-0-6-8"
       width="26.987562"
       height="10.583361"
       x="173.30049"
       y="141.81656" />
    <text
       xml:space="preserve"
       style="font-style:normal;font-weight:normal;font-size:10.5833px;line-height:1.25;font-family:sans-serif;letter-spacing:0px;fill:#000000;fill-opacity:1;stroke:none;stroke-width:0.264583"
       x="173.7943"
       y="150.91182"
       id="text5890-36-7-36-62-9-2-7"
       transform="rotate(0.01698)"><tspan
         sodipodi:role="line"
         style="stroke-width:0.264583"
         x="173.7943"
         y="150.91182"
         id="tspan5482-62-6-12-6-6-9">SDIO</tspan><tspan
         sodipodi:role="line"
         style="stroke-width:0.264583"
         x="173.7943"
         y="164.14095"
         id="tspan5480-91-3-7-0-1-2" /></text>
    <rect
       style="fill:#55ddff;stroke:#000000;stroke-width:1;stroke-miterlimit:4;stroke-dasharray:none;stroke-dashoffset:4.99999"
       id="rect14370-6-0-5-0-6-8-0"
       width="22.754208"
       height="10.583361"
       x="203.99216"
       y="141.81653" />
    <text
       xml:space="preserve"
       style="font-style:normal;font-weight:normal;font-size:10.5833px;line-height:1.25;font-family:sans-serif;letter-spacing:0px;fill:#000000;fill-opacity:1;stroke:none;stroke-width:0.264583"
       x="204.48596"
       y="150.90266"
       id="text5890-36-7-36-62-9-2-7-2"
       transform="rotate(0.01698)"><tspan
         sodipodi:role="line"
         style="stroke-width:0.264583"
         x="204.48596"
         y="150.90266"
         id="tspan5482-62-6-12-6-6-9-3">USB</tspan><tspan
         sodipodi:role="line"
         style="stroke-width:0.264583"
         x="204.48596"
         y="164.13179"
         id="tspan5480-91-3-7-0-1-2-7" /></text>
    <rect
       style="fill:#55ddff;stroke:#000000;stroke-width:1;stroke-miterlimit:4;stroke-dasharray:none;stroke-dashoffset:4.99999"
       id="rect14370-6-0-5-0-6-8-0-5"
       width="25.664616"
       height="10.583361"
       x="230.71507"
       y="141.81656" />
    <text
       xml:space="preserve"
       style="font-style:normal;font-weight:normal;font-size:10.5833px;line-height:1.25;font-family:sans-serif;letter-spacing:0px;fill:#000000;fill-opacity:1;stroke:none;stroke-width:0.264583"
       x="231.20882"
       y="150.89473"
       id="text5890-36-7-36-62-9-2-7-2-9"
       transform="rotate(0.01698)"><tspan
         sodipodi:role="line"
         style="stroke-width:0.264583"
         x="231.20882"
         y="150.89473"
         id="tspan5482-62-6-12-6-6-9-3-2">GigE</tspan><tspan
         sodipodi:role="line"
         style="stroke-width:0.264583"
         x="231.20882"
         y="164.12386"
         id="tspan5480-91-3-7-0-1-2-7-2" /></text>
    <rect
       style="fill:#55ddff;stroke:#000000;stroke-width:1.35031;stroke-miterlimit:4;stroke-dasharray:none;stroke-dashoffset:4.99999"
       id="rect14370-6-0-5-0-6-8-0-5-3"
       width="141.024"
       height="38.204773"
       x="302.02127"
       y="45.800938" />
    <text
       xml:space="preserve"
       style="font-style:normal;font-weight:normal;font-size:10.5833px;line-height:1.25;font-family:sans-serif;letter-spacing:0px;fill:#000000;fill-opacity:1;stroke:none;stroke-width:0.264583"
       x="324.5831"
       y="62.496304"
       id="text5890-36-7-36-62-9-2-7-2-9-6"
       transform="rotate(0.01698)"><tspan
         sodipodi:role="line"
         style="font-weight:bold;stroke-width:0.264583"
         x="324.5831"
         y="62.496304"
         id="tspan5482-62-6-12-6-6-9-3-2-7">Multiport DRAM</tspan><tspan
         sodipodi:role="line"
         style="font-weight:bold;stroke-width:0.264583"
         x="324.5831"
         y="75.725426"
         id="tspan2183">Controller DDR3</tspan><tspan
         sodipodi:role="line"
         style="font-weight:bold;stroke-width:0.264583"
         x="324.5831"
         y="88.954552"
         id="tspan5480-91-3-7-0-1-2-7-2-5" /></text>
    <text
       xml:space="preserve"
       style="font-style:normal;font-weight:normal;font-size:10.5833px;line-height:1.25;font-family:sans-serif;letter-spacing:0px;fill:#000000;fill-opacity:1;stroke:none;stroke-width:0.264583"
       x="-151.47781"
       y="284.89355"
       id="text5890-36-6-8-9-5"
       transform="rotate(-89.98302)"><tspan
         sodipodi:role="line"
         style="font-size:9.87778px;stroke-width:0.264583"
         x="-151.47781"
         y="284.89355"
         id="tspan6766-62-7-4-6">AMBA Interconnect</tspan><tspan
         sodipodi:role="line"
         style="stroke-width:0.264583"
         x="-151.47781"
         y="298.12268"
         id="tspan5482-6-9-7-2" /><tspan
         sodipodi:role="line"
         style="stroke-width:0.264583"
         x="-151.47781"
         y="311.35181"
         id="tspan5480-1-2-8-9" /></text>
    <path
       style="display:inline;fill:none;fill-rule:evenodd;stroke:#000000;stroke-width:1;stroke-linecap:butt;stroke-linejoin:miter;stroke-miterlimit:6;stroke-dasharray:none;stroke-opacity:1;marker-start:url(#Arrow2Mstart);marker-end:url(#marker8170)"
       d="M 146.05,100.80624 V 114.3"
       id="path1373-36"
       inkscape:connector-type="polyline"
       inkscape:connector-curvature="0" />
    <text
       xml:space="preserve"
       style="font-style:normal;font-weight:normal;font-size:10.5833px;line-height:1.25;font-family:sans-serif;letter-spacing:0px;fill:#000000;fill-opacity:1;stroke:none;stroke-width:0.264583"
       x="95.747749"
       y="123.92095"
       id="text5890-36-6-8-9-5-0"
       transform="rotate(0.01698)"><tspan
         sodipodi:role="line"
         style="stroke-width:0.264583"
         x="95.747749"
         y="123.92095"
         id="tspan6766-62-7-4-6-6">AMBA Interconnect</tspan><tspan
         sodipodi:role="line"
         style="stroke-width:0.264583"
         x="95.747749"
         y="137.15009"
         id="tspan5482-6-9-7-2-2" /><tspan
         sodipodi:role="line"
         style="stroke-width:0.264583"
         x="95.747749"
         y="150.37921"
         id="tspan5480-1-2-8-9-6" /></text>
    <path
       style="display:inline;fill:none;fill-rule:evenodd;stroke:#000000;stroke-width:1;stroke-linecap:butt;stroke-linejoin:miter;stroke-miterlimit:6;stroke-dasharray:none;stroke-opacity:1;marker-start:url(#Arrow2Mstart-1);marker-end:url(#marker8170-7)"
       d="m 43.920834,127.26459 v 13.49376"
       id="path1373-36-2"
       inkscape:connector-type="polyline"
       inkscape:connector-curvature="0" />
    <path
       style="display:inline;fill:none;fill-rule:evenodd;stroke:#000000;stroke-width:1;stroke-linecap:butt;stroke-linejoin:miter;stroke-miterlimit:6;stroke-dasharray:none;stroke-opacity:1;marker-start:url(#Arrow2Mstart-1-0);marker-end:url(#marker8170-7-3)"
       d="m 65.616665,127.26437 v 13.49376"
       id="path1373-36-2-5"
       inkscape:connector-type="polyline"
       inkscape:connector-curvature="0" />
    <path
       style="display:inline;fill:none;fill-rule:evenodd;stroke:#000000;stroke-width:1;stroke-linecap:butt;stroke-linejoin:miter;stroke-miterlimit:6;stroke-dasharray:none;stroke-opacity:1;marker-start:url(#Arrow2Mstart-1-0-9);marker-end:url(#marker8170-7-3-2)"
       d="m 92.604174,127.26417 v 13.49376"
       id="path1373-36-2-5-9"
       inkscape:connector-type="polyline"
       inkscape:connector-curvature="0" />
    <path
       style="display:inline;fill:none;fill-rule:evenodd;stroke:#000000;stroke-width:1;stroke-linecap:butt;stroke-linejoin:miter;stroke-miterlimit:6;stroke-dasharray:none;stroke-opacity:1;marker-start:url(#Arrow2Mstart-1-0-9-7);marker-end:url(#marker8170-7-3-2-6)"
       d="M 123.29599,127.26414 V 140.7579"
       id="path1373-36-2-5-9-2"
       inkscape:connector-type="polyline"
       inkscape:connector-curvature="0" />
    <path
       style="display:inline;fill:none;fill-rule:evenodd;stroke:#000000;stroke-width:1;stroke-linecap:butt;stroke-linejoin:miter;stroke-miterlimit:6;stroke-dasharray:none;stroke-opacity:1;marker-start:url(#Arrow2Mstart-1-0-9-7-9);marker-end:url(#marker8170-7-3-2-6-1)"
       d="m 157.16282,127.26416 v 13.49376"
       id="path1373-36-2-5-9-2-4"
       inkscape:connector-type="polyline"
       inkscape:connector-curvature="0" />
    <path
       style="display:inline;fill:none;fill-rule:evenodd;stroke:#000000;stroke-width:1;stroke-linecap:butt;stroke-linejoin:miter;stroke-miterlimit:6;stroke-dasharray:none;stroke-opacity:1;marker-start:url(#Arrow2Mstart-1-0-9-7-9-7);marker-end:url(#marker8170-7-3-2-6-1-4)"
       d="m 187.85453,127.26416 v 13.49376"
       id="path1373-36-2-5-9-2-4-0"
       inkscape:connector-type="polyline"
       inkscape:connector-curvature="0" />
    <path
       style="display:inline;fill:none;fill-rule:evenodd;stroke:#000000;stroke-width:1;stroke-linecap:butt;stroke-linejoin:miter;stroke-miterlimit:6;stroke-dasharray:none;stroke-opacity:1;marker-start:url(#Arrow2Mstart-1-0-9-7-9-7-3);marker-end:url(#marker8170-7-3-2-6-1-4-1)"
       d="m 215.37129,127.26399 v 13.49376"
       id="path1373-36-2-5-9-2-4-0-6"
       inkscape:connector-type="polyline"
       inkscape:connector-curvature="0" />
    <path
       style="display:inline;fill:none;fill-rule:evenodd;stroke:#000000;stroke-width:1;stroke-linecap:butt;stroke-linejoin:miter;stroke-miterlimit:6;stroke-dasharray:none;stroke-opacity:1;marker-start:url(#Arrow2Mstart-1-0-9-7-9-7-3-3);marker-end:url(#marker8170-7-3-2-6-1-4-1-0)"
       d="m 242.88813,127.26377 v 13.49376"
       id="path1373-36-2-5-9-2-4-0-6-1"
       inkscape:connector-type="polyline"
       inkscape:connector-curvature="0" />
    <path
       style="display:inline;fill:none;fill-rule:evenodd;stroke:#000000;stroke-width:1;stroke-linecap:butt;stroke-linejoin:miter;stroke-miterlimit:6;stroke-dasharray:none;stroke-opacity:1;marker-start:url(#Arrow2Mstart-1-0-9-7-9-7-3-3-3);marker-end:url(#marker8170-7-3-2-6-1-4-1-0-7)"
       d="M 274.10834,85.460425 H 260.61458"
       id="path1373-36-2-5-9-2-4-0-6-1-3"
       inkscape:connector-type="polyline"
       inkscape:connector-curvature="0" />
    <path
       style="display:inline;fill:none;fill-rule:evenodd;stroke:#000000;stroke-width:1;stroke-linecap:butt;stroke-linejoin:miter;stroke-miterlimit:6;stroke-dasharray:none;stroke-opacity:1;marker-start:url(#Arrow2Mstart-1-0-9-7-9-7-3-3-3-5);marker-end:url(#marker8170-7-3-2-6-1-4-1-0-7-2)"
       d="M 301.09575,73.289592 H 287.60199"
       id="path1373-36-2-5-9-2-4-0-6-1-3-1"
       inkscape:connector-type="polyline"
       inkscape:connector-curvature="0" />
    <path
       style="display:inline;fill:none;fill-rule:evenodd;stroke:#000000;stroke-width:1;stroke-linecap:butt;stroke-linejoin:miter;stroke-miterlimit:6;stroke-dasharray:none;stroke-opacity:1;marker-start:url(#Arrow2Mstart-1-0-9-7-9-7-3-3-3-5-2);marker-end:url(#marker8170-7-3-2-6-1-4-1-0-7-2-0)"
       d="M 301.09573,135.4669 H 287.60197"
       id="path1373-36-2-5-9-2-4-0-6-1-3-1-3"
       inkscape:connector-type="polyline"
       inkscape:connector-curvature="0" />
    <path
       style="display:inline;fill:none;fill-rule:evenodd;stroke:#000000;stroke-width:1;stroke-linecap:butt;stroke-linejoin:miter;stroke-miterlimit:6;stroke-dasharray:none;stroke-opacity:1;marker-start:url(#Arrow2Mstart-1-0-9-7-9-7-3-3-3-3);marker-end:url(#marker8170-7-3-2-6-1-4-1-0-7-5)"
       d="m 301.625,50.270833 -40.48127,0.264594"
       id="path1373-36-2-5-9-2-4-0-6-1-3-5"
       inkscape:connector-type="polyline"
       inkscape:connector-curvature="0"
       sodipodi:nodetypes="cc" />
  </g>
</svg>
