<?xml version="1.0" encoding="UTF-8" standalone="no"?>
<!-- Created with Inkscape (http://www.inkscape.org/) -->

<svg
   width="1189mm"
   height="841mm"
   viewBox="0 0 1189 841"
   version="1.1"
   id="svg5"
   inkscape:version="1.1.1 (1:1.1+202109281949+c3084ef5ed)"
   sodipodi:docname="M6_quantization.svg"
   inkscape:export-filename="/home/dorfell/Downloads/fer_sys_dev/docs/00_book/img/hnn/M6_quantized.png"
   inkscape:export-xdpi="96.206001"
   inkscape:export-ydpi="96.206001"
   xmlns:inkscape="http://www.inkscape.org/namespaces/inkscape"
   xmlns:sodipodi="http://sodipodi.sourceforge.net/DTD/sodipodi-0.dtd"
   xmlns="http://www.w3.org/2000/svg"
   xmlns:svg="http://www.w3.org/2000/svg">
  <sodipodi:namedview
     id="namedview7"
     pagecolor="#ffffff"
     bordercolor="#666666"
     borderopacity="1.0"
     inkscape:pageshadow="2"
     inkscape:pageopacity="0.0"
     inkscape:pagecheckerboard="0"
     inkscape:document-units="mm"
     showgrid="true"
     inkscape:zoom="0.32189638"
     inkscape:cx="1163.4179"
     inkscape:cy="582.48558"
     inkscape:window-width="1920"
     inkscape:window-height="948"
     inkscape:window-x="0"
     inkscape:window-y="27"
     inkscape:window-maximized="1"
     inkscape:current-layer="layer1">
    <inkscape:grid
       type="xygrid"
       id="grid824" />
  </sodipodi:namedview>
  <defs
     id="defs2">
    <marker
       style="overflow:visible;"
       id="Arrow1Lend"
       refX="0.0"
       refY="0.0"
       orient="auto"
       inkscape:stockid="Arrow1Lend"
       inkscape:isstock="true">
      <path
         transform="scale(0.8) rotate(180) translate(12.5,0)"
         style="fill-rule:evenodd;fill:context-stroke;stroke:context-stroke;stroke-width:1.0pt;"
         d="M 0.0,0.0 L 5.0,-5.0 L -12.5,0.0 L 5.0,5.0 L 0.0,0.0 z "
         id="path33422" />
    </marker>
    <marker
       style="overflow:visible;"
       id="Arrow2Mend"
       refX="0.0"
       refY="0.0"
       orient="auto"
       inkscape:stockid="Arrow2Mend"
       inkscape:isstock="true">
      <path
         transform="scale(0.6) rotate(180) translate(0,0)"
         d="M 8.7185878,4.0337352 L -2.2072895,0.016013256 L 8.7185884,-4.0017078 C 6.9730900,-1.6296469 6.9831476,1.6157441 8.7185878,4.0337352 z "
         style="stroke:context-stroke;fill-rule:evenodd;fill:context-stroke;stroke-width:0.62500000;stroke-linejoin:round;"
         id="path933" />
    </marker>
    <marker
       style="overflow:visible;"
       id="marker7228"
       refX="0.0"
       refY="0.0"
       orient="auto"
       inkscape:stockid="Arrow1Mend"
       inkscape:isstock="true">
      <path
         transform="scale(0.4) rotate(180) translate(10,0)"
         style="fill-rule:evenodd;fill:context-stroke;stroke:context-stroke;stroke-width:1.0pt;"
         d="M 0.0,0.0 L 5.0,-5.0 L -12.5,0.0 L 5.0,5.0 L 0.0,0.0 z "
         id="path7226" />
    </marker>
    <marker
       style="overflow:visible;"
       id="Arrow1Mend"
       refX="0.0"
       refY="0.0"
       orient="auto"
       inkscape:stockid="Arrow1Mend"
       inkscape:isstock="true">
      <path
         transform="scale(0.4) rotate(180) translate(10,0)"
         style="fill-rule:evenodd;fill:context-stroke;stroke:context-stroke;stroke-width:1.0pt;"
         d="M 0.0,0.0 L 5.0,-5.0 L -12.5,0.0 L 5.0,5.0 L 0.0,0.0 z "
         id="path6863" />
    </marker>
    <rect
       x="40"
       y="180"
       width="1105.2158"
       height="1875.6505"
       id="rect25187" />
    <marker
       style="overflow:visible"
       id="Arrow1Mend-3"
       refX="0"
       refY="0"
       orient="auto"
       inkscape:stockid="Arrow1Mend"
       inkscape:isstock="true">
      <path
         transform="matrix(-0.4,0,0,-0.4,-4,0)"
         style="fill:context-stroke;fill-rule:evenodd;stroke:context-stroke;stroke-width:1pt"
         d="M 0,0 5,-5 -12.5,0 5,5 Z"
         id="path6863-6" />
    </marker>
    <marker
       style="overflow:visible"
       id="marker7228-7"
       refX="0"
       refY="0"
       orient="auto"
       inkscape:stockid="Arrow1Mend"
       inkscape:isstock="true">
      <path
         transform="matrix(-0.4,0,0,-0.4,-4,0)"
         style="fill:context-stroke;fill-rule:evenodd;stroke:context-stroke;stroke-width:1pt"
         d="M 0,0 5,-5 -12.5,0 5,5 Z"
         id="path7226-5" />
    </marker>
    <marker
       style="overflow:visible"
       id="marker918"
       refX="0"
       refY="0"
       orient="auto"
       inkscape:stockid="Arrow1Mend"
       inkscape:isstock="true">
      <path
         transform="matrix(-0.4,0,0,-0.4,-4,0)"
         style="fill:context-stroke;fill-rule:evenodd;stroke:context-stroke;stroke-width:1pt"
         d="M 0,0 5,-5 -12.5,0 5,5 Z"
         id="path916" />
    </marker>
    <marker
       style="overflow:visible"
       id="marker922"
       refX="0"
       refY="0"
       orient="auto"
       inkscape:stockid="Arrow1Mend"
       inkscape:isstock="true">
      <path
         transform="matrix(-0.4,0,0,-0.4,-4,0)"
         style="fill:context-stroke;fill-rule:evenodd;stroke:context-stroke;stroke-width:1pt"
         d="M 0,0 5,-5 -12.5,0 5,5 Z"
         id="path920" />
    </marker>
    <marker
       style="overflow:visible"
       id="marker926"
       refX="0"
       refY="0"
       orient="auto"
       inkscape:stockid="Arrow1Mend"
       inkscape:isstock="true">
      <path
         transform="matrix(-0.4,0,0,-0.4,-4,0)"
         style="fill:context-stroke;fill-rule:evenodd;stroke:context-stroke;stroke-width:1pt"
         d="M 0,0 5,-5 -12.5,0 5,5 Z"
         id="path924" />
    </marker>
    <marker
       style="overflow:visible"
       id="marker930"
       refX="0"
       refY="0"
       orient="auto"
       inkscape:stockid="Arrow1Mend"
       inkscape:isstock="true">
      <path
         transform="matrix(-0.4,0,0,-0.4,-4,0)"
         style="fill:context-stroke;fill-rule:evenodd;stroke:context-stroke;stroke-width:1pt"
         d="M 0,0 5,-5 -12.5,0 5,5 Z"
         id="path928" />
    </marker>
    <marker
       style="overflow:visible"
       id="marker7228-7-5"
       refX="0"
       refY="0"
       orient="auto"
       inkscape:stockid="Arrow1Mend"
       inkscape:isstock="true">
      <path
         transform="matrix(-0.4,0,0,-0.4,-4,0)"
         style="fill:context-stroke;fill-rule:evenodd;stroke:context-stroke;stroke-width:1pt"
         d="M 0,0 5,-5 -12.5,0 5,5 Z"
         id="path7226-5-3" />
    </marker>
    <marker
       style="overflow:visible"
       id="Arrow1Mend-9"
       refX="0"
       refY="0"
       orient="auto"
       inkscape:stockid="Arrow1Mend"
       inkscape:isstock="true">
      <path
         transform="matrix(-0.4,0,0,-0.4,-4,0)"
         style="fill:context-stroke;fill-rule:evenodd;stroke:context-stroke;stroke-width:1pt"
         d="M 0,0 5,-5 -12.5,0 5,5 Z"
         id="path6863-1" />
    </marker>
    <marker
       style="overflow:visible"
       id="marker7228-2"
       refX="0"
       refY="0"
       orient="auto"
       inkscape:stockid="Arrow1Mend"
       inkscape:isstock="true">
      <path
         transform="matrix(-0.4,0,0,-0.4,-4,0)"
         style="fill:context-stroke;fill-rule:evenodd;stroke:context-stroke;stroke-width:1pt"
         d="M 0,0 5,-5 -12.5,0 5,5 Z"
         id="path7226-7" />
    </marker>
    <marker
       style="overflow:visible"
       id="marker14554"
       refX="0"
       refY="0"
       orient="auto"
       inkscape:stockid="Arrow1Mend"
       inkscape:isstock="true">
      <path
         transform="matrix(-0.4,0,0,-0.4,-4,0)"
         style="fill:context-stroke;fill-rule:evenodd;stroke:context-stroke;stroke-width:1pt"
         d="M 0,0 5,-5 -12.5,0 5,5 Z"
         id="path14552" />
    </marker>
    <marker
       style="overflow:visible"
       id="marker14558"
       refX="0"
       refY="0"
       orient="auto"
       inkscape:stockid="Arrow1Mend"
       inkscape:isstock="true">
      <path
         transform="matrix(-0.4,0,0,-0.4,-4,0)"
         style="fill:context-stroke;fill-rule:evenodd;stroke:context-stroke;stroke-width:1pt"
         d="M 0,0 5,-5 -12.5,0 5,5 Z"
         id="path14556" />
    </marker>
    <marker
       style="overflow:visible"
       id="marker14562"
       refX="0"
       refY="0"
       orient="auto"
       inkscape:stockid="Arrow1Mend"
       inkscape:isstock="true">
      <path
         transform="matrix(-0.4,0,0,-0.4,-4,0)"
         style="fill:context-stroke;fill-rule:evenodd;stroke:context-stroke;stroke-width:1pt"
         d="M 0,0 5,-5 -12.5,0 5,5 Z"
         id="path14560" />
    </marker>
    <marker
       style="overflow:visible"
       id="marker14566"
       refX="0"
       refY="0"
       orient="auto"
       inkscape:stockid="Arrow1Mend"
       inkscape:isstock="true">
      <path
         transform="matrix(-0.4,0,0,-0.4,-4,0)"
         style="fill:context-stroke;fill-rule:evenodd;stroke:context-stroke;stroke-width:1pt"
         d="M 0,0 5,-5 -12.5,0 5,5 Z"
         id="path14564" />
    </marker>
    <marker
       style="overflow:visible"
       id="Arrow1Mend-36"
       refX="0"
       refY="0"
       orient="auto"
       inkscape:stockid="Arrow1Mend"
       inkscape:isstock="true">
      <path
         transform="matrix(-0.4,0,0,-0.4,-4,0)"
         style="fill:context-stroke;fill-rule:evenodd;stroke:context-stroke;stroke-width:1pt"
         d="M 0,0 5,-5 -12.5,0 5,5 Z"
         id="path6863-7" />
    </marker>
    <marker
       style="overflow:visible"
       id="marker7228-5"
       refX="0"
       refY="0"
       orient="auto"
       inkscape:stockid="Arrow1Mend"
       inkscape:isstock="true">
      <path
         transform="matrix(-0.4,0,0,-0.4,-4,0)"
         style="fill:context-stroke;fill-rule:evenodd;stroke:context-stroke;stroke-width:1pt"
         d="M 0,0 5,-5 -12.5,0 5,5 Z"
         id="path7226-3" />
    </marker>
    <marker
       style="overflow:visible"
       id="marker33991"
       refX="0"
       refY="0"
       orient="auto"
       inkscape:stockid="Arrow1Mend"
       inkscape:isstock="true">
      <path
         transform="matrix(-0.4,0,0,-0.4,-4,0)"
         style="fill:context-stroke;fill-rule:evenodd;stroke:context-stroke;stroke-width:1pt"
         d="M 0,0 5,-5 -12.5,0 5,5 Z"
         id="path33989" />
    </marker>
    <marker
       style="overflow:visible"
       id="marker33995"
       refX="0"
       refY="0"
       orient="auto"
       inkscape:stockid="Arrow1Mend"
       inkscape:isstock="true">
      <path
         transform="matrix(-0.4,0,0,-0.4,-4,0)"
         style="fill:context-stroke;fill-rule:evenodd;stroke:context-stroke;stroke-width:1pt"
         d="M 0,0 5,-5 -12.5,0 5,5 Z"
         id="path33993" />
    </marker>
    <marker
       style="overflow:visible"
       id="marker33999"
       refX="0"
       refY="0"
       orient="auto"
       inkscape:stockid="Arrow1Mend"
       inkscape:isstock="true">
      <path
         transform="matrix(-0.4,0,0,-0.4,-4,0)"
         style="fill:context-stroke;fill-rule:evenodd;stroke:context-stroke;stroke-width:1pt"
         d="M 0,0 5,-5 -12.5,0 5,5 Z"
         id="path33997" />
    </marker>
    <marker
       style="overflow:visible"
       id="marker34003"
       refX="0"
       refY="0"
       orient="auto"
       inkscape:stockid="Arrow1Mend"
       inkscape:isstock="true">
      <path
         transform="matrix(-0.4,0,0,-0.4,-4,0)"
         style="fill:context-stroke;fill-rule:evenodd;stroke:context-stroke;stroke-width:1pt"
         d="M 0,0 5,-5 -12.5,0 5,5 Z"
         id="path34001" />
    </marker>
    <marker
       style="overflow:visible"
       id="Arrow1Mend-3-5"
       refX="0"
       refY="0"
       orient="auto"
       inkscape:stockid="Arrow1Mend"
       inkscape:isstock="true">
      <path
         transform="matrix(-0.4,0,0,-0.4,-4,0)"
         style="fill:context-stroke;fill-rule:evenodd;stroke:context-stroke;stroke-width:1pt"
         d="M 0,0 5,-5 -12.5,0 5,5 Z"
         id="path6863-6-6" />
    </marker>
    <marker
       style="overflow:visible"
       id="marker7228-7-2"
       refX="0"
       refY="0"
       orient="auto"
       inkscape:stockid="Arrow1Mend"
       inkscape:isstock="true">
      <path
         transform="matrix(-0.4,0,0,-0.4,-4,0)"
         style="fill:context-stroke;fill-rule:evenodd;stroke:context-stroke;stroke-width:1pt"
         d="M 0,0 5,-5 -12.5,0 5,5 Z"
         id="path7226-5-9" />
    </marker>
    <marker
       style="overflow:visible"
       id="marker50874"
       refX="0"
       refY="0"
       orient="auto"
       inkscape:stockid="Arrow1Mend"
       inkscape:isstock="true">
      <path
         transform="matrix(-0.4,0,0,-0.4,-4,0)"
         style="fill:context-stroke;fill-rule:evenodd;stroke:context-stroke;stroke-width:1pt"
         d="M 0,0 5,-5 -12.5,0 5,5 Z"
         id="path50872" />
    </marker>
    <marker
       style="overflow:visible"
       id="marker50878"
       refX="0"
       refY="0"
       orient="auto"
       inkscape:stockid="Arrow1Mend"
       inkscape:isstock="true">
      <path
         transform="matrix(-0.4,0,0,-0.4,-4,0)"
         style="fill:context-stroke;fill-rule:evenodd;stroke:context-stroke;stroke-width:1pt"
         d="M 0,0 5,-5 -12.5,0 5,5 Z"
         id="path50876" />
    </marker>
    <marker
       style="overflow:visible"
       id="marker50882"
       refX="0"
       refY="0"
       orient="auto"
       inkscape:stockid="Arrow1Mend"
       inkscape:isstock="true">
      <path
         transform="matrix(-0.4,0,0,-0.4,-4,0)"
         style="fill:context-stroke;fill-rule:evenodd;stroke:context-stroke;stroke-width:1pt"
         d="M 0,0 5,-5 -12.5,0 5,5 Z"
         id="path50880" />
    </marker>
    <marker
       style="overflow:visible"
       id="marker50886"
       refX="0"
       refY="0"
       orient="auto"
       inkscape:stockid="Arrow1Mend"
       inkscape:isstock="true">
      <path
         transform="matrix(-0.4,0,0,-0.4,-4,0)"
         style="fill:context-stroke;fill-rule:evenodd;stroke:context-stroke;stroke-width:1pt"
         d="M 0,0 5,-5 -12.5,0 5,5 Z"
         id="path50884" />
    </marker>
    <marker
       style="overflow:visible"
       id="Arrow1Mend-1"
       refX="0"
       refY="0"
       orient="auto"
       inkscape:stockid="Arrow1Mend"
       inkscape:isstock="true">
      <path
         transform="matrix(-0.4,0,0,-0.4,-4,0)"
         style="fill:context-stroke;fill-rule:evenodd;stroke:context-stroke;stroke-width:1pt"
         d="M 0,0 5,-5 -12.5,0 5,5 Z"
         id="path6863-2" />
    </marker>
    <marker
       style="overflow:visible"
       id="marker7228-7-5-7"
       refX="0"
       refY="0"
       orient="auto"
       inkscape:stockid="Arrow1Mend"
       inkscape:isstock="true">
      <path
         transform="matrix(-0.4,0,0,-0.4,-4,0)"
         style="fill:context-stroke;fill-rule:evenodd;stroke:context-stroke;stroke-width:1pt"
         d="M 0,0 5,-5 -12.5,0 5,5 Z"
         id="path7226-5-3-0" />
    </marker>
    <marker
       style="overflow:visible"
       id="Arrow1Mend-9-9"
       refX="0"
       refY="0"
       orient="auto"
       inkscape:stockid="Arrow1Mend"
       inkscape:isstock="true">
      <path
         transform="matrix(-0.4,0,0,-0.4,-4,0)"
         style="fill:context-stroke;fill-rule:evenodd;stroke:context-stroke;stroke-width:1pt"
         d="M 0,0 5,-5 -12.5,0 5,5 Z"
         id="path6863-1-3" />
    </marker>
    <marker
       style="overflow:visible"
       id="marker7228-2-6"
       refX="0"
       refY="0"
       orient="auto"
       inkscape:stockid="Arrow1Mend"
       inkscape:isstock="true">
      <path
         transform="matrix(-0.4,0,0,-0.4,-4,0)"
         style="fill:context-stroke;fill-rule:evenodd;stroke:context-stroke;stroke-width:1pt"
         d="M 0,0 5,-5 -12.5,0 5,5 Z"
         id="path7226-7-0" />
    </marker>
    <marker
       style="overflow:visible"
       id="marker51863"
       refX="0"
       refY="0"
       orient="auto"
       inkscape:stockid="Arrow1Mend"
       inkscape:isstock="true">
      <path
         transform="matrix(-0.4,0,0,-0.4,-4,0)"
         style="fill:context-stroke;fill-rule:evenodd;stroke:context-stroke;stroke-width:1pt"
         d="M 0,0 5,-5 -12.5,0 5,5 Z"
         id="path51861" />
    </marker>
    <marker
       style="overflow:visible"
       id="marker51867"
       refX="0"
       refY="0"
       orient="auto"
       inkscape:stockid="Arrow1Mend"
       inkscape:isstock="true">
      <path
         transform="matrix(-0.4,0,0,-0.4,-4,0)"
         style="fill:context-stroke;fill-rule:evenodd;stroke:context-stroke;stroke-width:1pt"
         d="M 0,0 5,-5 -12.5,0 5,5 Z"
         id="path51865" />
    </marker>
    <marker
       style="overflow:visible"
       id="marker51871"
       refX="0"
       refY="0"
       orient="auto"
       inkscape:stockid="Arrow1Mend"
       inkscape:isstock="true">
      <path
         transform="matrix(-0.4,0,0,-0.4,-4,0)"
         style="fill:context-stroke;fill-rule:evenodd;stroke:context-stroke;stroke-width:1pt"
         d="M 0,0 5,-5 -12.5,0 5,5 Z"
         id="path51869" />
    </marker>
    <marker
       style="overflow:visible"
       id="marker51875"
       refX="0"
       refY="0"
       orient="auto"
       inkscape:stockid="Arrow1Mend"
       inkscape:isstock="true">
      <path
         transform="matrix(-0.4,0,0,-0.4,-4,0)"
         style="fill:context-stroke;fill-rule:evenodd;stroke:context-stroke;stroke-width:1pt"
         d="M 0,0 5,-5 -12.5,0 5,5 Z"
         id="path51873" />
    </marker>
  </defs>
  <g
     inkscape:label="Layer 1"
     inkscape:groupmode="layer"
     id="layer1">
    <rect
       style="fill:#00ccff;stroke:#000000;stroke-width:1.44735"
       id="rect848"
       width="15.874749"
       height="95.249977"
       x="137.58333"
       y="21.166666" />
    <text
       xml:space="preserve"
       style="font-style:normal;font-weight:normal;font-size:10.5833px;line-height:1.25;font-family:sans-serif;fill:#000000;fill-opacity:1;stroke:none;stroke-width:0.264583"
       x="-111.15328"
       y="150.69971"
       id="text5890"
       transform="rotate(-89.98302)"><tspan
         sodipodi:role="line"
         id="tspan5888"
         style="stroke-width:0.264583"
         x="-111.15328"
         y="150.69971">Conv1: 5x5x32</tspan></text>
    <rect
       style="fill:#ffcc00;stroke:#000000;stroke-width:1.44735"
       id="rect848-3-7"
       width="15.874999"
       height="95.249863"
       x="153.45833"
       y="21.166666" />
    <text
       xml:space="preserve"
       style="font-style:normal;font-weight:normal;font-size:10.5833px;line-height:1.25;font-family:sans-serif;fill:#000000;fill-opacity:1;stroke:none;stroke-width:0.264583"
       x="-111.14875"
       y="166.57458"
       id="text5890-6-5"
       transform="rotate(-89.98302)"><tspan
         sodipodi:role="line"
         id="tspan5888-7-9"
         style="stroke-width:0.264583"
         x="-111.14875"
         y="166.57458">MaxPooling: 2x2</tspan></text>
    <rect
       style="fill:#00ccff;stroke:#000000;stroke-width:1.44735"
       id="rect848-0-3"
       width="15.874999"
       height="95.249779"
       x="174.09584"
       y="21.166666" />
    <text
       xml:space="preserve"
       style="font-style:normal;font-weight:normal;font-size:10.5833px;line-height:1.25;font-family:sans-serif;fill:#000000;fill-opacity:1;stroke:none;stroke-width:0.264583"
       x="-111.14286"
       y="187.21196"
       id="text5890-2-5"
       transform="rotate(-89.98302)"><tspan
         sodipodi:role="line"
         id="tspan5888-3-6"
         style="stroke-width:0.264583"
         x="-111.14286"
         y="187.21196">Conv2: 5x5x64</tspan></text>
    <rect
       style="fill:#ffcc00;stroke:#000000;stroke-width:1.44735"
       id="rect848-3-7-2"
       width="15.874999"
       height="95.249779"
       x="189.97084"
       y="21.166666" />
    <text
       xml:space="preserve"
       style="font-style:normal;font-weight:normal;font-size:10.5833px;line-height:1.25;font-family:sans-serif;fill:#000000;fill-opacity:1;stroke:none;stroke-width:0.264583"
       x="-111.13815"
       y="203.08693"
       id="text5890-6-5-9"
       transform="rotate(-89.98302)"><tspan
         sodipodi:role="line"
         id="tspan5888-7-9-1"
         style="stroke-width:0.264583"
         x="-111.13815"
         y="203.08693">MaxPooling: 2x2</tspan></text>
    <text
       xml:space="preserve"
       transform="scale(0.26458333)"
       id="text25185"
       style="font-style:normal;font-weight:normal;font-size:40px;line-height:1.25;font-family:sans-serif;white-space:pre;shape-inside:url(#rect25187);fill:#000000;fill-opacity:1;stroke:none" />
    <rect
       style="fill:#ff0000;stroke:#000000;stroke-width:1.44735"
       id="rect848-7"
       width="15.874999"
       height="95.249977"
       x="113.77084"
       y="21.166666" />
    <text
       xml:space="preserve"
       style="font-style:normal;font-weight:normal;font-size:10.5833px;line-height:1.25;font-family:sans-serif;fill:#000000;fill-opacity:1;stroke:none;stroke-width:0.264583"
       x="-111.16026"
       y="126.88721"
       id="text5890-9"
       transform="rotate(-89.98302)"><tspan
         sodipodi:role="line"
         id="tspan5888-2"
         style="stroke-width:0.264583"
         x="-111.16026"
         y="126.88721">Input: 64x64</tspan></text>
    <rect
       style="fill:#b7c4c8;stroke:#000000;stroke-width:1.44735"
       id="rect848-3-73-6-6-0"
       width="15.875"
       height="95.249474"
       x="250.826"
       y="21.166666" />
    <text
       xml:space="preserve"
       style="font-style:normal;font-weight:normal;font-size:10.5833px;line-height:1.25;font-family:sans-serif;fill:#000000;fill-opacity:1;stroke:none;stroke-width:0.264583"
       x="-111.12241"
       y="263.9433"
       id="text5890-6-6-1-3-6"
       transform="rotate(-89.98302)"><tspan
         sodipodi:role="line"
         id="tspan5888-7-1-0-2-1"
         style="stroke-width:0.264583"
         x="-111.12241"
         y="263.9433">Flatten</tspan></text>
    <rect
       style="fill:#00ccff;stroke:#000000;stroke-width:1.44735"
       id="rect848-0-7-6"
       width="15.874999"
       height="95.249428"
       x="210.60858"
       y="21.166666" />
    <text
       xml:space="preserve"
       style="font-style:normal;font-weight:normal;font-size:10.5833px;line-height:1.25;font-family:sans-serif;fill:#000000;fill-opacity:1;stroke:none;stroke-width:0.264583"
       x="-111.13165"
       y="223.72504"
       id="text5890-2-8-2"
       transform="rotate(-89.98302)"><tspan
         sodipodi:role="line"
         id="tspan5888-3-4-6"
         style="stroke-width:0.264583"
         x="-111.13165"
         y="223.72504">Conv3: 5x5x128</tspan></text>
    <rect
       style="fill:#ffcc00;stroke:#000000;stroke-width:1.44735"
       id="rect848-3-7-5-1"
       width="15.874999"
       height="95.249428"
       x="226.48384"
       y="21.166666" />
    <text
       xml:space="preserve"
       style="font-style:normal;font-weight:normal;font-size:10.5833px;line-height:1.25;font-family:sans-serif;fill:#000000;fill-opacity:1;stroke:none;stroke-width:0.264583"
       x="-111.12691"
       y="239.60017"
       id="text5890-6-5-0-8"
       transform="rotate(-89.98302)"><tspan
         sodipodi:role="line"
         id="tspan5888-7-9-3-7"
         style="stroke-width:0.264583"
         x="-111.12691"
         y="239.60017">MaxPooling: 2x2</tspan></text>
    <rect
       style="fill:#ccff00;stroke:#000000;stroke-width:1.44735"
       id="rect848-3-73-6-6"
       width="15.874999"
       height="95.249359"
       x="273.58035"
       y="21.166666" />
    <text
       xml:space="preserve"
       style="font-style:normal;font-weight:normal;font-size:10.5833px;line-height:1.25;font-family:sans-serif;fill:#000000;fill-opacity:1;stroke:none;stroke-width:0.264583"
       x="-111.11376"
       y="286.6972"
       id="text5890-6-6-1-3"
       transform="rotate(-89.98302)"><tspan
         sodipodi:role="line"
         id="tspan5888-7-1-0-2"
         style="stroke-width:0.264583"
         x="-111.11376"
         y="286.6972">Dense: 6</tspan></text>
    <text
       xml:space="preserve"
       style="font-style:normal;font-weight:normal;font-size:14.1111px;line-height:1.25;font-family:sans-serif;fill:#000000;fill-opacity:1;stroke:none;stroke-width:0.264583"
       x="347.1868"
       y="69.127037"
       id="text4163"><tspan
         sodipodi:role="line"
         id="tspan4161"
         style="font-style:normal;font-variant:normal;font-weight:bold;font-stretch:normal;font-size:14.1111px;font-family:sans-serif;-inkscape-font-specification:'sans-serif Bold';stroke-width:0.264583"
         x="347.1868"
         y="69.127037">M6 model</tspan></text>
    <path
       style="display:inline;fill:#ff0000;fill-rule:evenodd;stroke:#000000;stroke-width:0.5;stroke-linecap:butt;stroke-linejoin:miter;stroke-miterlimit:4;stroke-dasharray:4, 4;stroke-dashoffset:0;stroke-opacity:1;marker-end:url(#Arrow1Lend)"
       d="M 173.56668,119.0625 76.729167,148.16667"
       id="path1108"
       inkscape:connector-type="polyline"
       inkscape:connector-curvature="0" />
    <path
       style="display:inline;fill:none;fill-rule:evenodd;stroke:#000000;stroke-width:0.5;stroke-linecap:butt;stroke-linejoin:miter;stroke-miterlimit:4;stroke-dasharray:4, 4;stroke-dashoffset:0;stroke-opacity:1;marker-end:url(#Arrow1Lend)"
       d="m 189.44167,119.0625 88.37083,26.45833"
       id="path1396"
       inkscape:connector-type="polyline"
       inkscape:connector-curvature="0" />
    <text
       xml:space="preserve"
       style="font-style:normal;font-weight:normal;font-size:14.1111px;line-height:1.25;font-family:sans-serif;fill:#000000;fill-opacity:1;stroke:none;stroke-width:0.264583"
       x="347.68805"
       y="178.74492"
       id="text4163-3"><tspan
         sodipodi:role="line"
         id="tspan4161-6"
         style="font-style:normal;font-variant:normal;font-weight:bold;font-stretch:normal;font-size:14.1111px;font-family:sans-serif;-inkscape-font-specification:'sans-serif Bold';stroke-width:0.264583"
         x="347.68805"
         y="178.74492">Convolutional layer</tspan></text>
    <path
       style="display:inline;fill:none;fill-rule:evenodd;stroke:#000000;stroke-width:0.5;stroke-linecap:butt;stroke-linejoin:miter;stroke-miterlimit:4;stroke-dasharray:4, 4;stroke-dashoffset:5;stroke-opacity:1;marker-end:url(#Arrow1Lend)"
       d="m 277.8125,198.4375 63.5,34.39583"
       id="path1137"
       inkscape:connector-type="polyline"
       inkscape:connector-curvature="0" />
    <path
       style="display:inline;fill:none;fill-rule:evenodd;stroke:#000000;stroke-width:0.5;stroke-linecap:butt;stroke-linejoin:miter;stroke-miterlimit:4;stroke-dasharray:4, 4;stroke-dashoffset:5;stroke-opacity:1;marker-end:url(#Arrow1Lend)"
       d="M 76.729167,199.76042 10.583333,232.83333"
       id="path1137-6-7"
       inkscape:connector-type="polyline"
       inkscape:connector-curvature="0" />
    <text
       xml:space="preserve"
       style="font-style:normal;font-weight:normal;font-size:14.1111px;line-height:1.25;font-family:sans-serif;fill:#000000;fill-opacity:1;stroke:none;stroke-width:0.264583"
       x="348.13727"
       y="256.04053"
       id="text4163-3-3"><tspan
         sodipodi:role="line"
         id="tspan4161-6-5"
         style="font-style:normal;font-variant:normal;font-weight:bold;font-stretch:normal;font-size:14.1111px;font-family:sans-serif;-inkscape-font-specification:'sans-serif Bold';stroke-width:0.264583"
         x="348.13727"
         y="256.04053">Quantization Aware </tspan><tspan
         sodipodi:role="line"
         style="font-style:normal;font-variant:normal;font-weight:bold;font-stretch:normal;font-size:14.1111px;font-family:sans-serif;-inkscape-font-specification:'sans-serif Bold';stroke-width:0.264583"
         x="348.13727"
         y="273.67941"
         id="tspan1745">Training layer</tspan></text>
    <text
       xml:space="preserve"
       style="font-style:normal;font-weight:normal;font-size:14.1111px;line-height:1.25;font-family:sans-serif;fill:#000000;fill-opacity:1;stroke:none;stroke-width:0.264583"
       x="347.61328"
       y="340.17532"
       id="text4163-3-3-3"><tspan
         sodipodi:role="line"
         style="font-style:normal;font-variant:normal;font-weight:bold;font-stretch:normal;font-size:14.1111px;font-family:sans-serif;-inkscape-font-specification:'sans-serif Bold';stroke-width:0.264583"
         x="347.61328"
         y="340.17532"
         id="tspan1745-7">Quantized layer</tspan></text>
    <path
       style="display:inline;fill:none;fill-rule:evenodd;stroke:#000000;stroke-width:0.5;stroke-linecap:butt;stroke-linejoin:miter;stroke-miterlimit:4;stroke-dasharray:4, 4;stroke-dashoffset:0;stroke-opacity:1;marker-end:url(#Arrow1Lend)"
       d="m 10.583333,288.39583 58.208334,18.52084"
       id="path44729"
       inkscape:connector-type="polyline"
       inkscape:connector-curvature="0" />
    <path
       style="display:inline;fill:none;fill-rule:evenodd;stroke:#000000;stroke-width:0.5;stroke-linecap:butt;stroke-linejoin:miter;stroke-miterlimit:4;stroke-dasharray:4, 4;stroke-dashoffset:0;stroke-opacity:1;marker-end:url(#Arrow1Lend)"
       d="m 341.3125,289.71875 -58.20833,17.19792"
       id="path44729-5"
       inkscape:connector-type="polyline"
       inkscape:connector-curvature="0" />
    <rect
       style="fill:#ececec;stroke:#000000;stroke-width:0.5;stroke-miterlimit:4;stroke-dasharray:4, 4;stroke-dashoffset:0"
       id="rect1114"
       width="201.08334"
       height="52.916656"
       x="77.258339"
       y="147.10835" />
    <rect
       style="fill:#ececec;stroke:#000000;stroke-width:0.5;stroke-miterlimit:4;stroke-dasharray:4, 4;stroke-dashoffset:0"
       id="rect1262"
       width="330.72916"
       height="56.065994"
       x="10.583333"
       y="232.83333" />
    <rect
       style="fill:#ececec;stroke:#000000;stroke-width:0.499999;stroke-miterlimit:4;stroke-dasharray:4, 4;stroke-dashoffset:4.99999"
       id="rect1677"
       width="214.3125"
       height="55.56245"
       x="68.791664"
       y="306.91672" />
    <text
       xml:space="preserve"
       style="font-style:normal;font-weight:normal;font-size:10.5833px;line-height:1.25;font-family:sans-serif;fill:#000000;fill-opacity:1;stroke:none;stroke-width:0.264583"
       x="78.296242"
       y="175.17451"
       id="text5890-3"
       transform="rotate(0.01698)"><tspan
         sodipodi:role="line"
         id="tspan5888-6"
         style="stroke-width:0.264583"
         x="78.296242"
         y="175.17451">Input</tspan></text>
    <rect
       style="fill:#aaeeff;stroke:#000000;stroke-width:1;stroke-miterlimit:4;stroke-dasharray:none"
       id="rect2076"
       width="29.104166"
       height="11.906264"
       x="124.89661"
       y="165.82051" />
    <text
       xml:space="preserve"
       style="font-style:normal;font-weight:normal;font-size:10.5833px;line-height:1.25;font-family:sans-serif;fill:#000000;fill-opacity:1;stroke:none;stroke-width:0.264583"
       x="125.65662"
       y="175.16069"
       id="text5890-3-7"
       transform="rotate(0.01698)"><tspan
         sodipodi:role="line"
         id="tspan5888-6-5"
         style="stroke-width:0.264583"
         x="125.65662"
         y="175.16069">Conv</tspan></text>
    <ellipse
       style="fill:#aaeeff;stroke:#000000;stroke-width:1;stroke-miterlimit:4;stroke-dasharray:none"
       id="path4812"
       cx="113.49488"
       cy="189.52487"
       rx="23.042669"
       ry="7.8917255" />
    <text
       xml:space="preserve"
       style="font-style:normal;font-weight:normal;font-size:10.5833px;line-height:1.25;font-family:sans-serif;fill:#000000;fill-opacity:1;stroke:none;stroke-width:0.264583"
       x="93.287521"
       y="192.47522"
       id="text5890-3-7-3"
       transform="rotate(0.01698)"><tspan
         sodipodi:role="line"
         id="tspan5888-6-5-5"
         style="stroke-width:0.264583"
         x="93.287521"
         y="192.47522">weights</tspan></text>
    <path
       style="fill:none;fill-rule:evenodd;stroke:#000000;stroke-width:1;stroke-linecap:butt;stroke-linejoin:miter;stroke-miterlimit:4;stroke-dasharray:none;stroke-opacity:1;marker-end:url(#Arrow1Mend-36)"
       d="m 136.80289,189.6331 7.9375,-10.58333"
       id="path6852"
       inkscape:connector-type="polyline"
       inkscape:connector-curvature="0" />
    <path
       style="display:inline;fill:none;fill-rule:evenodd;stroke:#000000;stroke-width:1;stroke-linecap:butt;stroke-linejoin:miter;stroke-miterlimit:4;stroke-dasharray:none;stroke-opacity:1;marker-end:url(#marker7228-5)"
       d="m 105.05289,172.43518 18.52084,1e-5"
       id="path7224"
       inkscape:connector-type="polyline"
       inkscape:connector-curvature="0" />
    <circle
       style="fill:#aaeeff;stroke:#000000;stroke-width:0.888889;stroke-miterlimit:4;stroke-dasharray:none"
       id="path7308"
       cx="174.59895"
       cy="171.75507"
       r="7.0555553" />
    <text
       xml:space="preserve"
       style="font-style:normal;font-weight:normal;font-size:10.5833px;line-height:1.25;font-family:sans-serif;fill:#000000;fill-opacity:1;stroke:none;stroke-width:0.264583"
       x="170.4202"
       y="175.27551"
       id="text5890-3-7-6"
       transform="rotate(0.01698)"><tspan
         sodipodi:role="line"
         id="tspan5888-6-5-2"
         style="stroke-width:0.264583"
         x="170.4202"
         y="175.27551">+</tspan></text>
    <path
       style="fill:none;fill-rule:evenodd;stroke:#000000;stroke-width:1;stroke-linecap:butt;stroke-linejoin:miter;stroke-miterlimit:4;stroke-dasharray:none;stroke-opacity:1;marker-end:url(#marker7228-5)"
       d="m 154.00081,172.43518 h 11.90625"
       id="path904"
       inkscape:connector-type="polyline"
       inkscape:connector-curvature="0" />
    <ellipse
       style="fill:#aaeeff;stroke:#000000;stroke-width:1;stroke-miterlimit:4;stroke-dasharray:none"
       id="path4812-3"
       cx="140.70299"
       cy="155.92398"
       rx="19.374712"
       ry="7.0473351" />
    <text
       xml:space="preserve"
       style="font-style:normal;font-weight:normal;font-size:10.5833px;line-height:1.25;font-family:sans-serif;fill:#000000;fill-opacity:1;stroke:none;stroke-width:0.264583"
       x="124.57709"
       y="159.30936"
       id="text5890-3-7-3-6"
       transform="rotate(0.01698)"><tspan
         sodipodi:role="line"
         id="tspan5888-6-5-5-7"
         style="stroke-width:0.264583"
         x="124.57709"
         y="159.30936">biases</tspan></text>
    <path
       style="fill:none;fill-rule:evenodd;stroke:#000000;stroke-width:1;stroke-linecap:butt;stroke-linejoin:miter;stroke-miterlimit:4;stroke-dasharray:none;stroke-opacity:1;marker-end:url(#marker7228-5)"
       d="m 160.08622,156.03101 10.58334,7.9375"
       id="path2764"
       inkscape:connector-type="polyline"
       inkscape:connector-curvature="0" />
    <rect
       style="fill:#aaeeff;stroke:#000000;stroke-width:1;stroke-miterlimit:4;stroke-dasharray:none"
       id="rect2076-5"
       width="31.220825"
       height="11.906264"
       x="194.21745"
       y="165.82051" />
    <text
       xml:space="preserve"
       style="font-style:normal;font-weight:normal;font-size:10.5833px;line-height:1.25;font-family:sans-serif;fill:#000000;fill-opacity:1;stroke:none;stroke-width:0.264583"
       x="194.97743"
       y="175.14026"
       id="text5890-3-7-35"
       transform="rotate(0.01698)"><tspan
         sodipodi:role="line"
         id="tspan5888-6-5-6"
         style="stroke-width:0.264583"
         x="194.97743"
         y="175.14026">Relu6</tspan></text>
    <path
       style="fill:none;fill-rule:evenodd;stroke:#000000;stroke-width:1;stroke-linecap:butt;stroke-linejoin:miter;stroke-miterlimit:4;stroke-dasharray:none;stroke-opacity:1;marker-end:url(#marker7228-5)"
       d="m 181.78206,172.43518 h 10.58333"
       id="path3030"
       inkscape:connector-type="polyline"
       inkscape:connector-curvature="0" />
    <path
       style="fill:none;fill-rule:evenodd;stroke:#000000;stroke-width:1;stroke-linecap:butt;stroke-linejoin:miter;stroke-miterlimit:4;stroke-dasharray:none;stroke-opacity:1;marker-end:url(#marker7228-5)"
       d="m 225.4383,172.43518 h 13.22917"
       id="path7212"
       inkscape:connector-type="polyline"
       inkscape:connector-curvature="0" />
    <text
       xml:space="preserve"
       style="font-style:normal;font-weight:normal;font-size:10.5833px;line-height:1.25;font-family:sans-serif;fill:#000000;fill-opacity:1;stroke:none;stroke-width:0.264583"
       x="240.22147"
       y="176.18491"
       id="text5890-3-2"
       transform="rotate(0.01698)"><tspan
         sodipodi:role="line"
         id="tspan5888-6-9"
         style="stroke-width:0.264583"
         x="240.22147"
         y="176.18491">Output</tspan></text>
    <text
       xml:space="preserve"
       style="font-style:normal;font-weight:normal;font-size:6.35px;line-height:1.25;font-family:sans-serif;fill:#000000;fill-opacity:1;stroke:none;stroke-width:0.264583"
       x="150.30925"
       y="186.88301"
       id="text5890-3-2-6"
       transform="rotate(0.01698)"><tspan
         sodipodi:role="line"
         id="tspan5888-6-9-2"
         style="font-size:6.35px;stroke-width:0.264583"
         x="150.30925"
         y="186.88301">float or double</tspan></text>
    <text
       xml:space="preserve"
       style="font-style:normal;font-weight:normal;font-size:10.5833px;line-height:1.25;font-family:sans-serif;fill:#000000;fill-opacity:1;stroke:none;stroke-width:0.264583"
       x="67.694885"
       y="261.83038"
       id="text5890-3-3"
       transform="rotate(0.01698)"><tspan
         sodipodi:role="line"
         id="tspan5888-6-56"
         style="stroke-width:0.264583"
         x="67.694885"
         y="261.83038">Input</tspan></text>
    <rect
       style="fill:#aaeeff;stroke:#000000;stroke-width:1;stroke-miterlimit:4;stroke-dasharray:none"
       id="rect2076-2"
       width="29.104166"
       height="11.906264"
       x="114.26979"
       y="252.47462" />
    <text
       xml:space="preserve"
       style="font-style:normal;font-weight:normal;font-size:10.5833px;line-height:1.25;font-family:sans-serif;fill:#000000;fill-opacity:1;stroke:none;stroke-width:0.264583"
       x="115.05524"
       y="261.81656"
       id="text5890-3-7-9"
       transform="rotate(0.01698)"><tspan
         sodipodi:role="line"
         id="tspan5888-6-5-1"
         style="stroke-width:0.264583"
         x="115.05524"
         y="261.81656">Conv</tspan></text>
    <ellipse
       style="fill:#aaeeff;stroke:#000000;stroke-width:1;stroke-miterlimit:4;stroke-dasharray:none"
       id="path4812-2"
       cx="35.299744"
       cy="278.71326"
       rx="23.042669"
       ry="7.8917255" />
    <text
       xml:space="preserve"
       style="font-style:normal;font-weight:normal;font-size:10.5833px;line-height:1.25;font-family:sans-serif;fill:#000000;fill-opacity:1;stroke:none;stroke-width:0.264583"
       x="15.118319"
       y="281.68549"
       id="text5890-3-7-3-7"
       transform="rotate(0.01698)"><tspan
         sodipodi:role="line"
         id="tspan5888-6-5-5-0"
         style="stroke-width:0.264583"
         x="15.118319"
         y="281.68549">weights</tspan></text>
    <ellipse
       style="fill:#eeaaff;stroke:#000000;stroke-width:1;stroke-miterlimit:4;stroke-dasharray:none"
       id="path4812-2-9"
       cx="101.48637"
       cy="278.9346"
       rx="26.938999"
       ry="7.4920216" />
    <text
       xml:space="preserve"
       style="font-style:normal;font-weight:normal;font-size:10.5833px;line-height:1.25;font-family:sans-serif;fill:#000000;fill-opacity:1;stroke:none;stroke-width:0.264583"
       x="77.382401"
       y="282.32117"
       id="text5890-3-7-3-7-2"
       transform="rotate(0.01698)"><tspan
         sodipodi:role="line"
         id="tspan5888-6-5-5-0-2"
         style="stroke-width:0.264583"
         x="77.382401"
         y="282.32117">wt quant</tspan></text>
    <path
       style="fill:none;fill-rule:evenodd;stroke:#000000;stroke-width:1;stroke-linecap:butt;stroke-linejoin:miter;stroke-miterlimit:4;stroke-dasharray:none;stroke-opacity:1;marker-end:url(#Arrow1Mend-3-5)"
       d="m 126.17364,276.28729 7.9375,-10.58333"
       id="path6852-9"
       inkscape:connector-type="polyline"
       inkscape:connector-curvature="0" />
    <path
       style="display:inline;fill:none;fill-rule:evenodd;stroke:#000000;stroke-width:1;stroke-linecap:butt;stroke-linejoin:miter;stroke-miterlimit:4;stroke-dasharray:none;stroke-opacity:1;marker-end:url(#marker7228-7-2)"
       d="m 94.423673,259.08937 18.520797,1e-5"
       id="path7224-3"
       inkscape:connector-type="polyline"
       inkscape:connector-curvature="0" />
    <circle
       style="fill:#aaeeff;stroke:#000000;stroke-width:0.888889;stroke-miterlimit:4;stroke-dasharray:none"
       id="path7308-6"
       cx="163.97089"
       cy="258.40906"
       r="7.0555553" />
    <text
       xml:space="preserve"
       style="font-style:normal;font-weight:normal;font-size:10.5833px;line-height:1.25;font-family:sans-serif;fill:#000000;fill-opacity:1;stroke:none;stroke-width:0.264583"
       x="159.81772"
       y="261.9314"
       id="text5890-3-7-6-0"
       transform="rotate(0.01698)"><tspan
         sodipodi:role="line"
         id="tspan5888-6-5-2-6"
         style="stroke-width:0.264583"
         x="159.81772"
         y="261.9314">+</tspan></text>
    <path
       style="fill:none;fill-rule:evenodd;stroke:#000000;stroke-width:1;stroke-linecap:butt;stroke-linejoin:miter;stroke-miterlimit:4;stroke-dasharray:none;stroke-opacity:1;marker-end:url(#marker7228-7-2)"
       d="M 143.37155,259.08937 H 155.2778"
       id="path904-2"
       inkscape:connector-type="polyline"
       inkscape:connector-curvature="0" />
    <path
       style="fill:none;fill-rule:evenodd;stroke:#000000;stroke-width:1;stroke-linecap:butt;stroke-linejoin:miter;stroke-miterlimit:4;stroke-dasharray:none;stroke-opacity:1;marker-end:url(#marker7228-7-2)"
       d="m 149.98614,243.21437 10.58333,7.9375"
       id="path2764-7"
       inkscape:connector-type="polyline"
       inkscape:connector-curvature="0" />
    <rect
       style="fill:#aaeeff;stroke:#000000;stroke-width:1;stroke-miterlimit:4;stroke-dasharray:none"
       id="rect2076-5-9"
       width="31.220825"
       height="11.906264"
       x="183.58882"
       y="252.47462" />
    <text
       xml:space="preserve"
       style="font-style:normal;font-weight:normal;font-size:10.5833px;line-height:1.25;font-family:sans-serif;fill:#000000;fill-opacity:1;stroke:none;stroke-width:0.264583"
       x="184.37427"
       y="261.79614"
       id="text5890-3-7-35-2"
       transform="rotate(0.01698)"><tspan
         sodipodi:role="line"
         id="tspan5888-6-5-6-0"
         style="stroke-width:0.264583"
         x="184.37427"
         y="261.79614">Relu6</tspan></text>
    <path
       style="fill:none;fill-rule:evenodd;stroke:#000000;stroke-width:1;stroke-linecap:butt;stroke-linejoin:miter;stroke-miterlimit:4;stroke-dasharray:none;stroke-opacity:1;marker-end:url(#marker7228-7-2)"
       d="m 171.1528,259.08937 h 10.58334"
       id="path3030-2"
       inkscape:connector-type="polyline"
       inkscape:connector-curvature="0" />
    <path
       style="fill:none;fill-rule:evenodd;stroke:#000000;stroke-width:1;stroke-linecap:butt;stroke-linejoin:miter;stroke-miterlimit:4;stroke-dasharray:none;stroke-opacity:1;marker-end:url(#marker7228-7-2)"
       d="m 214.80908,259.08937 h 13.22917"
       id="path7212-3"
       inkscape:connector-type="polyline"
       inkscape:connector-curvature="0" />
    <text
       xml:space="preserve"
       style="font-style:normal;font-weight:normal;font-size:10.5833px;line-height:1.25;font-family:sans-serif;fill:#000000;fill-opacity:1;stroke:none;stroke-width:0.264583"
       x="303.36459"
       y="262.99078"
       id="text5890-3-2-7"
       transform="rotate(0.01698)"><tspan
         sodipodi:role="line"
         id="tspan5888-6-9-5"
         style="stroke-width:0.264583"
         x="303.36459"
         y="262.99078">Output</tspan></text>
    <path
       style="fill:none;fill-rule:evenodd;stroke:#000000;stroke-width:0.264583px;stroke-linecap:butt;stroke-linejoin:miter;stroke-opacity:1"
       d="m 58.969704,278.93313 v 0"
       id="path1004"
       inkscape:connector-type="polyline"
       inkscape:connector-curvature="0" />
    <path
       style="fill:none;fill-rule:evenodd;stroke:#000000;stroke-width:1;stroke-linecap:butt;stroke-linejoin:miter;stroke-miterlimit:4;stroke-dasharray:none;stroke-opacity:1;marker-end:url(#Arrow1Mend-1)"
       d="M 58.705117,278.93313 H 71.934212"
       id="path1006"
       inkscape:connector-type="polyline"
       inkscape:connector-curvature="0" />
    <ellipse
       style="fill:#eeaaff;stroke:#000000;stroke-width:1;stroke-miterlimit:4;stroke-dasharray:none"
       id="path4812-2-9-3"
       cx="259.06049"
       cy="259.26425"
       rx="29.058279"
       ry="7.6943259" />
    <text
       xml:space="preserve"
       style="font-style:normal;font-weight:normal;font-size:10.5833px;line-height:1.25;font-family:sans-serif;fill:#000000;fill-opacity:1;stroke:none;stroke-width:0.264583"
       x="232.80579"
       y="262.30411"
       id="text5890-3-7-3-7-2-6"
       transform="rotate(0.01698)"><tspan
         sodipodi:role="line"
         id="tspan5888-6-5-5-0-2-7"
         style="stroke-width:0.264583"
         x="232.80579"
         y="262.30411">act quant</tspan></text>
    <path
       style="fill:none;fill-rule:evenodd;stroke:#000000;stroke-width:1;stroke-linecap:butt;stroke-linejoin:miter;stroke-miterlimit:4;stroke-dasharray:none;stroke-opacity:1;marker-end:url(#marker7228-7-5-7)"
       d="m 288.62782,259.35396 h 13.22917"
       id="path7212-3-5"
       inkscape:connector-type="polyline"
       inkscape:connector-curvature="0" />
    <ellipse
       style="fill:#aaeeff;stroke:#000000;stroke-width:1;stroke-miterlimit:4;stroke-dasharray:none"
       id="path4812-3-53"
       cx="130.47684"
       cy="241.86263"
       rx="19.374712"
       ry="7.0473351" />
    <text
       xml:space="preserve"
       style="font-style:normal;font-weight:normal;font-size:10.5833px;line-height:1.25;font-family:sans-serif;fill:#000000;fill-opacity:1;stroke:none;stroke-width:0.264583"
       x="114.37651"
       y="245.24956"
       id="text5890-3-7-3-6-5"
       transform="rotate(0.01698)"><tspan
         sodipodi:role="line"
         id="tspan5888-6-5-5-7-6"
         style="stroke-width:0.264583"
         x="114.37651"
         y="245.24956">biases</tspan></text>
    <text
       xml:space="preserve"
       style="font-style:normal;font-weight:normal;font-size:10.5833px;line-height:1.25;font-family:sans-serif;fill:#000000;fill-opacity:1;stroke:none;stroke-width:0.264583"
       x="76.657303"
       y="337.56918"
       id="text5890-3-0"
       transform="rotate(0.01698)"><tspan
         sodipodi:role="line"
         id="tspan5888-6-93"
         style="stroke-width:0.264583"
         x="76.657303"
         y="337.56918">Input</tspan></text>
    <rect
       style="fill:#aaeeff;stroke:#000000;stroke-width:1;stroke-miterlimit:4;stroke-dasharray:none"
       id="rect2076-6"
       width="29.104166"
       height="11.906264"
       x="123.20998"
       y="328.21347" />
    <text
       xml:space="preserve"
       style="font-style:normal;font-weight:normal;font-size:10.5833px;line-height:1.25;font-family:sans-serif;fill:#000000;fill-opacity:1;stroke:none;stroke-width:0.264583"
       x="124.01746"
       y="337.55536"
       id="text5890-3-7-0"
       transform="rotate(0.01698)"><tspan
         sodipodi:role="line"
         id="tspan5888-6-5-62"
         style="stroke-width:0.264583"
         x="124.01746"
         y="337.55536">Conv</tspan></text>
    <ellipse
       style="fill:#aaeeff;stroke:#000000;stroke-width:1;stroke-miterlimit:4;stroke-dasharray:none"
       id="path4812-6"
       cx="111.80824"
       cy="351.91782"
       rx="23.042669"
       ry="7.8917255" />
    <text
       xml:space="preserve"
       style="font-style:normal;font-weight:normal;font-size:10.5833px;line-height:1.25;font-family:sans-serif;fill:#000000;fill-opacity:1;stroke:none;stroke-width:0.264583"
       x="91.648415"
       y="354.86987"
       id="text5890-3-7-3-1"
       transform="rotate(0.01698)"><tspan
         sodipodi:role="line"
         id="tspan5888-6-5-5-8"
         style="stroke-width:0.264583"
         x="91.648415"
         y="354.86987">weights</tspan></text>
    <path
       style="fill:none;fill-rule:evenodd;stroke:#000000;stroke-width:1;stroke-linecap:butt;stroke-linejoin:miter;stroke-miterlimit:4;stroke-dasharray:none;stroke-opacity:1;marker-end:url(#Arrow1Mend-9-9)"
       d="m 135.11643,352.02576 7.93755,-10.58333"
       id="path6852-7"
       inkscape:connector-type="polyline"
       inkscape:connector-curvature="0" />
    <path
       style="display:inline;fill:none;fill-rule:evenodd;stroke:#000000;stroke-width:1;stroke-linecap:butt;stroke-linejoin:miter;stroke-miterlimit:4;stroke-dasharray:none;stroke-opacity:1;marker-end:url(#marker7228-2-6)"
       d="m 103.36625,334.82784 18.52093,1e-5"
       id="path7224-9"
       inkscape:connector-type="polyline"
       inkscape:connector-curvature="0" />
    <circle
       style="fill:#aaeeff;stroke:#000000;stroke-width:0.888889;stroke-miterlimit:4;stroke-dasharray:none"
       id="path7308-2"
       cx="172.91168"
       cy="334.14801"
       r="7.0555553" />
    <text
       xml:space="preserve"
       style="font-style:normal;font-weight:normal;font-size:10.5833px;line-height:1.25;font-family:sans-serif;fill:#000000;fill-opacity:1;stroke:none;stroke-width:0.264583"
       x="168.78053"
       y="337.67017"
       id="text5890-3-7-6-02"
       transform="rotate(0.01698)"><tspan
         sodipodi:role="line"
         id="tspan5888-6-5-2-3"
         style="stroke-width:0.264583"
         x="168.78053"
         y="337.67017">+</tspan></text>
    <path
       style="fill:none;fill-rule:evenodd;stroke:#000000;stroke-width:1;stroke-linecap:butt;stroke-linejoin:miter;stroke-miterlimit:4;stroke-dasharray:none;stroke-opacity:1;marker-end:url(#marker7228-2-6)"
       d="m 152.31445,334.82784 h 11.90632"
       id="path904-7"
       inkscape:connector-type="polyline"
       inkscape:connector-curvature="0" />
    <path
       style="fill:none;fill-rule:evenodd;stroke:#000000;stroke-width:1;stroke-linecap:butt;stroke-linejoin:miter;stroke-miterlimit:4;stroke-dasharray:none;stroke-opacity:1;marker-end:url(#marker7228-2-6)"
       d="m 158.92907,318.95284 10.58339,7.9375"
       id="path2764-2"
       inkscape:connector-type="polyline"
       inkscape:connector-curvature="0" />
    <rect
       style="fill:#aaeeff;stroke:#000000;stroke-width:1;stroke-miterlimit:4;stroke-dasharray:none"
       id="rect2076-5-8"
       width="31.220825"
       height="11.906264"
       x="192.52986"
       y="328.21347" />
    <text
       xml:space="preserve"
       style="font-style:normal;font-weight:normal;font-size:10.5833px;line-height:1.25;font-family:sans-serif;fill:#000000;fill-opacity:1;stroke:none;stroke-width:0.264583"
       x="193.3374"
       y="337.53491"
       id="text5890-3-7-35-9"
       transform="rotate(0.01698)"><tspan
         sodipodi:role="line"
         id="tspan5888-6-5-6-7"
         style="stroke-width:0.264583"
         x="193.3374"
         y="337.53491">Relu6</tspan></text>
    <path
       style="fill:none;fill-rule:evenodd;stroke:#000000;stroke-width:1;stroke-linecap:butt;stroke-linejoin:miter;stroke-miterlimit:4;stroke-dasharray:none;stroke-opacity:1;marker-end:url(#marker7228-2-6)"
       d="m 180.09586,334.82784 h 10.58339"
       id="path3030-3"
       inkscape:connector-type="polyline"
       inkscape:connector-curvature="0" />
    <path
       style="fill:none;fill-rule:evenodd;stroke:#000000;stroke-width:1;stroke-linecap:butt;stroke-linejoin:miter;stroke-miterlimit:4;stroke-dasharray:none;stroke-opacity:1;marker-end:url(#marker7228-2-6)"
       d="m 223.75239,334.82784 h 13.22924"
       id="path7212-6"
       inkscape:connector-type="polyline"
       inkscape:connector-curvature="0" />
    <text
       xml:space="preserve"
       style="font-style:normal;font-weight:normal;font-size:10.5833px;line-height:1.25;font-family:sans-serif;fill:#000000;fill-opacity:1;stroke:none;stroke-width:0.264583"
       x="238.58087"
       y="338.57956"
       id="text5890-3-2-1"
       transform="rotate(0.01698)"><tspan
         sodipodi:role="line"
         id="tspan5888-6-9-29"
         style="stroke-width:0.264583"
         x="238.58087"
         y="338.57956">Output</tspan></text>
    <text
       xml:space="preserve"
       style="font-style:normal;font-weight:normal;font-size:6.35px;line-height:1.25;font-family:sans-serif;fill:#000000;fill-opacity:1;stroke:none;stroke-width:0.264583"
       x="104.22289"
       y="330.92667"
       id="text5890-3-2-6-3-9"
       transform="rotate(0.01698)"><tspan
         sodipodi:role="line"
         id="tspan5888-6-9-2-1-4"
         style="font-size:6.35px;stroke-width:0.264583"
         x="104.22289"
         y="330.92667">uint8</tspan></text>
    <ellipse
       style="fill:#aaeeff;stroke:#000000;stroke-width:0.999995;stroke-miterlimit:4;stroke-dasharray:none"
       id="path4812-3-2"
       cx="141.07143"
       cy="316.02734"
       rx="19.374502"
       ry="7.047338" />
    <text
       xml:space="preserve"
       style="font-style:normal;font-weight:normal;font-size:10.5832px;line-height:1.25;font-family:sans-serif;fill:#000000;fill-opacity:1;stroke:none;stroke-width:0.264582"
       x="124.99313"
       y="319.41208"
       id="text5890-3-7-3-6-91"
       transform="matrix(0.99999441,2.9635857e-4,-2.9635525e-4,1.0000055,0,0)"><tspan
         sodipodi:role="line"
         id="tspan5888-6-5-5-7-27"
         style="stroke-width:0.264582"
         x="124.99313"
         y="319.41208">biases</tspan></text>
    <text
       xml:space="preserve"
       style="font-style:normal;font-weight:normal;font-size:6.35px;line-height:1.25;font-family:sans-serif;fill:#000000;fill-opacity:1;stroke:none;stroke-width:0.264583"
       x="159.95566"
       y="313.45923"
       id="text5890-3-2-6-3-9-0"
       transform="rotate(0.01698)"><tspan
         sodipodi:role="line"
         id="tspan5888-6-9-2-1-4-9"
         style="font-size:6.35px;stroke-width:0.264583"
         x="159.95566"
         y="313.45923">uint32</tspan></text>
    <text
       xml:space="preserve"
       style="font-style:normal;font-weight:normal;font-size:6.35px;line-height:1.25;font-family:sans-serif;fill:#000000;fill-opacity:1;stroke:none;stroke-width:0.264583"
       x="137.30273"
       y="355.25858"
       id="text5890-3-2-6-3-9-3"
       transform="rotate(0.01698)"><tspan
         sodipodi:role="line"
         id="tspan5888-6-9-2-1-4-6"
         style="font-size:6.35px;stroke-width:0.264583"
         x="137.30273"
         y="355.25858">uint8</tspan></text>
    <text
       xml:space="preserve"
       style="font-style:normal;font-weight:normal;font-size:6.35px;line-height:1.25;font-family:sans-serif;letter-spacing:0px;fill:#000000;fill-opacity:1;stroke:none;stroke-width:0.264583"
       x="150.79372"
       y="346.2587"
       id="text5890-3-2-6-3-9-06"
       transform="rotate(0.01698)"><tspan
         sodipodi:role="line"
         id="tspan5888-6-9-2-1-4-2"
         style="font-size:6.35px;stroke-width:0.264583"
         x="150.79372"
         y="346.2587">uint32</tspan></text>
    <text
       xml:space="preserve"
       style="font-style:normal;font-weight:normal;font-size:6.35px;line-height:1.25;font-family:sans-serif;fill:#000000;fill-opacity:1;stroke:none;stroke-width:0.264583"
       x="177.51614"
       y="345.98624"
       id="text5890-3-2-6-3-9-6"
       transform="rotate(0.01698)"><tspan
         sodipodi:role="line"
         id="tspan5888-6-9-2-1-4-1"
         style="font-size:6.35px;stroke-width:0.264583"
         x="177.51614"
         y="345.98624">uint8</tspan></text>
    <text
       xml:space="preserve"
       style="font-style:normal;font-weight:normal;font-size:6.35px;line-height:1.25;font-family:sans-serif;fill:#000000;fill-opacity:1;stroke:none;stroke-width:0.264583"
       x="222.75935"
       y="345.97278"
       id="text5890-3-2-6-3-9-8"
       transform="rotate(0.01698)"><tspan
         sodipodi:role="line"
         id="tspan5888-6-9-2-1-4-7"
         style="font-size:6.35px;stroke-width:0.264583"
         x="222.75935"
         y="345.97278">uint8</tspan></text>
  </g>
</svg>
