\boolfalse {citerequest}\boolfalse {citetracker}\boolfalse {pagetracker}\boolfalse {backtracker}\relax 
\defcounter {refsection}{0}\relax 
\beamer@sectionintoc {3}{HNN}{25}{0}{1}
\defcounter {refsection}{0}\relax 
\beamer@subsubsectionintoc {6}{1}{3}{Thanks!}{64}{0}{1}
\defcounter {refsection}{0}\relax 
\beamer@subsubsectionintoc {6}{1}{4}{Thanks!}{65}{0}{1}
