INFO: [VRFC 10-163] Analyzing VHDL file "/home/dorfell/Downloads/fer_sys_dev/01_hw/fer_soc/fer_soc.ip_user_files/bd/fer_soc_bd/ip/fer_soc_bd_axi_gpio_0_0/sim/fer_soc_bd_axi_gpio_0_0.vhd" into library xil_defaultlib
INFO: [VRFC 10-3107] analyzing entity 'fer_soc_bd_axi_gpio_0_0'
INFO: [VRFC 10-163] Analyzing VHDL file "/home/dorfell/Downloads/fer_sys_dev/01_hw/fer_soc/fer_soc.ip_user_files/bd/fer_soc_bd/ip/fer_soc_bd_axi_gpio_1_0/sim/fer_soc_bd_axi_gpio_1_0.vhd" into library xil_defaultlib
INFO: [VRFC 10-3107] analyzing entity 'fer_soc_bd_axi_gpio_1_0'
INFO: [VRFC 10-163] Analyzing VHDL file "/home/dorfell/Downloads/fer_sys_dev/01_hw/fer_soc/fer_soc.ip_user_files/bd/fer_soc_bd/ip/fer_soc_bd_rst_ps7_0_50M_0/sim/fer_soc_bd_rst_ps7_0_50M_0.vhd" into library xil_defaultlib
INFO: [VRFC 10-3107] analyzing entity 'fer_soc_bd_rst_ps7_0_50M_0'
INFO: [VRFC 10-163] Analyzing VHDL file "/home/dorfell/Downloads/fer_sys_dev/01_hw/fer_soc/fer_soc.ip_user_files/bd/fer_soc_bd/ipshared/79ff/src/conv_core0.vhd" into library xil_defaultlib
INFO: [VRFC 10-3107] analyzing entity 'conv_core0'
INFO: [VRFC 10-163] Analyzing VHDL file "/home/dorfell/Downloads/fer_sys_dev/01_hw/fer_soc/fer_soc.ip_user_files/bd/fer_soc_bd/ipshared/79ff/src/conv_core1.vhd" into library xil_defaultlib
INFO: [VRFC 10-3107] analyzing entity 'conv_core1'
INFO: [VRFC 10-163] Analyzing VHDL file "/home/dorfell/Downloads/fer_sys_dev/01_hw/fer_soc/fer_soc.ip_user_files/bd/fer_soc_bd/ipshared/79ff/src/conv_core2.vhd" into library xil_defaultlib
INFO: [VRFC 10-3107] analyzing entity 'conv_core2'
INFO: [VRFC 10-163] Analyzing VHDL file "/home/dorfell/Downloads/fer_sys_dev/01_hw/fer_soc/fer_soc.ip_user_files/bd/fer_soc_bd/ipshared/79ff/src/conv_core3.vhd" into library xil_defaultlib
INFO: [VRFC 10-3107] analyzing entity 'conv_core3'
INFO: [VRFC 10-163] Analyzing VHDL file "/home/dorfell/Downloads/fer_sys_dev/01_hw/fer_soc/fer_soc.ip_user_files/bd/fer_soc_bd/ipshared/79ff/src/conv_core_top.vhd" into library xil_defaultlib
INFO: [VRFC 10-3107] analyzing entity 'conv_core_top'
INFO: [VRFC 10-163] Analyzing VHDL file "/home/dorfell/Downloads/fer_sys_dev/01_hw/fer_soc/fer_soc.ip_user_files/bd/fer_soc_bd/ipshared/79ff/src/conv_tflite.vhd" into library xil_defaultlib
INFO: [VRFC 10-3107] analyzing entity 'conv_tflite'
INFO: [VRFC 10-163] Analyzing VHDL file "/home/dorfell/Downloads/fer_sys_dev/01_hw/fer_soc/fer_soc.ip_user_files/bd/fer_soc_bd/ipshared/79ff/src/conv_top.vhd" into library xil_defaultlib
INFO: [VRFC 10-3107] analyzing entity 'conv_top'
INFO: [VRFC 10-163] Analyzing VHDL file "/home/dorfell/Downloads/fer_sys_dev/01_hw/fer_soc/fer_soc.ip_user_files/bd/fer_soc_bd/ipshared/79ff/hdl/conv_v1_0_S00_AXI.vhd" into library xil_defaultlib
INFO: [VRFC 10-3107] analyzing entity 'conv_v1_0_S00_AXI'
INFO: [VRFC 10-163] Analyzing VHDL file "/home/dorfell/Downloads/fer_sys_dev/01_hw/fer_soc/fer_soc.ip_user_files/bd/fer_soc_bd/ipshared/79ff/src/tflite_core0.vhd" into library xil_defaultlib
INFO: [VRFC 10-3107] analyzing entity 'tflite_core0'
INFO: [VRFC 10-163] Analyzing VHDL file "/home/dorfell/Downloads/fer_sys_dev/01_hw/fer_soc/fer_soc.ip_user_files/bd/fer_soc_bd/ipshared/79ff/src/tflite_core1.vhd" into library xil_defaultlib
INFO: [VRFC 10-3107] analyzing entity 'tflite_core1'
INFO: [VRFC 10-163] Analyzing VHDL file "/home/dorfell/Downloads/fer_sys_dev/01_hw/fer_soc/fer_soc.ip_user_files/bd/fer_soc_bd/ipshared/79ff/src/tflite_core2.vhd" into library xil_defaultlib
INFO: [VRFC 10-3107] analyzing entity 'tflite_core2'
INFO: [VRFC 10-163] Analyzing VHDL file "/home/dorfell/Downloads/fer_sys_dev/01_hw/fer_soc/fer_soc.ip_user_files/bd/fer_soc_bd/ipshared/79ff/src/tflite_core3.vhd" into library xil_defaultlib
INFO: [VRFC 10-3107] analyzing entity 'tflite_core3'
INFO: [VRFC 10-163] Analyzing VHDL file "/home/dorfell/Downloads/fer_sys_dev/01_hw/fer_soc/fer_soc.ip_user_files/bd/fer_soc_bd/ipshared/79ff/hdl/conv_v1_0.vhd" into library xil_defaultlib
INFO: [VRFC 10-3107] analyzing entity 'conv_v1_0'
INFO: [VRFC 10-163] Analyzing VHDL file "/home/dorfell/Downloads/fer_sys_dev/01_hw/fer_soc/fer_soc.ip_user_files/bd/fer_soc_bd/ip/fer_soc_bd_conv_0_0/sim/fer_soc_bd_conv_0_0.vhd" into library xil_defaultlib
INFO: [VRFC 10-3107] analyzing entity 'fer_soc_bd_conv_0_0'
INFO: [VRFC 10-163] Analyzing VHDL file "/home/dorfell/Downloads/fer_sys_dev/01_hw/fer_soc/fer_soc.ip_user_files/bd/fer_soc_bd/sim/fer_soc_bd.vhd" into library xil_defaultlib
INFO: [VRFC 10-3107] analyzing entity 'm00_couplers_imp_12KGQWY'
INFO: [VRFC 10-3107] analyzing entity 'm01_couplers_imp_1U5DAF8'
INFO: [VRFC 10-3107] analyzing entity 'm02_couplers_imp_I9BXE6'
INFO: [VRFC 10-3107] analyzing entity 's00_couplers_imp_1SQ3MGZ'
INFO: [VRFC 10-3107] analyzing entity 'fer_soc_bd_axi_interconnect_0_0'
INFO: [VRFC 10-3107] analyzing entity 'fer_soc_bd'
INFO: [VRFC 10-163] Analyzing VHDL file "/home/dorfell/Downloads/fer_sys_dev/01_hw/fer_soc/fer_soc.gen/sources_1/bd/fer_soc_bd/hdl/fer_soc_bd_wrapper.vhd" into library xil_defaultlib
INFO: [VRFC 10-3107] analyzing entity 'fer_soc_bd_wrapper'
