<?xml version="1.0" encoding="UTF-8" standalone="no"?>
<!-- Created with Inkscape (http://www.inkscape.org/) -->

<svg
   width="297mm"
   height="210mm"
   viewBox="0 0 297 210"
   version="1.1"
   id="svg5"
   inkscape:version="1.1.2 (0a00cf5339, 2022-02-04)"
   sodipodi:docname="lbp_code.svg"
   inkscape:export-filename="/home/dorfell/Downloads/fer_sys_dev/docs/00_book/img/fer/lbp_encoding.png"
   inkscape:export-xdpi="96.206001"
   inkscape:export-ydpi="96.206001"
   xmlns:inkscape="http://www.inkscape.org/namespaces/inkscape"
   xmlns:sodipodi="http://sodipodi.sourceforge.net/DTD/sodipodi-0.dtd"
   xmlns="http://www.w3.org/2000/svg"
   xmlns:svg="http://www.w3.org/2000/svg">
  <sodipodi:namedview
     id="namedview7"
     pagecolor="#ffffff"
     bordercolor="#666666"
     borderopacity="1.0"
     inkscape:pageshadow="2"
     inkscape:pageopacity="0.0"
     inkscape:pagecheckerboard="0"
     inkscape:document-units="mm"
     showgrid="true"
     inkscape:zoom="0.5"
     inkscape:cx="631"
     inkscape:cy="231"
     inkscape:window-width="1920"
     inkscape:window-height="1066"
     inkscape:window-x="1360"
     inkscape:window-y="27"
     inkscape:window-maximized="1"
     inkscape:current-layer="layer1"
     inkscape:showpageshadow="2"
     inkscape:deskcolor="#d1d1d1">
    <inkscape:grid
       type="xygrid"
       id="grid824" />
  </sodipodi:namedview>
  <defs
     id="defs2">
    <marker
       style="overflow:visible;"
       id="marker161521"
       refX="0.0"
       refY="0.0"
       orient="auto"
       inkscape:stockid="Arrow1Mend"
       inkscape:isstock="true">
      <path
         transform="scale(0.4) rotate(180) translate(10,0)"
         style="fill-rule:evenodd;fill:context-stroke;stroke:context-stroke;stroke-width:1.0pt;"
         d="M 0.0,0.0 L 5.0,-5.0 L -12.5,0.0 L 5.0,5.0 L 0.0,0.0 z "
         id="path161519" />
    </marker>
    <marker
       style="overflow:visible;"
       id="marker161511"
       refX="0.0"
       refY="0.0"
       orient="auto"
       inkscape:stockid="Arrow2Lend"
       inkscape:isstock="true">
      <path
         transform="scale(1.1) rotate(180) translate(1,0)"
         d="M 8.7185878,4.0337352 L -2.2072895,0.016013256 L 8.7185884,-4.0017078 C 6.9730900,-1.6296469 6.9831476,1.6157441 8.7185878,4.0337352 z "
         style="stroke:context-stroke;fill-rule:evenodd;fill:context-stroke;stroke-width:0.62500000;stroke-linejoin:round;"
         id="path161509" />
    </marker>
    <marker
       style="overflow:visible;"
       id="marker161501"
       refX="0.0"
       refY="0.0"
       orient="auto"
       inkscape:stockid="Arrow1Mend"
       inkscape:isstock="true">
      <path
         transform="scale(0.4) rotate(180) translate(10,0)"
         style="fill-rule:evenodd;fill:context-stroke;stroke:context-stroke;stroke-width:1.0pt;"
         d="M 0.0,0.0 L 5.0,-5.0 L -12.5,0.0 L 5.0,5.0 L 0.0,0.0 z "
         id="path161499" />
    </marker>
    <marker
       style="overflow:visible;"
       id="Arrow2Lend"
       refX="0.0"
       refY="0.0"
       orient="auto"
       inkscape:stockid="Arrow2Lend"
       inkscape:isstock="true">
      <path
         transform="scale(1.1) rotate(180) translate(1,0)"
         d="M 8.7185878,4.0337352 L -2.2072895,0.016013256 L 8.7185884,-4.0017078 C 6.9730900,-1.6296469 6.9831476,1.6157441 8.7185878,4.0337352 z "
         style="stroke:context-stroke;fill-rule:evenodd;fill:context-stroke;stroke-width:0.62500000;stroke-linejoin:round;"
         id="path161190" />
    </marker>
    <marker
       style="overflow:visible"
       id="TriangleOutM"
       refX="0.0"
       refY="0.0"
       orient="auto"
       inkscape:stockid="TriangleOutM"
       inkscape:isstock="true">
      <path
         transform="scale(0.4)"
         style="fill-rule:evenodd;fill:context-stroke;stroke:context-stroke;stroke-width:1.0pt"
         d="M 5.77,0.0 L -2.88,5.0 L -2.88,-5.0 L 5.77,0.0 z "
         id="path161314" />
    </marker>
    <marker
       style="overflow:visible;"
       id="marker161475"
       refX="0.0"
       refY="0.0"
       orient="auto"
       inkscape:stockid="Arrow2Mend"
       inkscape:isstock="true">
      <path
         transform="scale(0.6) rotate(180) translate(0,0)"
         d="M 8.7185878,4.0337352 L -2.2072895,0.016013256 L 8.7185884,-4.0017078 C 6.9730900,-1.6296469 6.9831476,1.6157441 8.7185878,4.0337352 z "
         style="stroke:context-stroke;fill-rule:evenodd;fill:context-stroke;stroke-width:0.62500000;stroke-linejoin:round;"
         id="path161473" />
    </marker>
    <marker
       style="overflow:visible;"
       id="marker161465"
       refX="0.0"
       refY="0.0"
       orient="auto"
       inkscape:stockid="Arrow1Mend"
       inkscape:isstock="true">
      <path
         transform="scale(0.4) rotate(180) translate(10,0)"
         style="fill-rule:evenodd;fill:context-stroke;stroke:context-stroke;stroke-width:1.0pt;"
         d="M 0.0,0.0 L 5.0,-5.0 L -12.5,0.0 L 5.0,5.0 L 0.0,0.0 z "
         id="path161178" />
    </marker>
    <marker
       style="overflow:visible;"
       id="marker161456"
       refX="0.0"
       refY="0.0"
       orient="auto"
       inkscape:stockid="Arrow1Send"
       inkscape:isstock="true">
      <path
         transform="scale(0.2) rotate(180) translate(6,0)"
         style="fill-rule:evenodd;fill:context-stroke;stroke:context-stroke;stroke-width:1.0pt;"
         d="M 0.0,0.0 L 5.0,-5.0 L -12.5,0.0 L 5.0,5.0 L 0.0,0.0 z "
         id="path161454" />
    </marker>
    <marker
       style="overflow:visible;"
       id="Arrow2Mend"
       refX="0.0"
       refY="0.0"
       orient="auto"
       inkscape:stockid="Arrow2Mend"
       inkscape:isstock="true">
      <path
         transform="scale(0.6) rotate(180) translate(0,0)"
         d="M 8.7185878,4.0337352 L -2.2072895,0.016013256 L 8.7185884,-4.0017078 C 6.9730900,-1.6296469 6.9831476,1.6157441 8.7185878,4.0337352 z "
         style="stroke:context-stroke;fill-rule:evenodd;fill:context-stroke;stroke-width:0.62500000;stroke-linejoin:round;"
         id="path161196" />
    </marker>
    <marker
       style="overflow:visible;"
       id="Arrow2Send"
       refX="0.0"
       refY="0.0"
       orient="auto"
       inkscape:stockid="Arrow2Send"
       inkscape:isstock="true">
      <path
         transform="scale(0.3) rotate(180) translate(-2.3,0)"
         d="M 8.7185878,4.0337352 L -2.2072895,0.016013256 L 8.7185884,-4.0017078 C 6.9730900,-1.6296469 6.9831476,1.6157441 8.7185878,4.0337352 z "
         style="stroke:context-stroke;fill-rule:evenodd;fill:context-stroke;stroke-width:0.62500000;stroke-linejoin:round;"
         id="path161202" />
    </marker>
    <marker
       style="overflow:visible;"
       id="marker161430"
       refX="0.0"
       refY="0.0"
       orient="auto"
       inkscape:stockid="Arrow1Send"
       inkscape:isstock="true">
      <path
         transform="scale(0.2) rotate(180) translate(6,0)"
         style="fill-rule:evenodd;fill:context-stroke;stroke:context-stroke;stroke-width:1.0pt;"
         d="M 0.0,0.0 L 5.0,-5.0 L -12.5,0.0 L 5.0,5.0 L 0.0,0.0 z "
         id="path161184" />
    </marker>
    <marker
       style="overflow:visible"
       id="marker7675"
       refX="0"
       refY="0"
       orient="auto"
       inkscape:stockid="Arrow1Mend"
       inkscape:isstock="true">
      <path
         transform="matrix(-0.4,0,0,-0.4,-4,0)"
         style="fill:context-stroke;fill-rule:evenodd;stroke:context-stroke;stroke-width:1pt"
         d="M 0,0 5,-5 -12.5,0 5,5 Z"
         id="path7673" />
    </marker>
    <marker
       style="overflow:visible"
       id="Arrow1Send"
       refX="0"
       refY="0"
       orient="auto"
       inkscape:stockid="Arrow1Send"
       inkscape:isstock="true">
      <path
         transform="matrix(-0.2,0,0,-0.2,-1.2,0)"
         style="fill:context-stroke;fill-rule:evenodd;stroke:context-stroke;stroke-width:1pt"
         d="M 0,0 5,-5 -12.5,0 5,5 Z"
         id="path7292" />
    </marker>
    <marker
       style="overflow:visible"
       id="Arrow1Mend"
       refX="0"
       refY="0"
       orient="auto"
       inkscape:stockid="Arrow1Mend"
       inkscape:isstock="true">
      <path
         transform="matrix(-0.4,0,0,-0.4,-4,0)"
         style="fill:context-stroke;fill-rule:evenodd;stroke:context-stroke;stroke-width:1pt"
         d="M 0,0 5,-5 -12.5,0 5,5 Z"
         id="path7286" />
    </marker>
    <marker
       style="overflow:visible"
       id="Arrow1Lend"
       refX="0"
       refY="0"
       orient="auto"
       inkscape:stockid="Arrow1Lend"
       inkscape:isstock="true">
      <path
         transform="matrix(-0.8,0,0,-0.8,-10,0)"
         style="fill:context-stroke;fill-rule:evenodd;stroke:context-stroke;stroke-width:1pt"
         d="M 0,0 5,-5 -12.5,0 5,5 Z"
         id="path7280" />
    </marker>
    <marker
       style="overflow:visible"
       id="Arrow1Lstart"
       refX="0"
       refY="0"
       orient="auto"
       inkscape:stockid="Arrow1Lstart"
       inkscape:isstock="true">
      <path
         transform="matrix(0.8,0,0,0.8,10,0)"
         style="fill:context-stroke;fill-rule:evenodd;stroke:context-stroke;stroke-width:1pt"
         d="M 0,0 5,-5 -12.5,0 5,5 Z"
         id="path7277" />
    </marker>
    <marker
       style="overflow:visible"
       id="marker161521-3"
       refX="0"
       refY="0"
       orient="auto"
       inkscape:stockid="Arrow1Mend"
       inkscape:isstock="true">
      <path
         transform="matrix(-0.4,0,0,-0.4,-4,0)"
         style="fill:context-stroke;fill-rule:evenodd;stroke:context-stroke;stroke-width:1pt"
         d="M 0,0 5,-5 -12.5,0 5,5 Z"
         id="path161519-1" />
    </marker>
    <marker
       style="overflow:visible"
       id="marker161521-9"
       refX="0"
       refY="0"
       orient="auto"
       inkscape:stockid="Arrow1Mend"
       inkscape:isstock="true">
      <path
         transform="matrix(-0.4,0,0,-0.4,-4,0)"
         style="fill:context-stroke;fill-rule:evenodd;stroke:context-stroke;stroke-width:1pt"
         d="M 0,0 5,-5 -12.5,0 5,5 Z"
         id="path161519-2" />
    </marker>
    <marker
       style="overflow:visible"
       id="marker161521-9-4"
       refX="0"
       refY="0"
       orient="auto"
       inkscape:stockid="Arrow1Mend"
       inkscape:isstock="true">
      <path
         transform="matrix(-0.4,0,0,-0.4,-4,0)"
         style="fill:context-stroke;fill-rule:evenodd;stroke:context-stroke;stroke-width:1pt"
         d="M 0,0 5,-5 -12.5,0 5,5 Z"
         id="path161519-2-8" />
    </marker>
  </defs>
  <g
     inkscape:label="Layer 1"
     inkscape:groupmode="layer"
     id="layer1">
    <text
       xml:space="preserve"
       style="font-style:normal;font-weight:normal;font-size:10.5833px;line-height:1.25;font-family:sans-serif;fill:#000000;fill-opacity:1;stroke:none;stroke-width:0.264583"
       x="18.520844"
       y="91.545723"
       id="text5338"
       inkscape:export-filename="/home/dorfell/text5338.png"
       inkscape:export-xdpi="96.206001"
       inkscape:export-ydpi="96.206001"><tspan
         sodipodi:role="line"
         id="tspan5336"
         style="stroke-width:0.264583"
         x="18.520844"
         y="91.545723">1</tspan></text>
    <rect
       style="fill:none;stroke:#000000;stroke-width:1.32299;stroke-miterlimit:4;stroke-dasharray:none;stroke-dashoffset:0;stroke-opacity:1"
       id="rect6036"
       width="15.874964"
       height="15.874999"
       x="13.758326"
       y="79.90416"
       inkscape:export-filename="/home/dorfell/text5338.png"
       inkscape:export-xdpi="96.206001"
       inkscape:export-ydpi="96.206001" />
    <text
       xml:space="preserve"
       style="font-style:normal;font-weight:normal;font-size:10.5833px;line-height:1.25;font-family:sans-serif;fill:#000000;fill-opacity:1;stroke:none;stroke-width:0.264583"
       x="34.395821"
       y="91.5457"
       id="text5338-3"
       inkscape:export-filename="/home/dorfell/text5338.png"
       inkscape:export-xdpi="96.206001"
       inkscape:export-ydpi="96.206001"><tspan
         sodipodi:role="line"
         id="tspan5336-6"
         style="stroke-width:0.264583"
         x="34.395821"
         y="91.5457">2</tspan></text>
    <rect
       style="fill:none;stroke:#000000;stroke-width:1.32299;stroke-miterlimit:4;stroke-dasharray:none;stroke-dashoffset:0;stroke-opacity:1"
       id="rect6036-7"
       width="15.874964"
       height="15.874999"
       x="29.633278"
       y="79.904129"
       inkscape:export-filename="/home/dorfell/text5338.png"
       inkscape:export-xdpi="96.206001"
       inkscape:export-ydpi="96.206001" />
    <text
       xml:space="preserve"
       style="font-style:normal;font-weight:normal;font-size:10.5833px;line-height:1.25;font-family:sans-serif;fill:#000000;fill-opacity:1;stroke:none;stroke-width:0.264583"
       x="50.27079"
       y="91.545761"
       id="text5338-6"
       inkscape:export-filename="/home/dorfell/text5338.png"
       inkscape:export-xdpi="96.206001"
       inkscape:export-ydpi="96.206001"><tspan
         sodipodi:role="line"
         id="tspan5336-2"
         style="stroke-width:0.264583"
         x="50.27079"
         y="91.545761">3</tspan></text>
    <rect
       style="fill:none;stroke:#000000;stroke-width:1.32299;stroke-miterlimit:4;stroke-dasharray:none;stroke-dashoffset:0;stroke-opacity:1"
       id="rect6036-9"
       width="15.874964"
       height="15.874999"
       x="45.508236"
       y="79.904182"
       inkscape:export-filename="/home/dorfell/text5338.png"
       inkscape:export-xdpi="96.206001"
       inkscape:export-ydpi="96.206001" />
    <text
       xml:space="preserve"
       style="font-style:normal;font-weight:normal;font-size:10.5833px;line-height:1.25;font-family:sans-serif;fill:#000000;fill-opacity:1;stroke:none;stroke-width:0.264583"
       x="18.520847"
       y="107.42076"
       id="text5338-8"
       inkscape:export-filename="/home/dorfell/text5338.png"
       inkscape:export-xdpi="96.206001"
       inkscape:export-ydpi="96.206001"><tspan
         sodipodi:role="line"
         id="tspan5336-7"
         style="stroke-width:0.264583"
         x="18.520847"
         y="107.42076">4</tspan></text>
    <rect
       style="fill:none;stroke:#000000;stroke-width:1.32299;stroke-miterlimit:4;stroke-dasharray:none;stroke-dashoffset:0;stroke-opacity:1"
       id="rect6036-92"
       width="15.874964"
       height="15.874999"
       x="13.75833"
       y="95.779129"
       inkscape:export-filename="/home/dorfell/text5338.png"
       inkscape:export-xdpi="96.206001"
       inkscape:export-ydpi="96.206001" />
    <text
       xml:space="preserve"
       style="font-style:normal;font-weight:normal;font-size:10.5833px;line-height:1.25;font-family:sans-serif;fill:#000000;fill-opacity:1;stroke:none;stroke-width:0.264583"
       x="34.395821"
       y="107.42076"
       id="text5338-3-0"
       inkscape:export-filename="/home/dorfell/text5338.png"
       inkscape:export-xdpi="96.206001"
       inkscape:export-ydpi="96.206001"><tspan
         sodipodi:role="line"
         id="tspan5336-6-23"
         style="stroke-width:0.264583"
         x="34.395821"
         y="107.42076">5</tspan></text>
    <rect
       style="fill:none;stroke:#000000;stroke-width:1.32299;stroke-miterlimit:4;stroke-dasharray:none;stroke-dashoffset:0;stroke-opacity:1"
       id="rect6036-7-75"
       width="15.874964"
       height="15.874999"
       x="29.633282"
       y="95.779129"
       inkscape:export-filename="/home/dorfell/text5338.png"
       inkscape:export-xdpi="96.206001"
       inkscape:export-ydpi="96.206001" />
    <text
       xml:space="preserve"
       style="font-style:normal;font-weight:normal;font-size:10.5833px;line-height:1.25;font-family:sans-serif;fill:#000000;fill-opacity:1;stroke:none;stroke-width:0.264583"
       x="50.27079"
       y="107.42076"
       id="text5338-6-9"
       inkscape:export-filename="/home/dorfell/text5338.png"
       inkscape:export-xdpi="96.206001"
       inkscape:export-ydpi="96.206001"><tspan
         sodipodi:role="line"
         id="tspan5336-2-2"
         style="stroke-width:0.264583"
         x="50.27079"
         y="107.42076">6</tspan></text>
    <rect
       style="fill:none;stroke:#000000;stroke-width:1.32299;stroke-miterlimit:4;stroke-dasharray:none;stroke-dashoffset:0;stroke-opacity:1"
       id="rect6036-9-2"
       width="15.874964"
       height="15.874999"
       x="45.50824"
       y="95.779205"
       inkscape:export-filename="/home/dorfell/text5338.png"
       inkscape:export-xdpi="96.206001"
       inkscape:export-ydpi="96.206001" />
    <text
       xml:space="preserve"
       style="font-style:normal;font-weight:normal;font-size:10.5833px;line-height:1.25;font-family:sans-serif;fill:#000000;fill-opacity:1;stroke:none;stroke-width:0.264583"
       x="18.515682"
       y="123.30303"
       id="text5338-0"
       inkscape:export-filename="/home/dorfell/text5338.png"
       inkscape:export-xdpi="96.206001"
       inkscape:export-ydpi="96.206001"><tspan
         sodipodi:role="line"
         id="tspan5336-9"
         style="stroke-width:0.264583"
         x="18.515682"
         y="123.30303">7</tspan></text>
    <rect
       style="fill:none;stroke:#000000;stroke-width:1.32299;stroke-miterlimit:4;stroke-dasharray:none;stroke-dashoffset:0;stroke-opacity:1"
       id="rect6036-3"
       width="15.874964"
       height="15.874999"
       x="13.753155"
       y="111.66148"
       inkscape:export-filename="/home/dorfell/text5338.png"
       inkscape:export-xdpi="96.206001"
       inkscape:export-ydpi="96.206001" />
    <text
       xml:space="preserve"
       style="font-style:normal;font-weight:normal;font-size:10.5833px;line-height:1.25;font-family:sans-serif;fill:#000000;fill-opacity:1;stroke:none;stroke-width:0.264583"
       x="34.390675"
       y="123.30298"
       id="text5338-3-6"
       inkscape:export-filename="/home/dorfell/text5338.png"
       inkscape:export-xdpi="96.206001"
       inkscape:export-ydpi="96.206001"><tspan
         sodipodi:role="line"
         id="tspan5336-6-0"
         style="stroke-width:0.264583"
         x="34.390675"
         y="123.30298">8</tspan></text>
    <rect
       style="fill:none;stroke:#000000;stroke-width:1.32299;stroke-miterlimit:4;stroke-dasharray:none;stroke-dashoffset:0;stroke-opacity:1"
       id="rect6036-7-6"
       width="15.874964"
       height="15.874999"
       x="29.628136"
       y="111.66148"
       inkscape:export-filename="/home/dorfell/text5338.png"
       inkscape:export-xdpi="96.206001"
       inkscape:export-ydpi="96.206001" />
    <text
       xml:space="preserve"
       style="font-style:normal;font-weight:normal;font-size:10.5833px;line-height:1.25;font-family:sans-serif;fill:#000000;fill-opacity:1;stroke:none;stroke-width:0.264583"
       x="50.265648"
       y="123.30309"
       id="text5338-6-2"
       inkscape:export-filename="/home/dorfell/text5338.png"
       inkscape:export-xdpi="96.206001"
       inkscape:export-ydpi="96.206001"><tspan
         sodipodi:role="line"
         id="tspan5336-2-6"
         style="stroke-width:0.264583"
         x="50.265648"
         y="123.30309">9</tspan></text>
    <rect
       style="fill:none;stroke:#000000;stroke-width:1.32299;stroke-miterlimit:4;stroke-dasharray:none;stroke-dashoffset:0;stroke-opacity:1"
       id="rect6036-9-1"
       width="15.874964"
       height="15.874999"
       x="45.50309"
       y="111.66156"
       inkscape:export-filename="/home/dorfell/text5338.png"
       inkscape:export-xdpi="96.206001"
       inkscape:export-ydpi="96.206001" />
    <text
       xml:space="preserve"
       style="font-style:normal;font-weight:normal;font-size:10.5833px;line-height:1.25;font-family:sans-serif;fill:#000000;fill-opacity:1;stroke:none;stroke-width:0.264583"
       x="83.613411"
       y="91.53833"
       id="text5338-89"
       inkscape:export-filename="/home/dorfell/text5338.png"
       inkscape:export-xdpi="96.206001"
       inkscape:export-ydpi="96.206001"><tspan
         sodipodi:role="line"
         id="tspan5336-73"
         style="stroke-width:0.264583"
         x="83.613411"
         y="91.53833">0</tspan></text>
    <rect
       style="fill:none;stroke:#000000;stroke-width:1.32299;stroke-miterlimit:4;stroke-dasharray:none;stroke-dashoffset:0;stroke-opacity:1"
       id="rect6036-6"
       width="15.874964"
       height="15.874999"
       x="78.850746"
       y="79.896774"
       inkscape:export-filename="/home/dorfell/text5338.png"
       inkscape:export-xdpi="96.206001"
       inkscape:export-ydpi="96.206001" />
    <text
       xml:space="preserve"
       style="font-style:normal;font-weight:normal;font-size:10.5833px;line-height:1.25;font-family:sans-serif;fill:#000000;fill-opacity:1;stroke:none;stroke-width:0.264583"
       x="99.488449"
       y="91.538315"
       id="text5338-3-1"
       inkscape:export-filename="/home/dorfell/text5338.png"
       inkscape:export-xdpi="96.206001"
       inkscape:export-ydpi="96.206001"><tspan
         sodipodi:role="line"
         id="tspan5336-6-2"
         style="stroke-width:0.264583"
         x="99.488449"
         y="91.538315">0</tspan></text>
    <rect
       style="fill:none;stroke:#000000;stroke-width:1.32299;stroke-miterlimit:4;stroke-dasharray:none;stroke-dashoffset:0;stroke-opacity:1"
       id="rect6036-7-9"
       width="15.874964"
       height="15.874999"
       x="94.725761"
       y="79.896744"
       inkscape:export-filename="/home/dorfell/text5338.png"
       inkscape:export-xdpi="96.206001"
       inkscape:export-ydpi="96.206001" />
    <text
       xml:space="preserve"
       style="font-style:normal;font-weight:normal;font-size:10.5833px;line-height:1.25;font-family:sans-serif;fill:#000000;fill-opacity:1;stroke:none;stroke-width:0.264583"
       x="115.36367"
       y="91.538368"
       id="text5338-6-3"
       inkscape:export-filename="/home/dorfell/text5338.png"
       inkscape:export-xdpi="96.206001"
       inkscape:export-ydpi="96.206001"><tspan
         sodipodi:role="line"
         id="tspan5336-2-1"
         style="stroke-width:0.264583"
         x="115.36367"
         y="91.538368">0</tspan></text>
    <rect
       style="fill:none;stroke:#000000;stroke-width:1.32299;stroke-miterlimit:4;stroke-dasharray:none;stroke-dashoffset:0;stroke-opacity:1"
       id="rect6036-9-9"
       width="15.874964"
       height="15.874999"
       x="110.60093"
       y="79.896797"
       inkscape:export-filename="/home/dorfell/text5338.png"
       inkscape:export-xdpi="96.206001"
       inkscape:export-ydpi="96.206001" />
    <text
       xml:space="preserve"
       style="font-style:normal;font-weight:normal;font-size:10.5833px;line-height:1.25;font-family:sans-serif;fill:#000000;fill-opacity:1;stroke:none;stroke-width:0.264583"
       x="83.613411"
       y="107.41336"
       id="text5338-8-4"
       inkscape:export-filename="/home/dorfell/text5338.png"
       inkscape:export-xdpi="96.206001"
       inkscape:export-ydpi="96.206001"><tspan
         sodipodi:role="line"
         id="tspan5336-7-7"
         style="stroke-width:0.264583"
         x="83.613411"
         y="107.41336">0</tspan></text>
    <rect
       style="fill:none;stroke:#000000;stroke-width:1.32299;stroke-miterlimit:4;stroke-dasharray:none;stroke-dashoffset:0;stroke-opacity:1"
       id="rect6036-92-8"
       width="15.874964"
       height="15.874999"
       x="78.850746"
       y="95.771729"
       inkscape:export-filename="/home/dorfell/text5338.png"
       inkscape:export-xdpi="96.206001"
       inkscape:export-ydpi="96.206001" />
    <text
       xml:space="preserve"
       style="font-style:normal;font-weight:normal;font-size:10.5833px;line-height:1.25;font-family:sans-serif;fill:#000000;fill-opacity:1;stroke:none;stroke-width:0.264583"
       x="137.05933"
       y="107.41349"
       id="text5338-3-0-4"><tspan
         sodipodi:role="line"
         id="tspan5336-6-23-5"
         style="stroke-width:0.264583"
         x="137.05933"
         y="107.41349" /></text>
    <rect
       style="fill:none;stroke:#000000;stroke-width:1.32299;stroke-miterlimit:4;stroke-dasharray:none;stroke-dashoffset:0;stroke-opacity:1"
       id="rect6036-7-75-0"
       width="15.874964"
       height="15.874999"
       x="94.725761"
       y="95.771729"
       inkscape:export-filename="/home/dorfell/text5338.png"
       inkscape:export-xdpi="96.206001"
       inkscape:export-ydpi="96.206001" />
    <text
       xml:space="preserve"
       style="font-style:normal;font-weight:normal;font-size:10.5833px;line-height:1.25;font-family:sans-serif;fill:#000000;fill-opacity:1;stroke:none;stroke-width:0.264583"
       x="115.36367"
       y="107.41336"
       id="text5338-6-9-3"
       inkscape:export-filename="/home/dorfell/text5338.png"
       inkscape:export-xdpi="96.206001"
       inkscape:export-ydpi="96.206001"><tspan
         sodipodi:role="line"
         id="tspan5336-2-2-6"
         style="stroke-width:0.264583"
         x="115.36367"
         y="107.41336">1</tspan></text>
    <rect
       style="fill:none;stroke:#000000;stroke-width:1.32299;stroke-miterlimit:4;stroke-dasharray:none;stroke-dashoffset:0;stroke-opacity:1"
       id="rect6036-9-2-1"
       width="15.874964"
       height="15.874999"
       x="110.60093"
       y="95.771805"
       inkscape:export-filename="/home/dorfell/text5338.png"
       inkscape:export-xdpi="96.206001"
       inkscape:export-ydpi="96.206001" />
    <text
       xml:space="preserve"
       style="font-style:normal;font-weight:normal;font-size:10.5833px;line-height:1.25;font-family:sans-serif;fill:#000000;fill-opacity:1;stroke:none;stroke-width:0.264583"
       x="83.608284"
       y="123.29563"
       id="text5338-0-0"
       inkscape:export-filename="/home/dorfell/text5338.png"
       inkscape:export-xdpi="96.206001"
       inkscape:export-ydpi="96.206001"><tspan
         sodipodi:role="line"
         id="tspan5336-9-6"
         style="stroke-width:0.264583"
         x="83.608284"
         y="123.29563">1</tspan></text>
    <rect
       style="fill:none;stroke:#000000;stroke-width:1.32299;stroke-miterlimit:4;stroke-dasharray:none;stroke-dashoffset:0;stroke-opacity:1"
       id="rect6036-3-3"
       width="15.874964"
       height="15.874999"
       x="78.845596"
       y="111.65411"
       inkscape:export-filename="/home/dorfell/text5338.png"
       inkscape:export-xdpi="96.206001"
       inkscape:export-ydpi="96.206001" />
    <text
       xml:space="preserve"
       style="font-style:normal;font-weight:normal;font-size:10.5833px;line-height:1.25;font-family:sans-serif;fill:#000000;fill-opacity:1;stroke:none;stroke-width:0.264583"
       x="99.483299"
       y="123.29558"
       id="text5338-3-6-2"
       inkscape:export-filename="/home/dorfell/text5338.png"
       inkscape:export-xdpi="96.206001"
       inkscape:export-ydpi="96.206001"><tspan
         sodipodi:role="line"
         id="tspan5336-6-0-0"
         style="stroke-width:0.264583"
         x="99.483299"
         y="123.29558">1</tspan></text>
    <rect
       style="fill:none;stroke:#000000;stroke-width:1.32299;stroke-miterlimit:4;stroke-dasharray:none;stroke-dashoffset:0;stroke-opacity:1"
       id="rect6036-7-6-6"
       width="15.874964"
       height="15.874999"
       x="94.720634"
       y="111.65411"
       inkscape:export-filename="/home/dorfell/text5338.png"
       inkscape:export-xdpi="96.206001"
       inkscape:export-ydpi="96.206001" />
    <text
       xml:space="preserve"
       style="font-style:normal;font-weight:normal;font-size:10.5833px;line-height:1.25;font-family:sans-serif;fill:#000000;fill-opacity:1;stroke:none;stroke-width:0.264583"
       x="115.35852"
       y="123.29568"
       id="text5338-6-2-1"
       inkscape:export-filename="/home/dorfell/text5338.png"
       inkscape:export-xdpi="96.206001"
       inkscape:export-ydpi="96.206001"><tspan
         sodipodi:role="line"
         id="tspan5336-2-6-5"
         style="stroke-width:0.264583"
         x="115.35852"
         y="123.29568">1</tspan></text>
    <rect
       style="fill:none;stroke:#000000;stroke-width:1.32299;stroke-miterlimit:4;stroke-dasharray:none;stroke-dashoffset:0;stroke-opacity:1"
       id="rect6036-9-1-5"
       width="15.874964"
       height="15.874999"
       x="110.59579"
       y="111.65415"
       inkscape:export-filename="/home/dorfell/text5338.png"
       inkscape:export-xdpi="96.206001"
       inkscape:export-ydpi="96.206001" />
    <path
       style="display:inline;fill:none;fill-rule:evenodd;stroke:#0000ff;stroke-width:1.3;stroke-linecap:butt;stroke-linejoin:miter;stroke-miterlimit:4;stroke-dasharray:none;stroke-dashoffset:0;stroke-opacity:1;marker-end:url(#marker161521)"
       d="M 61.118742,103.98125 H 77.787491"
       id="path7173"
       inkscape:connector-type="polyline"
       inkscape:connector-curvature="0"
       inkscape:export-filename="/home/dorfell/text5338.png"
       inkscape:export-xdpi="96.206001"
       inkscape:export-ydpi="96.206001" />
    <path
       style="display:inline;fill:#000000;fill-rule:evenodd;stroke:#0000ff;stroke-width:1.3;stroke-linecap:butt;stroke-linejoin:miter;stroke-miterlimit:4;stroke-dasharray:none;stroke-dashoffset:0;stroke-opacity:1;marker-end:url(#marker161521-9)"
       d="m 190.76452,103.98123 h 16.66875"
       id="path7173-0"
       inkscape:connector-type="polyline"
       inkscape:connector-curvature="0"
       inkscape:export-filename="/home/dorfell/text5338.png"
       inkscape:export-xdpi="96.206001"
       inkscape:export-ydpi="96.206001" />
    <path
       style="display:inline;fill:#000000;fill-rule:evenodd;stroke:#0000ff;stroke-width:1.3;stroke-linecap:butt;stroke-linejoin:miter;stroke-miterlimit:4;stroke-dasharray:none;stroke-dashoffset:0;stroke-opacity:1;marker-end:url(#marker161521-9-4)"
       d="m 256.38117,103.98122 h 16.66875"
       id="path7173-0-7"
       inkscape:connector-type="polyline"
       inkscape:connector-curvature="0"
       inkscape:export-filename="/home/dorfell/text5338.png"
       inkscape:export-xdpi="96.206001"
       inkscape:export-ydpi="96.206001" />
    <text
       xml:space="preserve"
       style="font-style:normal;font-weight:normal;font-size:10.5833px;line-height:0;font-family:sans-serif;fill:#000000;fill-opacity:1;stroke:none;stroke-width:0.264583"
       x="147.90263"
       y="79.688087"
       id="text2525"><tspan
         sodipodi:role="line"
         id="tspan2523"
         style="line-height:1.25;stroke-width:0.264583"
         x="147.90263"
         y="79.688087" /><tspan
         style="font-size:5.64444px;line-height:0.35;stroke-width:0.264583"
         sodipodi:role="line"
         id="tspan17331"
         x="147.90263"
         y="86.30265"
         dx="4">0</tspan><tspan
         sodipodi:role="line"
         style="font-size:8.46667px;line-height:1.25;stroke-width:0.264583"
         x="147.90263"
         y="93.315216"
         id="tspan3737">2</tspan></text>
    <text
       xml:space="preserve"
       style="font-style:normal;font-weight:normal;font-size:10.5833px;line-height:0;font-family:sans-serif;fill:#000000;fill-opacity:1;stroke:none;stroke-width:0.264583"
       x="163.80658"
       y="79.74353"
       id="text2525-0"><tspan
         sodipodi:role="line"
         id="tspan2523-6"
         style="line-height:1.25;stroke-width:0.264583"
         x="163.80658"
         y="79.74353" /><tspan
         style="font-size:5.64444px;line-height:0.35;stroke-width:0.264583"
         sodipodi:role="line"
         id="tspan17331-3"
         x="163.80658"
         y="86.358093"
         dx="4">1</tspan><tspan
         sodipodi:role="line"
         style="font-size:8.46667px;line-height:1.25;stroke-width:0.264583"
         x="163.80658"
         y="93.370659"
         id="tspan3737-2">2</tspan></text>
    <rect
       style="fill:none;stroke:#000000;stroke-width:1.32299;stroke-miterlimit:4;stroke-dasharray:none;stroke-dashoffset:0;stroke-opacity:1"
       id="rect6036-6-7"
       width="15.874964"
       height="15.874999"
       x="143.9388"
       y="79.896767"
       inkscape:export-filename="/home/dorfell/text5338.png"
       inkscape:export-xdpi="96.206001"
       inkscape:export-ydpi="96.206001" />
    <rect
       style="fill:none;stroke:#000000;stroke-width:1.32299;stroke-miterlimit:4;stroke-dasharray:none;stroke-dashoffset:0;stroke-opacity:1"
       id="rect6036-7-9-5"
       width="15.874964"
       height="15.874999"
       x="159.81375"
       y="79.896736"
       inkscape:export-filename="/home/dorfell/text5338.png"
       inkscape:export-xdpi="96.206001"
       inkscape:export-ydpi="96.206001" />
    <rect
       style="fill:none;stroke:#000000;stroke-width:1.32299;stroke-miterlimit:4;stroke-dasharray:none;stroke-dashoffset:0;stroke-opacity:1"
       id="rect6036-9-9-9"
       width="15.874964"
       height="15.874999"
       x="175.68872"
       y="79.89679"
       inkscape:export-filename="/home/dorfell/text5338.png"
       inkscape:export-xdpi="96.206001"
       inkscape:export-ydpi="96.206001" />
    <rect
       style="fill:none;stroke:#000000;stroke-width:1.32299;stroke-miterlimit:4;stroke-dasharray:none;stroke-dashoffset:0;stroke-opacity:1"
       id="rect6036-92-8-7"
       width="15.874964"
       height="15.874999"
       x="143.9388"
       y="95.771759"
       inkscape:export-filename="/home/dorfell/text5338.png"
       inkscape:export-xdpi="96.206001"
       inkscape:export-ydpi="96.206001" />
    <rect
       style="fill:none;stroke:#000000;stroke-width:1.32299;stroke-miterlimit:4;stroke-dasharray:none;stroke-dashoffset:0;stroke-opacity:1"
       id="rect6036-7-75-0-0"
       width="15.874964"
       height="15.874999"
       x="159.81377"
       y="95.771759"
       inkscape:export-filename="/home/dorfell/text5338.png"
       inkscape:export-xdpi="96.206001"
       inkscape:export-ydpi="96.206001" />
    <rect
       style="fill:none;stroke:#000000;stroke-width:1.32299;stroke-miterlimit:4;stroke-dasharray:none;stroke-dashoffset:0;stroke-opacity:1"
       id="rect6036-9-2-1-6"
       width="15.874964"
       height="15.874999"
       x="175.68872"
       y="95.771835"
       inkscape:export-filename="/home/dorfell/text5338.png"
       inkscape:export-xdpi="96.206001"
       inkscape:export-ydpi="96.206001" />
    <rect
       style="fill:none;stroke:#000000;stroke-width:1.32299;stroke-miterlimit:4;stroke-dasharray:none;stroke-dashoffset:0;stroke-opacity:1"
       id="rect6036-3-3-2"
       width="15.874964"
       height="15.874999"
       x="143.93362"
       y="111.65411"
       inkscape:export-filename="/home/dorfell/text5338.png"
       inkscape:export-xdpi="96.206001"
       inkscape:export-ydpi="96.206001" />
    <rect
       style="fill:none;stroke:#000000;stroke-width:1.32299;stroke-miterlimit:4;stroke-dasharray:none;stroke-dashoffset:0;stroke-opacity:1"
       id="rect6036-7-6-6-8"
       width="15.874964"
       height="15.874999"
       x="159.80861"
       y="111.65411"
       inkscape:export-filename="/home/dorfell/text5338.png"
       inkscape:export-xdpi="96.206001"
       inkscape:export-ydpi="96.206001" />
    <rect
       style="fill:none;stroke:#000000;stroke-width:1.32299;stroke-miterlimit:4;stroke-dasharray:none;stroke-dashoffset:0;stroke-opacity:1"
       id="rect6036-9-1-5-2"
       width="15.874964"
       height="15.874999"
       x="175.68358"
       y="111.65422"
       inkscape:export-filename="/home/dorfell/text5338.png"
       inkscape:export-xdpi="96.206001"
       inkscape:export-ydpi="96.206001" />
    <text
       xml:space="preserve"
       style="font-style:normal;font-weight:normal;font-size:7.76111px;line-height:1.25;font-family:sans-serif;fill:#000000;fill-opacity:1;stroke:none;stroke-width:0.264583"
       x="214.31798"
       y="90.480003"
       id="text5338-89-0"
       inkscape:export-filename="/home/dorfell/text5338.png"
       inkscape:export-xdpi="96.206001"
       inkscape:export-ydpi="96.206001"><tspan
         sodipodi:role="line"
         id="tspan5336-73-2"
         style="font-size:7.76111px;stroke-width:0.264583"
         x="214.31798"
         y="90.480003">0</tspan></text>
    <rect
       style="fill:none;stroke:#000000;stroke-width:1.32299;stroke-miterlimit:4;stroke-dasharray:none;stroke-dashoffset:0;stroke-opacity:1"
       id="rect6036-6-3"
       width="15.874964"
       height="15.874999"
       x="209.02635"
       y="79.896759"
       inkscape:export-filename="/home/dorfell/text5338.png"
       inkscape:export-xdpi="96.206001"
       inkscape:export-ydpi="96.206001" />
    <text
       xml:space="preserve"
       style="font-style:normal;font-weight:normal;font-size:7.76111px;line-height:1.25;font-family:sans-serif;fill:#000000;fill-opacity:1;stroke:none;stroke-width:0.264583"
       x="230.19266"
       y="90.479958"
       id="text5338-3-1-7"
       inkscape:export-filename="/home/dorfell/text5338.png"
       inkscape:export-xdpi="96.206001"
       inkscape:export-ydpi="96.206001"><tspan
         sodipodi:role="line"
         id="tspan5336-6-2-5"
         style="font-size:7.76111px;stroke-width:0.264583"
         x="230.19266"
         y="90.479958">0</tspan></text>
    <rect
       style="fill:none;stroke:#000000;stroke-width:1.32299;stroke-miterlimit:4;stroke-dasharray:none;stroke-dashoffset:0;stroke-opacity:1"
       id="rect6036-7-9-9"
       width="15.874964"
       height="15.874999"
       x="224.90092"
       y="79.896729"
       inkscape:export-filename="/home/dorfell/text5338.png"
       inkscape:export-xdpi="96.206001"
       inkscape:export-ydpi="96.206001" />
    <text
       xml:space="preserve"
       style="font-style:normal;font-weight:normal;font-size:7.76111px;line-height:1.25;font-family:sans-serif;fill:#000000;fill-opacity:1;stroke:none;stroke-width:0.264583"
       x="246.06721"
       y="90.480034"
       id="text5338-6-3-2"
       inkscape:export-filename="/home/dorfell/text5338.png"
       inkscape:export-xdpi="96.206001"
       inkscape:export-ydpi="96.206001"><tspan
         sodipodi:role="line"
         id="tspan5336-2-1-28"
         style="font-size:7.76111px;stroke-width:0.264583"
         x="246.06721"
         y="90.480034">0</tspan></text>
    <rect
       style="fill:none;stroke:#000000;stroke-width:1.32299;stroke-miterlimit:4;stroke-dasharray:none;stroke-dashoffset:0;stroke-opacity:1"
       id="rect6036-9-9-97"
       width="15.874964"
       height="15.874999"
       x="240.77556"
       y="79.89679"
       inkscape:export-filename="/home/dorfell/text5338.png"
       inkscape:export-xdpi="96.206001"
       inkscape:export-ydpi="96.206001" />
    <text
       xml:space="preserve"
       style="font-style:normal;font-weight:normal;font-size:7.76111px;line-height:1.25;font-family:sans-serif;fill:#000000;fill-opacity:1;stroke:none;stroke-width:0.264583"
       x="214.31801"
       y="106.35509"
       id="text5338-8-4-3"
       inkscape:export-filename="/home/dorfell/text5338.png"
       inkscape:export-xdpi="96.206001"
       inkscape:export-ydpi="96.206001"><tspan
         sodipodi:role="line"
         id="tspan5336-7-7-6"
         style="font-size:7.76111px;stroke-width:0.264583"
         x="214.31801"
         y="106.35509">0</tspan></text>
    <rect
       style="fill:none;stroke:#000000;stroke-width:1.32299;stroke-miterlimit:4;stroke-dasharray:none;stroke-dashoffset:0;stroke-opacity:1"
       id="rect6036-92-8-1"
       width="15.874964"
       height="15.874999"
       x="209.02635"
       y="95.771759"
       inkscape:export-filename="/home/dorfell/text5338.png"
       inkscape:export-xdpi="96.206001"
       inkscape:export-ydpi="96.206001" />
    <rect
       style="fill:none;stroke:#000000;stroke-width:1.32299;stroke-miterlimit:4;stroke-dasharray:none;stroke-dashoffset:0;stroke-opacity:1"
       id="rect6036-7-75-0-2"
       width="15.874964"
       height="15.874999"
       x="224.90092"
       y="95.771759"
       inkscape:export-filename="/home/dorfell/text5338.png"
       inkscape:export-xdpi="96.206001"
       inkscape:export-ydpi="96.206001" />
    <text
       xml:space="preserve"
       style="font-style:normal;font-weight:normal;font-size:7.76111px;line-height:1.25;font-family:sans-serif;fill:#000000;fill-opacity:1;stroke:none;stroke-width:0.264583"
       x="243.42142"
       y="106.35508"
       id="text5338-6-9-3-93"
       inkscape:export-filename="/home/dorfell/text5338.png"
       inkscape:export-xdpi="96.206001"
       inkscape:export-ydpi="96.206001"><tspan
         sodipodi:role="line"
         id="tspan5336-2-2-6-1"
         style="font-size:7.76111px;stroke-width:0.264583"
         x="243.42142"
         y="106.35508">16</tspan></text>
    <rect
       style="fill:none;stroke:#000000;stroke-width:1.32299;stroke-miterlimit:4;stroke-dasharray:none;stroke-dashoffset:0;stroke-opacity:1"
       id="rect6036-9-2-1-9"
       width="15.874964"
       height="15.874999"
       x="240.77556"
       y="95.771805"
       inkscape:export-filename="/home/dorfell/text5338.png"
       inkscape:export-xdpi="96.206001"
       inkscape:export-ydpi="96.206001" />
    <text
       xml:space="preserve"
       style="font-style:normal;font-weight:normal;font-size:7.76111px;line-height:1.25;font-family:sans-serif;fill:#000000;fill-opacity:1;stroke:none;stroke-width:0.264583"
       x="212.27654"
       y="122.32901"
       id="text5338-0-0-4"
       inkscape:export-filename="/home/dorfell/text5338.png"
       inkscape:export-xdpi="96.206001"
       inkscape:export-ydpi="96.206001"><tspan
         sodipodi:role="line"
         id="tspan5336-9-6-7"
         style="font-size:7.76111px;stroke-width:0.264583"
         x="212.27654"
         y="122.32901">32</tspan></text>
    <rect
       style="fill:none;stroke:#000000;stroke-width:1.32299;stroke-miterlimit:4;stroke-dasharray:none;stroke-dashoffset:0;stroke-opacity:1"
       id="rect6036-3-3-8"
       width="15.874964"
       height="15.874999"
       x="209.02119"
       y="111.65419"
       inkscape:export-filename="/home/dorfell/text5338.png"
       inkscape:export-xdpi="96.206001"
       inkscape:export-ydpi="96.206001" />
    <text
       xml:space="preserve"
       style="font-style:normal;font-weight:normal;font-size:7.76111px;line-height:1.25;font-family:sans-serif;fill:#000000;fill-opacity:1;stroke:none;stroke-width:0.264583"
       x="228.09705"
       y="122.34599"
       id="text5338-3-6-2-4"
       inkscape:export-filename="/home/dorfell/text5338.png"
       inkscape:export-xdpi="96.206001"
       inkscape:export-ydpi="96.206001"><tspan
         sodipodi:role="line"
         id="tspan5336-6-0-0-5"
         style="font-size:7.76111px;stroke-width:0.264583"
         x="228.09705"
         y="122.34599">64</tspan></text>
    <rect
       style="fill:none;stroke:#000000;stroke-width:1.32299;stroke-miterlimit:4;stroke-dasharray:none;stroke-dashoffset:0;stroke-opacity:1"
       id="rect6036-7-6-6-0"
       width="15.874964"
       height="15.874999"
       x="224.89577"
       y="111.65419"
       inkscape:export-filename="/home/dorfell/text5338.png"
       inkscape:export-xdpi="96.206001"
       inkscape:export-ydpi="96.206001" />
    <text
       xml:space="preserve"
       style="font-style:normal;font-weight:normal;font-size:7.76111px;line-height:1.25;font-family:sans-serif;fill:#000000;fill-opacity:1;stroke:none;stroke-width:0.264583"
       x="240.93806"
       y="122.49767"
       id="text5338-6-2-1-3"
       inkscape:export-filename="/home/dorfell/text5338.png"
       inkscape:export-xdpi="96.206001"
       inkscape:export-ydpi="96.206001"><tspan
         sodipodi:role="line"
         id="tspan5336-2-6-5-6"
         style="font-size:7.76111px;stroke-width:0.264583"
         x="240.93806"
         y="122.49767">128</tspan></text>
    <rect
       style="fill:none;stroke:#000000;stroke-width:1.32299;stroke-miterlimit:4;stroke-dasharray:none;stroke-dashoffset:0;stroke-opacity:1"
       id="rect6036-9-1-5-1"
       width="15.874964"
       height="15.874999"
       x="240.7704"
       y="111.65421"
       inkscape:export-filename="/home/dorfell/text5338.png"
       inkscape:export-xdpi="96.206001"
       inkscape:export-ydpi="96.206001" />
    <text
       xml:space="preserve"
       style="font-style:normal;font-weight:normal;font-size:10.5833px;line-height:0;font-family:sans-serif;fill:#000000;fill-opacity:1;stroke:none;stroke-width:0.264583"
       x="179.56667"
       y="79.685295"
       id="text2525-0-0"><tspan
         sodipodi:role="line"
         id="tspan2523-6-6"
         style="line-height:1.25;stroke-width:0.264583"
         x="179.56667"
         y="79.685295" /><tspan
         style="font-size:5.64444px;line-height:0.35;stroke-width:0.264583"
         sodipodi:role="line"
         id="tspan17331-3-1"
         x="179.56667"
         y="86.299858"
         dx="4">2</tspan><tspan
         sodipodi:role="line"
         style="font-size:8.46667px;line-height:1.25;stroke-width:0.264583"
         x="179.56667"
         y="93.312424"
         id="tspan3737-2-5">2</tspan></text>
    <text
       xml:space="preserve"
       style="font-style:normal;font-weight:normal;font-size:10.5833px;line-height:0;font-family:sans-serif;fill:#000000;fill-opacity:1;stroke:none;stroke-width:0.264583"
       x="147.82077"
       y="95.47599"
       id="text2525-5"><tspan
         sodipodi:role="line"
         id="tspan2523-4"
         style="line-height:1.25;stroke-width:0.264583"
         x="147.82077"
         y="95.47599" /><tspan
         style="font-size:5.64444px;line-height:0.35;stroke-width:0.264583"
         sodipodi:role="line"
         id="tspan17331-7"
         x="147.82077"
         y="102.09055"
         dx="4">3</tspan><tspan
         sodipodi:role="line"
         style="font-size:8.46667px;line-height:1.25;stroke-width:0.264583"
         x="147.82077"
         y="109.10312"
         id="tspan3737-6">2</tspan></text>
    <text
       xml:space="preserve"
       style="font-style:normal;font-weight:normal;font-size:10.5833px;line-height:0;font-family:sans-serif;fill:#000000;fill-opacity:1;stroke:none;stroke-width:0.264583"
       x="179.53241"
       y="95.473198"
       id="text2525-0-0-4"><tspan
         sodipodi:role="line"
         id="tspan2523-6-6-5"
         style="line-height:1.25;stroke-width:0.264583"
         x="179.53241"
         y="95.473198" /><tspan
         style="font-size:5.64444px;line-height:0.35;stroke-width:0.264583"
         sodipodi:role="line"
         id="tspan17331-3-1-2"
         x="179.53241"
         y="102.08776"
         dx="4">4</tspan><tspan
         sodipodi:role="line"
         style="font-size:8.46667px;line-height:1.25;stroke-width:0.264583"
         x="179.53241"
         y="109.10033"
         id="tspan3737-2-5-5">2</tspan></text>
    <text
       xml:space="preserve"
       style="font-style:normal;font-weight:normal;font-size:10.5833px;line-height:0;font-family:sans-serif;fill:#000000;fill-opacity:1;stroke:none;stroke-width:0.264583"
       x="147.83694"
       y="111.48537"
       id="text2525-5-4"><tspan
         sodipodi:role="line"
         id="tspan2523-4-7"
         style="line-height:1.25;stroke-width:0.264583"
         x="147.83694"
         y="111.48537" /><tspan
         style="font-size:5.64444px;line-height:0.35;stroke-width:0.264583"
         sodipodi:role="line"
         id="tspan17331-7-4"
         x="147.83694"
         y="118.09993"
         dx="4">5</tspan><tspan
         sodipodi:role="line"
         style="font-size:8.46667px;line-height:1.25;stroke-width:0.264583"
         x="147.83694"
         y="125.1125"
         id="tspan3737-6-4">2</tspan></text>
    <text
       xml:space="preserve"
       style="font-style:normal;font-weight:normal;font-size:10.5833px;line-height:0;font-family:sans-serif;fill:#000000;fill-opacity:1;stroke:none;stroke-width:0.264583"
       x="163.7885"
       y="111.54081"
       id="text2525-0-5-3"><tspan
         sodipodi:role="line"
         id="tspan2523-6-69-0"
         style="line-height:1.25;stroke-width:0.264583"
         x="163.7885"
         y="111.54081" /><tspan
         style="font-size:5.64444px;line-height:0.35;stroke-width:0.264583"
         sodipodi:role="line"
         id="tspan17331-3-3-7"
         x="163.7885"
         y="118.15537"
         dx="4">6</tspan><tspan
         sodipodi:role="line"
         style="font-size:8.46667px;line-height:1.25;stroke-width:0.264583"
         x="163.7885"
         y="125.16794"
         id="tspan3737-2-7-8">2</tspan></text>
    <text
       xml:space="preserve"
       style="font-style:normal;font-weight:normal;font-size:10.5833px;line-height:0;font-family:sans-serif;fill:#000000;fill-opacity:1;stroke:none;stroke-width:0.264583"
       x="179.54858"
       y="111.48257"
       id="text2525-0-0-4-6"><tspan
         sodipodi:role="line"
         id="tspan2523-6-6-5-8"
         style="line-height:1.25;stroke-width:0.264583"
         x="179.54858"
         y="111.48257" /><tspan
         style="font-size:5.64444px;line-height:0.35;stroke-width:0.264583"
         sodipodi:role="line"
         id="tspan17331-3-1-2-8"
         x="179.54858"
         y="118.09713"
         dx="4">7</tspan><tspan
         sodipodi:role="line"
         style="font-size:8.46667px;line-height:1.25;stroke-width:0.264583"
         x="179.54858"
         y="125.1097"
         id="tspan3737-2-5-5-4">2</tspan></text>
    <text
       xml:space="preserve"
       style="font-style:normal;font-weight:normal;font-size:10.5833px;line-height:1.25;font-family:'DejaVu Math TeX Gyre';fill:#000000;fill-opacity:1;stroke:none;stroke-width:0.264583;-inkscape-font-specification:'DejaVu Math TeX Gyre';font-stretch:normal;font-variant:normal"
       x="13.229156"
       y="123.29589"
       id="text167465"><tspan
         sodipodi:role="line"
         id="tspan167463"
         style="stroke-width:0.264583;-inkscape-font-specification:'DejaVu Math TeX Gyre';font-family:'DejaVu Math TeX Gyre';font-weight:normal;font-style:normal;font-stretch:normal;font-variant:normal"
         x="13.229156"
         y="123.29589" /><tspan
         sodipodi:role="line"
         style="font-size:7.76111px;stroke-width:0.264583;-inkscape-font-specification:'DejaVu Math TeX Gyre';font-family:'DejaVu Math TeX Gyre';font-weight:normal;font-style:normal;font-stretch:normal;font-variant:normal"
         id="tspan167467"
         x="13.229156"
         y="136.52501">Input pixels</tspan></text>
    <text
       xml:space="preserve"
       style="font-style:normal;font-variant:normal;font-weight:normal;font-stretch:normal;font-size:10.5833px;line-height:1.25;font-family:'TeX Gyre DejaVu Math';-inkscape-font-specification:'TeX Gyre DejaVu Math';fill:#000000;fill-opacity:1;stroke:none;stroke-width:0.264583"
       x="78.316658"
       y="123.29589"
       id="text167465-6"
       inkscape:export-filename="/home/dorfell/Downloads/fer_sys_dev/docs/00_book/img/fer/lbp_encoding.png"
       inkscape:export-xdpi="96.206001"
       inkscape:export-ydpi="96.206001"><tspan
         sodipodi:role="line"
         id="tspan167463-8"
         style="font-style:normal;font-variant:normal;font-weight:normal;font-stretch:normal;font-family:'TeX Gyre DejaVu Math';-inkscape-font-specification:'TeX Gyre DejaVu Math';stroke-width:0.264583"
         x="78.316658"
         y="123.29589" /><tspan
         sodipodi:role="line"
         style="font-style:normal;font-variant:normal;font-weight:normal;font-stretch:normal;font-size:7.76111px;font-family:'TeX Gyre DejaVu Math';-inkscape-font-specification:'TeX Gyre DejaVu Math';stroke-width:0.264583"
         id="tspan167467-9"
         x="78.316658"
         y="136.52501">s(z) = s(i<tspan
   style="font-style:normal;font-variant:normal;font-weight:normal;font-stretch:normal;font-size:65%;font-family:'TeX Gyre DejaVu Math';-inkscape-font-specification:'TeX Gyre DejaVu Math';baseline-shift:sub"
   id="tspan200925">p</tspan>-i<tspan
   style="font-style:normal;font-variant:normal;font-weight:normal;font-stretch:normal;font-size:65%;font-family:'TeX Gyre DejaVu Math';-inkscape-font-specification:'TeX Gyre DejaVu Math';baseline-shift:sub"
   id="tspan204785">c</tspan>)</tspan></text>
    <text
       xml:space="preserve"
       style="font-style:normal;font-weight:normal;font-size:10.5833px;line-height:1.25;font-family:'DejaVu Math TeX Gyre';fill:#000000;fill-opacity:1;stroke:none;stroke-width:0.264583;-inkscape-font-specification:'DejaVu Math TeX Gyre';font-stretch:normal;font-variant:normal"
       x="203.72946"
       y="123.29587"
       id="text167465-2"><tspan
         sodipodi:role="line"
         id="tspan167463-6"
         style="stroke-width:0.264583;-inkscape-font-specification:'DejaVu Math TeX Gyre';font-family:'DejaVu Math TeX Gyre';font-weight:normal;font-style:normal;font-stretch:normal;font-variant:normal"
         x="203.72946"
         y="123.29587" /><tspan
         sodipodi:role="line"
         style="font-size:7.76111px;stroke-width:0.264583;-inkscape-font-specification:'DejaVu Math TeX Gyre';font-family:'DejaVu Math TeX Gyre';font-weight:normal;font-style:normal;font-stretch:normal;font-variant:normal"
         id="tspan167467-6"
         x="203.72946"
         y="136.52499">Decimal values </tspan></text>
    <text
       xml:space="preserve"
       style="font-style:normal;font-weight:normal;font-size:10.5833px;line-height:0;font-family:'TeX Gyre DejaVu Math';fill:#000000;fill-opacity:1;stroke:none;stroke-width:0.264583;-inkscape-font-specification:'TeX Gyre DejaVu Math';font-stretch:normal;font-variant:normal"
       x="163.67358"
       y="126.8284"
       id="text2525-0-0-4-6-4"
       inkscape:export-filename="/home/dorfell/Downloads/fer_sys_dev/docs/00_book/img/fer/lbp_encoding.png"
       inkscape:export-xdpi="96.206001"
       inkscape:export-ydpi="96.206001"><tspan
         sodipodi:role="line"
         id="tspan2523-6-6-5-8-9"
         style="line-height:1.25;stroke-width:0.264583;-inkscape-font-specification:'TeX Gyre DejaVu Math';font-family:'TeX Gyre DejaVu Math';font-weight:normal;font-style:normal;font-stretch:normal;font-variant:normal"
         x="163.67358"
         y="126.8284" /><tspan
         style="font-style:normal;font-variant:normal;font-weight:normal;font-stretch:normal;font-size:7.76111px;line-height:0.35;font-family:'TeX Gyre DejaVu Math';-inkscape-font-specification:'TeX Gyre DejaVu Math';stroke-width:0.264583"
         sodipodi:role="line"
         id="tspan17331-3-1-2-8-5"
         x="163.67358"
         y="134.06805"
         dx="4">n</tspan><tspan
         sodipodi:role="line"
         style="font-style:normal;font-variant:normal;font-weight:normal;font-stretch:normal;font-size:7.76111px;line-height:1.25;font-family:'TeX Gyre DejaVu Math';-inkscape-font-specification:'TeX Gyre DejaVu Math';stroke-width:0.264583"
         x="163.67358"
         y="140.27693"
         id="tspan3737-2-5-5-4-0">2</tspan></text>
    <text
       xml:space="preserve"
       style="font-style:normal;font-weight:normal;font-size:7.76111px;line-height:1.25;font-family:sans-serif;fill:#000000;fill-opacity:1;stroke:none;stroke-width:0.264583"
       x="275.69559"
       y="106.89165"
       id="text236586"><tspan
         sodipodi:role="line"
         id="tspan236584"
         style="font-size:7.76111px;stroke-width:0.264583"
         x="275.69559"
         y="106.89165">240</tspan></text>
    <text
       xml:space="preserve"
       style="font-style:normal;font-weight:normal;font-size:14.1111px;line-height:1.25;font-family:sans-serif;fill:#000000;fill-opacity:1;stroke:none;stroke-width:0.264583"
       x="131.57364"
       y="111.04752"
       id="text3967"><tspan
         sodipodi:role="line"
         id="tspan3965"
         style="font-style:normal;font-variant:normal;font-weight:bold;font-stretch:normal;font-size:14.1111px;font-family:sans-serif;-inkscape-font-specification:'sans-serif Bold';stroke-width:0.264583"
         x="131.57364"
         y="111.04752">*</tspan></text>
    <text
       xml:space="preserve"
       style="font-style:normal;font-weight:normal;font-size:11.2889px;line-height:1.25;font-family:sans-serif;fill:#000000;fill-opacity:1;stroke:none;stroke-width:0.264583"
       x="263.02496"
       y="99.558846"
       id="text30827"><tspan
         sodipodi:role="line"
         id="tspan30825"
         style="font-size:11.2889px;stroke-width:0.264583"
         x="263.02496"
         y="99.558846">Σ</tspan></text>
  </g>
</svg>
