<?xml version="1.0" encoding="UTF-8" standalone="no"?>
<!-- Created with Inkscape (http://www.inkscape.org/) -->

<svg
   width="1189mm"
   height="841mm"
   viewBox="0 0 1189 841"
   version="1.1"
   id="svg5"
   inkscape:version="1.1.1 (1:1.1+202109281949+c3084ef5ed)"
   sodipodi:docname="M2.svg"
   inkscape:export-filename="/home/dorfell/Downloads/fer_sys_dev/docs/00_book/img/fer/M2.png"
   inkscape:export-xdpi="96.206001"
   inkscape:export-ydpi="96.206001"
   xmlns:inkscape="http://www.inkscape.org/namespaces/inkscape"
   xmlns:sodipodi="http://sodipodi.sourceforge.net/DTD/sodipodi-0.dtd"
   xmlns="http://www.w3.org/2000/svg"
   xmlns:svg="http://www.w3.org/2000/svg">
  <sodipodi:namedview
     id="namedview7"
     pagecolor="#ffffff"
     bordercolor="#666666"
     borderopacity="1.0"
     inkscape:pageshadow="2"
     inkscape:pageopacity="0.0"
     inkscape:pagecheckerboard="0"
     inkscape:document-units="mm"
     showgrid="true"
     inkscape:zoom="0.91046045"
     inkscape:cx="165.85015"
     inkscape:cy="461.30505"
     inkscape:window-width="1137"
     inkscape:window-height="503"
     inkscape:window-x="143"
     inkscape:window-y="59"
     inkscape:window-maximized="0"
     inkscape:current-layer="layer1">
    <inkscape:grid
       type="xygrid"
       id="grid824" />
  </sodipodi:namedview>
  <defs
     id="defs2">
    <rect
       x="40"
       y="180"
       width="1105.2158"
       height="1875.6505"
       id="rect25187" />
  </defs>
  <g
     inkscape:label="Layer 1"
     inkscape:groupmode="layer"
     id="layer1">
    <rect
       style="fill:#00ccff;stroke:#000000;stroke-width:1.44735"
       id="rect848"
       width="15.874749"
       height="95.249977"
       x="30.162493"
       y="79.375" />
    <text
       xml:space="preserve"
       style="font-style:normal;font-weight:normal;font-size:10.5833px;line-height:1.25;font-family:sans-serif;fill:#000000;fill-opacity:1;stroke:none;stroke-width:0.264583"
       x="-169.39345"
       y="43.296127"
       id="text5890"
       transform="rotate(-89.98302)"><tspan
         sodipodi:role="line"
         id="tspan5888"
         style="stroke-width:0.264583"
         x="-169.39345"
         y="43.296127">Conv1: 3x3x64</tspan></text>
    <rect
       style="fill:#ffcc00;stroke:#000000;stroke-width:1.44735"
       id="rect848-3-7"
       width="15.874999"
       height="95.249863"
       x="46.037491"
       y="79.375" />
    <text
       xml:space="preserve"
       style="font-style:normal;font-weight:normal;font-size:10.5833px;line-height:1.25;font-family:sans-serif;fill:#000000;fill-opacity:1;stroke:none;stroke-width:0.264583"
       x="-169.38892"
       y="59.170998"
       id="text5890-6-5"
       transform="rotate(-89.98302)"><tspan
         sodipodi:role="line"
         id="tspan5888-7-9"
         style="stroke-width:0.264583"
         x="-169.38892"
         y="59.170998">MaxPooling: 2x2</tspan></text>
    <rect
       style="fill:#00ccff;stroke:#000000;stroke-width:1.44735"
       id="rect848-0-3"
       width="15.874999"
       height="95.249779"
       x="66.674995"
       y="79.375" />
    <text
       xml:space="preserve"
       style="font-style:normal;font-weight:normal;font-size:10.5833px;line-height:1.25;font-family:sans-serif;fill:#000000;fill-opacity:1;stroke:none;stroke-width:0.264583"
       x="-169.38303"
       y="79.808372"
       id="text5890-2-5"
       transform="rotate(-89.98302)"><tspan
         sodipodi:role="line"
         id="tspan5888-3-6"
         style="stroke-width:0.264583"
         x="-169.38303"
         y="79.808372">Conv2: 3x3x128</tspan></text>
    <rect
       style="fill:#ffcc00;stroke:#000000;stroke-width:1.44735"
       id="rect848-3-7-2"
       width="15.874999"
       height="95.249779"
       x="82.550003"
       y="79.375" />
    <text
       xml:space="preserve"
       style="font-style:normal;font-weight:normal;font-size:10.5833px;line-height:1.25;font-family:sans-serif;fill:#000000;fill-opacity:1;stroke:none;stroke-width:0.264583"
       x="-169.37831"
       y="95.68335"
       id="text5890-6-5-9"
       transform="rotate(-89.98302)"><tspan
         sodipodi:role="line"
         id="tspan5888-7-9-1"
         style="stroke-width:0.264583"
         x="-169.37831"
         y="95.68335">AveragePooling</tspan></text>
    <text
       xml:space="preserve"
       transform="scale(0.26458333)"
       id="text25185"
       style="font-style:normal;font-weight:normal;font-size:40px;line-height:1.25;font-family:sans-serif;white-space:pre;shape-inside:url(#rect25187);fill:#000000;fill-opacity:1;stroke:none" />
    <rect
       style="fill:#ff0000;stroke:#000000;stroke-width:1.44735"
       id="rect848-7"
       width="15.874999"
       height="95.249977"
       x="6.3500013"
       y="79.375" />
    <text
       xml:space="preserve"
       style="font-style:normal;font-weight:normal;font-size:10.5833px;line-height:1.25;font-family:sans-serif;fill:#000000;fill-opacity:1;stroke:none;stroke-width:0.264583"
       x="-169.40042"
       y="19.483624"
       id="text5890-9"
       transform="rotate(-89.98302)"><tspan
         sodipodi:role="line"
         id="tspan5888-2"
         style="stroke-width:0.264583"
         x="-169.40042"
         y="19.483624">Input: 128x128</tspan></text>
    <rect
       style="fill:#b7c4c8;stroke:#000000;stroke-width:1.44735"
       id="rect848-3-73-6-6-0"
       width="15.875"
       height="95.249474"
       x="143.40517"
       y="79.375" />
    <text
       xml:space="preserve"
       style="font-style:normal;font-weight:normal;font-size:10.5833px;line-height:1.25;font-family:sans-serif;fill:#000000;fill-opacity:1;stroke:none;stroke-width:0.264583"
       x="-169.36258"
       y="156.5397"
       id="text5890-6-6-1-3-6"
       transform="rotate(-89.98302)"><tspan
         sodipodi:role="line"
         id="tspan5888-7-1-0-2-1"
         style="stroke-width:0.264583"
         x="-169.36258"
         y="156.5397">Flatten</tspan></text>
    <rect
       style="fill:#00ccff;stroke:#000000;stroke-width:1.44735"
       id="rect848-0-7-6"
       width="15.874999"
       height="95.249428"
       x="103.18774"
       y="79.375" />
    <text
       xml:space="preserve"
       style="font-style:normal;font-weight:normal;font-size:10.5833px;line-height:1.25;font-family:sans-serif;fill:#000000;fill-opacity:1;stroke:none;stroke-width:0.264583"
       x="-169.37181"
       y="116.32145"
       id="text5890-2-8-2"
       transform="rotate(-89.98302)"><tspan
         sodipodi:role="line"
         id="tspan5888-3-4-6"
         style="stroke-width:0.264583"
         x="-169.37181"
         y="116.32145">Conv3: 3x3x256</tspan></text>
    <rect
       style="fill:#ffcc00;stroke:#000000;stroke-width:1.44735"
       id="rect848-3-7-5-1"
       width="15.874999"
       height="95.249428"
       x="119.063"
       y="79.375" />
    <text
       xml:space="preserve"
       style="font-style:normal;font-weight:normal;font-size:10.5833px;line-height:1.25;font-family:sans-serif;fill:#000000;fill-opacity:1;stroke:none;stroke-width:0.264583"
       x="-169.36708"
       y="132.19659"
       id="text5890-6-5-0-8"
       transform="rotate(-89.98302)"><tspan
         sodipodi:role="line"
         id="tspan5888-7-9-3-7"
         style="stroke-width:0.264583"
         x="-169.36708"
         y="132.19659">AveragePooling</tspan></text>
    <rect
       style="fill:#ccff00;stroke:#000000;stroke-width:1.44735"
       id="rect848-3-73-6-6"
       width="15.874999"
       height="95.249359"
       x="166.1595"
       y="79.375" />
    <text
       xml:space="preserve"
       style="font-style:normal;font-weight:normal;font-size:10.5833px;line-height:1.25;font-family:sans-serif;fill:#000000;fill-opacity:1;stroke:none;stroke-width:0.264583"
       x="-169.35393"
       y="179.29361"
       id="text5890-6-6-1-3"
       transform="rotate(-89.98302)"><tspan
         sodipodi:role="line"
         id="tspan5888-7-1-0-2"
         style="stroke-width:0.264583"
         x="-169.35393"
         y="179.29361">Dense: 1024</tspan></text>
    <rect
       style="fill:#00ff00;stroke:#000000;stroke-width:1.44735"
       id="rect848-3-73-6-6-3"
       width="15.874999"
       height="95.249313"
       x="182.56387"
       y="79.375" />
    <text
       xml:space="preserve"
       style="font-style:normal;font-weight:normal;font-size:10.5833px;line-height:1.25;font-family:sans-serif;fill:#000000;fill-opacity:1;stroke:none;stroke-width:0.264583"
       x="-169.34955"
       y="195.69821"
       id="text5890-6-6-1-3-67"
       transform="rotate(-89.98302)"><tspan
         sodipodi:role="line"
         id="tspan5888-7-1-0-2-5"
         style="stroke-width:0.264583"
         x="-169.34955"
         y="195.69821">Dropout: 0.2</tspan></text>
    <rect
       style="fill:#ccff00;stroke:#000000;stroke-width:1.44735"
       id="rect848-3-73-6-6-09"
       width="15.874999"
       height="95.249313"
       x="203.73039"
       y="79.375" />
    <text
       xml:space="preserve"
       style="font-style:normal;font-weight:normal;font-size:10.5833px;line-height:1.25;font-family:sans-serif;fill:#000000;fill-opacity:1;stroke:none;stroke-width:0.264583"
       x="-169.34355"
       y="216.86493"
       id="text5890-6-6-1-3-3"
       transform="rotate(-89.98302)"><tspan
         sodipodi:role="line"
         id="tspan5888-7-1-0-2-6"
         style="stroke-width:0.264583"
         x="-169.34355"
         y="216.86493">Dense: 512</tspan></text>
    <rect
       style="fill:#00ff00;stroke:#000000;stroke-width:1.44735"
       id="rect848-3-73-6-6-3-0"
       width="15.874999"
       height="95.249252"
       x="220.13477"
       y="79.375" />
    <text
       xml:space="preserve"
       style="font-style:normal;font-weight:normal;font-size:10.5833px;line-height:1.25;font-family:sans-serif;fill:#000000;fill-opacity:1;stroke:none;stroke-width:0.264583"
       x="-169.33917"
       y="233.26953"
       id="text5890-6-6-1-3-67-6"
       transform="rotate(-89.98302)"><tspan
         sodipodi:role="line"
         id="tspan5888-7-1-0-2-5-2"
         style="stroke-width:0.264583"
         x="-169.33917"
         y="233.26953">Dropout: 0.2</tspan></text>
    <rect
       style="fill:#ccff00;stroke:#000000;stroke-width:1.44735"
       id="rect848-3-73-6-6-09-6"
       width="15.874999"
       height="95.249275"
       x="241.30118"
       y="79.375" />
    <text
       xml:space="preserve"
       style="font-style:normal;font-weight:normal;font-size:10.5833px;line-height:1.25;font-family:sans-serif;fill:#000000;fill-opacity:1;stroke:none;stroke-width:0.264583"
       x="-169.3329"
       y="254.43617"
       id="text5890-6-6-1-3-3-1"
       transform="rotate(-89.98302)"><tspan
         sodipodi:role="line"
         id="tspan5888-7-1-0-2-6-8"
         style="stroke-width:0.264583"
         x="-169.3329"
         y="254.43617">Dense: 7</tspan></text>
  </g>
</svg>
