<?xml version="1.0" encoding="UTF-8" standalone="no"?>
<!-- Created with Inkscape (http://www.inkscape.org/) -->

<svg
   width="1189mm"
   height="841mm"
   viewBox="0 0 1189 841"
   version="1.1"
   id="svg5"
   inkscape:version="1.1.1 (1:1.1+202109281949+c3084ef5ed)"
   sodipodi:docname="fer_wmdnn_vgg16.svg"
   inkscape:export-filename="/home/dorfell/Downloads/fer_sys_dev/docs/00_book/img/fer/fer_wmdnn_vgg16.png"
   inkscape:export-xdpi="96.206001"
   inkscape:export-ydpi="96.206001"
   xmlns:inkscape="http://www.inkscape.org/namespaces/inkscape"
   xmlns:sodipodi="http://sodipodi.sourceforge.net/DTD/sodipodi-0.dtd"
   xmlns="http://www.w3.org/2000/svg"
   xmlns:svg="http://www.w3.org/2000/svg">
  <sodipodi:namedview
     id="namedview7"
     pagecolor="#ffffff"
     bordercolor="#666666"
     borderopacity="1.0"
     inkscape:pageshadow="2"
     inkscape:pageopacity="0.0"
     inkscape:pagecheckerboard="0"
     inkscape:document-units="mm"
     showgrid="true"
     inkscape:zoom="0.64379276"
     inkscape:cx="170.08579"
     inkscape:cy="400.75008"
     inkscape:window-width="1280"
     inkscape:window-height="683"
     inkscape:window-x="0"
     inkscape:window-y="0"
     inkscape:window-maximized="1"
     inkscape:current-layer="layer1">
    <inkscape:grid
       type="xygrid"
       id="grid824" />
  </sodipodi:namedview>
  <defs
     id="defs2">
    <rect
       x="40"
       y="180"
       width="1105.2158"
       height="1875.6505"
       id="rect25187" />
  </defs>
  <g
     inkscape:label="Layer 1"
     inkscape:groupmode="layer"
     id="layer1">
    <rect
       style="fill:#00ccff;stroke:#000000;stroke-width:1.67125"
       id="rect848"
       width="15.874749"
       height="126.99998"
       x="30.162493"
       y="47.624996" />
    <text
       xml:space="preserve"
       style="font-style:normal;font-weight:normal;font-size:10.5833px;line-height:1.25;font-family:sans-serif;fill:#000000;fill-opacity:1;stroke:none;stroke-width:0.264583"
       x="-169.39345"
       y="43.296127"
       id="text5890"
       transform="rotate(-89.98302)"><tspan
         sodipodi:role="line"
         id="tspan5888"
         style="stroke-width:0.264583"
         x="-169.39345"
         y="43.296127">Conv1-1</tspan></text>
    <rect
       style="fill:#00ccff;stroke:#000000;stroke-width:1.67126"
       id="rect848-0"
       width="15.874999"
       height="126.99998"
       x="46.037498"
       y="47.624893" />
    <text
       xml:space="preserve"
       style="font-style:normal;font-weight:normal;font-size:10.5833px;line-height:1.25;font-family:sans-serif;fill:#000000;fill-opacity:1;stroke:none;stroke-width:0.264583"
       x="-169.38892"
       y="59.170998"
       id="text5890-2"
       transform="rotate(-89.98302)"><tspan
         sodipodi:role="line"
         id="tspan5888-3"
         style="stroke-width:0.264583"
         x="-169.38892"
         y="59.170998">Conv1-2</tspan></text>
    <rect
       style="fill:#ffcc00;stroke:#000000;stroke-width:1.67126"
       id="rect848-3-7"
       width="15.874999"
       height="126.99998"
       x="61.912506"
       y="47.624893" />
    <text
       xml:space="preserve"
       style="font-style:normal;font-weight:normal;font-size:10.5833px;line-height:1.25;font-family:sans-serif;fill:#000000;fill-opacity:1;stroke:none;stroke-width:0.264583"
       x="-169.3842"
       y="75.046013"
       id="text5890-6-5"
       transform="rotate(-89.98302)"><tspan
         sodipodi:role="line"
         id="tspan5888-7-9"
         style="stroke-width:0.264583"
         x="-169.3842"
         y="75.046013">Pool1</tspan></text>
    <rect
       style="fill:#00ccff;stroke:#000000;stroke-width:1.67125"
       id="rect848-36"
       width="15.874749"
       height="126.99998"
       x="82.020851"
       y="47.624924" />
    <text
       xml:space="preserve"
       style="font-style:normal;font-weight:normal;font-size:10.5833px;line-height:1.25;font-family:sans-serif;fill:#000000;fill-opacity:1;stroke:none;stroke-width:0.264583"
       x="-169.37831"
       y="95.154373"
       id="text5890-7"
       transform="rotate(-89.98302)"><tspan
         sodipodi:role="line"
         id="tspan5888-5"
         style="stroke-width:0.264583"
         x="-169.37831"
         y="95.154373">Conv2-1</tspan></text>
    <rect
       style="fill:#00ccff;stroke:#000000;stroke-width:1.67126"
       id="rect848-0-3"
       width="15.874999"
       height="126.99998"
       x="97.895859"
       y="47.624802" />
    <text
       xml:space="preserve"
       style="font-style:normal;font-weight:normal;font-size:10.5833px;line-height:1.25;font-family:sans-serif;fill:#000000;fill-opacity:1;stroke:none;stroke-width:0.264583"
       x="-169.37378"
       y="111.02924"
       id="text5890-2-5"
       transform="rotate(-89.98302)"><tspan
         sodipodi:role="line"
         id="tspan5888-3-6"
         style="stroke-width:0.264583"
         x="-169.37378"
         y="111.02924">Conv2-2</tspan></text>
    <rect
       style="fill:#ffcc00;stroke:#000000;stroke-width:1.67126"
       id="rect848-3-7-2"
       width="15.874999"
       height="126.99998"
       x="113.77087"
       y="47.624802" />
    <text
       xml:space="preserve"
       style="font-style:normal;font-weight:normal;font-size:10.5833px;line-height:1.25;font-family:sans-serif;fill:#000000;fill-opacity:1;stroke:none;stroke-width:0.264583"
       x="-169.36906"
       y="126.90424"
       id="text5890-6-5-9"
       transform="rotate(-89.98302)"><tspan
         sodipodi:role="line"
         id="tspan5888-7-9-1"
         style="stroke-width:0.264583"
         x="-169.36906"
         y="126.90424">Pool2</tspan></text>
    <text
       xml:space="preserve"
       transform="scale(0.26458333)"
       id="text25185"
       style="font-style:normal;font-weight:normal;font-size:40px;line-height:1.25;font-family:sans-serif;white-space:pre;shape-inside:url(#rect25187);fill:#000000;fill-opacity:1;stroke:none" />
    <rect
       style="fill:#ff0000;stroke:#000000;stroke-width:1.67126"
       id="rect848-7"
       width="15.874999"
       height="126.99998"
       x="6.3500013"
       y="47.625" />
    <text
       xml:space="preserve"
       style="font-style:normal;font-weight:normal;font-size:10.5833px;line-height:1.25;font-family:sans-serif;fill:#000000;fill-opacity:1;stroke:none;stroke-width:0.264583"
       x="-169.40042"
       y="19.483624"
       id="text5890-9"
       transform="rotate(-89.98302)"><tspan
         sodipodi:role="line"
         id="tspan5888-2"
         style="stroke-width:0.264583"
         x="-169.40042"
         y="19.483624">Input: 72x72</tspan></text>
    <rect
       style="fill:#b7c4c8;stroke:#000000;stroke-width:1.67126"
       id="rect848-3-73-6-6-0"
       width="15.874999"
       height="126.99998"
       x="342.37021"
       y="47.624496" />
    <text
       xml:space="preserve"
       style="font-style:normal;font-weight:normal;font-size:10.5833px;line-height:1.25;font-family:sans-serif;fill:#000000;fill-opacity:1;stroke:none;stroke-width:0.264583"
       x="-169.30353"
       y="355.50467"
       id="text5890-6-6-1-3-6"
       transform="rotate(-89.98302)"><tspan
         sodipodi:role="line"
         id="tspan5888-7-1-0-2-1"
         style="stroke-width:0.264583"
         x="-169.30353"
         y="355.50467">Flatten</tspan></text>
    <rect
       style="fill:#00ccff;stroke:#000000;stroke-width:1.67126"
       id="rect848-2-27"
       width="15.874999"
       height="126.99998"
       x="134.93735"
       y="47.624615" />
    <text
       xml:space="preserve"
       style="font-style:normal;font-weight:normal;font-size:10.5833px;line-height:1.25;font-family:sans-serif;fill:#000000;fill-opacity:1;stroke:none;stroke-width:0.264583"
       x="-169.36224"
       y="148.07158"
       id="text5890-28-0"
       transform="rotate(-89.98302)"><tspan
         sodipodi:role="line"
         id="tspan5888-9-9"
         style="stroke-width:0.264583"
         x="-169.36224"
         y="148.07158">Conv3-1</tspan></text>
    <rect
       style="fill:#00ccff;stroke:#000000;stroke-width:1.67126"
       id="rect848-2-2-3"
       width="15.874999"
       height="126.99998"
       x="150.81233"
       y="47.624477" />
    <text
       xml:space="preserve"
       style="font-style:normal;font-weight:normal;font-size:10.5833px;line-height:1.25;font-family:sans-serif;fill:#000000;fill-opacity:1;stroke:none;stroke-width:0.264583"
       x="-169.35797"
       y="163.94627"
       id="text5890-28-9-6"
       transform="rotate(-89.98302)"><tspan
         sodipodi:role="line"
         id="tspan5888-9-3-0"
         style="stroke-width:0.264583"
         x="-169.35797"
         y="163.94627">Conv3-2</tspan></text>
    <rect
       style="fill:#00ccff;stroke:#000000;stroke-width:1.67126"
       id="rect848-0-7-6"
       width="15.874999"
       height="126.99998"
       x="166.68758"
       y="47.624447" />
    <text
       xml:space="preserve"
       style="font-style:normal;font-weight:normal;font-size:10.5833px;line-height:1.25;font-family:sans-serif;fill:#000000;fill-opacity:1;stroke:none;stroke-width:0.264583"
       x="-169.35315"
       y="179.82108"
       id="text5890-2-8-2"
       transform="rotate(-89.98302)"><tspan
         sodipodi:role="line"
         id="tspan5888-3-4-6"
         style="stroke-width:0.264583"
         x="-169.35315"
         y="179.82108">Conv3-3</tspan></text>
    <rect
       style="fill:#ffcc00;stroke:#000000;stroke-width:1.67126"
       id="rect848-3-7-5-1"
       width="15.874999"
       height="126.99998"
       x="182.56259"
       y="47.624447" />
    <text
       xml:space="preserve"
       style="font-style:normal;font-weight:normal;font-size:10.5833px;line-height:1.25;font-family:sans-serif;fill:#000000;fill-opacity:1;stroke:none;stroke-width:0.264583"
       x="-169.34842"
       y="195.69609"
       id="text5890-6-5-0-8"
       transform="rotate(-89.98302)"><tspan
         sodipodi:role="line"
         id="tspan5888-7-9-3-7"
         style="stroke-width:0.264583"
         x="-169.34842"
         y="195.69609">Pool3</tspan></text>
    <rect
       style="fill:#00ccff;stroke:#000000;stroke-width:1.67126"
       id="rect848-2-27-9"
       width="15.874999"
       height="126.99998"
       x="203.72891"
       y="47.624542" />
    <text
       xml:space="preserve"
       style="font-style:normal;font-weight:normal;font-size:10.5833px;line-height:1.25;font-family:sans-serif;fill:#000000;fill-opacity:1;stroke:none;stroke-width:0.264583"
       x="-169.34215"
       y="216.8631"
       id="text5890-28-0-2"
       transform="rotate(-89.98302)"><tspan
         sodipodi:role="line"
         id="tspan5888-9-9-0"
         style="stroke-width:0.264583"
         x="-169.34215"
         y="216.8631">Conv4-1</tspan></text>
    <rect
       style="fill:#00ccff;stroke:#000000;stroke-width:1.67126"
       id="rect848-2-2-3-2"
       width="15.874999"
       height="126.99998"
       x="219.6039"
       y="47.62439" />
    <text
       xml:space="preserve"
       style="font-style:normal;font-weight:normal;font-size:10.5833px;line-height:1.25;font-family:sans-serif;fill:#000000;fill-opacity:1;stroke:none;stroke-width:0.264583"
       x="-169.33788"
       y="232.73779"
       id="text5890-28-9-6-3"
       transform="rotate(-89.98302)"><tspan
         sodipodi:role="line"
         id="tspan5888-9-3-0-7"
         style="stroke-width:0.264583"
         x="-169.33788"
         y="232.73779">Conv4-2</tspan></text>
    <rect
       style="fill:#00ccff;stroke:#000000;stroke-width:1.67126"
       id="rect848-0-7-6-5"
       width="15.874999"
       height="126.99998"
       x="235.47914"
       y="47.624382" />
    <text
       xml:space="preserve"
       style="font-style:normal;font-weight:normal;font-size:10.5833px;line-height:1.25;font-family:sans-serif;fill:#000000;fill-opacity:1;stroke:none;stroke-width:0.264583"
       x="-169.33305"
       y="248.61259"
       id="text5890-2-8-2-9"
       transform="rotate(-89.98302)"><tspan
         sodipodi:role="line"
         id="tspan5888-3-4-6-2"
         style="stroke-width:0.264583"
         x="-169.33305"
         y="248.61259">Conv4-3</tspan></text>
    <rect
       style="fill:#ffcc00;stroke:#000000;stroke-width:1.67126"
       id="rect848-3-7-5-1-2"
       width="15.874999"
       height="126.99998"
       x="251.35416"
       y="47.624382" />
    <text
       xml:space="preserve"
       style="font-style:normal;font-weight:normal;font-size:10.5833px;line-height:1.25;font-family:sans-serif;fill:#000000;fill-opacity:1;stroke:none;stroke-width:0.264583"
       x="-169.32832"
       y="264.48831"
       id="text5890-6-5-0-8-8"
       transform="rotate(-89.98302)"><tspan
         sodipodi:role="line"
         id="tspan5888-7-9-3-7-9"
         style="stroke-width:0.264583"
         x="-169.32832"
         y="264.48831">Pool4</tspan></text>
    <rect
       style="fill:#00ccff;stroke:#000000;stroke-width:1.67126"
       id="rect848-2-27-9-7"
       width="15.875"
       height="126.99998"
       x="273.04959"
       y="47.624512" />
    <text
       xml:space="preserve"
       style="font-style:normal;font-weight:normal;font-size:10.5833px;line-height:1.25;font-family:sans-serif;fill:#000000;fill-opacity:1;stroke:none;stroke-width:0.264583"
       x="-169.32208"
       y="286.18454"
       id="text5890-28-0-2-3"
       transform="rotate(-89.98302)"><tspan
         sodipodi:role="line"
         id="tspan5888-9-9-0-6"
         style="stroke-width:0.264583"
         x="-169.32208"
         y="286.18454">Conv5-1-ft: 7x7x256</tspan></text>
    <rect
       style="fill:#00ccff;stroke:#000000;stroke-width:1.67126"
       id="rect848-2-2-3-2-1"
       width="15.874999"
       height="126.99998"
       x="288.92477"
       y="47.624352" />
    <text
       xml:space="preserve"
       style="font-style:normal;font-weight:normal;font-size:10.5833px;line-height:1.25;font-family:sans-serif;fill:#000000;fill-opacity:1;stroke:none;stroke-width:0.264583"
       x="-169.31781"
       y="302.05923"
       id="text5890-28-9-6-3-2"
       transform="rotate(-89.98302)"><tspan
         sodipodi:role="line"
         id="tspan5888-9-3-0-7-9"
         style="stroke-width:0.264583"
         x="-169.31781"
         y="302.05923">Conv5-2-ft: 3x3x256</tspan></text>
    <rect
       style="fill:#00ccff;stroke:#000000;stroke-width:1.67126"
       id="rect848-0-7-6-5-3"
       width="15.874999"
       height="126.99998"
       x="304.80002"
       y="47.624352" />
    <text
       xml:space="preserve"
       style="font-style:normal;font-weight:normal;font-size:10.5833px;line-height:1.25;font-family:sans-serif;fill:#000000;fill-opacity:1;stroke:none;stroke-width:0.264583"
       x="-169.31299"
       y="317.93402"
       id="text5890-2-8-2-9-1"
       transform="rotate(-89.98302)"><tspan
         sodipodi:role="line"
         id="tspan5888-3-4-6-2-9"
         style="stroke-width:0.264583"
         x="-169.31299"
         y="317.93402">Conv5-3-ft: 3x3x512</tspan></text>
    <rect
       style="fill:#ffcc00;stroke:#000000;stroke-width:1.67126"
       id="rect848-3-7-5-1-2-4"
       width="15.874999"
       height="126.99998"
       x="320.67505"
       y="47.624352" />
    <text
       xml:space="preserve"
       style="font-style:normal;font-weight:normal;font-size:10.5833px;line-height:1.25;font-family:sans-serif;fill:#000000;fill-opacity:1;stroke:none;stroke-width:0.264583"
       x="-169.30826"
       y="333.80975"
       id="text5890-6-5-0-8-8-7"
       transform="rotate(-89.98302)"><tspan
         sodipodi:role="line"
         id="tspan5888-7-9-3-7-9-8"
         style="stroke-width:0.264583"
         x="-169.30826"
         y="333.80975">Pool5-ft: 2x2x512</tspan></text>
    <rect
       style="fill:#ccff00;stroke:#000000;stroke-width:1.67126"
       id="rect848-3-73-6-6"
       width="15.874999"
       height="126.99998"
       x="364.59528"
       y="47.624378" />
    <text
       xml:space="preserve"
       style="font-style:normal;font-weight:normal;font-size:10.5833px;line-height:1.25;font-family:sans-serif;fill:#000000;fill-opacity:1;stroke:none;stroke-width:0.264583"
       x="-169.29503"
       y="377.72928"
       id="text5890-6-6-1-3"
       transform="rotate(-89.98302)"><tspan
         sodipodi:role="line"
         id="tspan5888-7-1-0-2"
         style="stroke-width:0.264583"
         x="-169.29503"
         y="377.72928">Dense: 500</tspan></text>
  </g>
</svg>
