<?xml version="1.0" encoding="UTF-8" standalone="no"?>
<!-- Created with Inkscape (http://www.inkscape.org/) -->

<svg
   width="1189mm"
   height="841mm"
   viewBox="0 0 1189 841"
   version="1.1"
   id="svg5"
   inkscape:version="1.1.1 (1:1.1+202109281949+c3084ef5ed)"
   sodipodi:docname="fer_wmdnn_shallow.svg"
   inkscape:export-filename="/home/dorfell/Downloads/fer_sys_dev/docs/00_book/img/fer/fer_wmdnn_shallow.png"
   inkscape:export-xdpi="96.206001"
   inkscape:export-ydpi="96.206001"
   xmlns:inkscape="http://www.inkscape.org/namespaces/inkscape"
   xmlns:sodipodi="http://sodipodi.sourceforge.net/DTD/sodipodi-0.dtd"
   xmlns="http://www.w3.org/2000/svg"
   xmlns:svg="http://www.w3.org/2000/svg">
  <sodipodi:namedview
     id="namedview7"
     pagecolor="#ffffff"
     bordercolor="#666666"
     borderopacity="1.0"
     inkscape:pageshadow="2"
     inkscape:pageopacity="0.0"
     inkscape:pagecheckerboard="0"
     inkscape:document-units="mm"
     showgrid="true"
     inkscape:zoom="0.64379277"
     inkscape:cx="297.45597"
     inkscape:cy="430.26268"
     inkscape:window-width="1280"
     inkscape:window-height="683"
     inkscape:window-x="0"
     inkscape:window-y="0"
     inkscape:window-maximized="1"
     inkscape:current-layer="layer1">
    <inkscape:grid
       type="xygrid"
       id="grid824" />
  </sodipodi:namedview>
  <defs
     id="defs2">
    <rect
       x="40"
       y="180"
       width="1105.2158"
       height="1875.6505"
       id="rect25187" />
  </defs>
  <g
     inkscape:label="Layer 1"
     inkscape:groupmode="layer"
     id="layer1">
    <rect
       style="fill:#00ccff;stroke:#000000;stroke-width:1.67125"
       id="rect848"
       width="15.874749"
       height="126.99998"
       x="30.162493"
       y="47.624996" />
    <text
       xml:space="preserve"
       style="font-style:normal;font-weight:normal;font-size:10.5833px;line-height:1.25;font-family:sans-serif;fill:#000000;fill-opacity:1;stroke:none;stroke-width:0.264583"
       x="-169.39345"
       y="43.296127"
       id="text5890"
       transform="rotate(-89.98302)"><tspan
         sodipodi:role="line"
         id="tspan5888"
         style="stroke-width:0.264583"
         x="-169.39345"
         y="43.296127">Conv1: 7x7x64</tspan></text>
    <rect
       style="fill:#ffcc00;stroke:#000000;stroke-width:1.67126"
       id="rect848-3-7"
       width="15.874999"
       height="126.99998"
       x="46.037491"
       y="47.624893" />
    <text
       xml:space="preserve"
       style="font-style:normal;font-weight:normal;font-size:10.5833px;line-height:1.25;font-family:sans-serif;fill:#000000;fill-opacity:1;stroke:none;stroke-width:0.264583"
       x="-169.38889"
       y="59.170998"
       id="text5890-6-5"
       transform="rotate(-89.98302)"><tspan
         sodipodi:role="line"
         id="tspan5888-7-9"
         style="stroke-width:0.264583"
         x="-169.38889"
         y="59.170998">Sub-sampling: 2x2x64</tspan></text>
    <rect
       style="fill:#00ccff;stroke:#000000;stroke-width:1.67125"
       id="rect848-3"
       width="15.874749"
       height="126.99998"
       x="67.733322"
       y="47.624969" />
    <text
       xml:space="preserve"
       style="font-style:normal;font-weight:normal;font-size:10.5833px;line-height:1.25;font-family:sans-serif;fill:#000000;fill-opacity:1;stroke:none;stroke-width:0.264583"
       x="-169.38281"
       y="80.866707"
       id="text5890-6"
       transform="rotate(-89.98302)"><tspan
         sodipodi:role="line"
         id="tspan5888-7"
         style="stroke-width:0.264583"
         x="-169.38281"
         y="80.866707">Conv2: 3x3x256</tspan></text>
    <rect
       style="fill:#ffcc00;stroke:#000000;stroke-width:1.67126"
       id="rect848-3-7-5"
       width="15.874999"
       height="126.99998"
       x="83.608315"
       y="47.62484" />
    <text
       xml:space="preserve"
       style="font-style:normal;font-weight:normal;font-size:10.5833px;line-height:1.25;font-family:sans-serif;fill:#000000;fill-opacity:1;stroke:none;stroke-width:0.264583"
       x="-169.37825"
       y="96.741562"
       id="text5890-6-5-3"
       transform="rotate(-89.98302)"><tspan
         sodipodi:role="line"
         id="tspan5888-7-9-5"
         style="stroke-width:0.264583"
         x="-169.37825"
         y="96.741562">Sub-sampling:2x2x256</tspan></text>
    <text
       xml:space="preserve"
       transform="scale(0.26458333)"
       id="text25185"
       style="font-style:normal;font-weight:normal;font-size:40px;line-height:1.25;font-family:sans-serif;white-space:pre;shape-inside:url(#rect25187);fill:#000000;fill-opacity:1;stroke:none" />
    <rect
       style="fill:#ff0000;stroke:#000000;stroke-width:1.67126"
       id="rect848-7"
       width="15.874999"
       height="126.99998"
       x="6.3500013"
       y="47.625" />
    <text
       xml:space="preserve"
       style="font-style:normal;font-weight:normal;font-size:10.5833px;line-height:1.25;font-family:sans-serif;fill:#000000;fill-opacity:1;stroke:none;stroke-width:0.264583"
       x="-169.40042"
       y="19.483624"
       id="text5890-9"
       transform="rotate(-89.98302)"><tspan
         sodipodi:role="line"
         id="tspan5888-2"
         style="stroke-width:0.264583"
         x="-169.40042"
         y="19.483624">Input: 72x72</tspan></text>
    <rect
       style="fill:#ccff00;stroke:#000000;stroke-width:1.67126"
       id="rect848-3-73-6-6"
       width="15.874999"
       height="126.99998"
       x="107.95078"
       y="47.624378" />
    <text
       xml:space="preserve"
       style="font-style:normal;font-weight:normal;font-size:10.5833px;line-height:1.25;font-family:sans-serif;fill:#000000;fill-opacity:1;stroke:none;stroke-width:0.264583"
       x="-169.37155"
       y="121.08492"
       id="text5890-6-6-1-3"
       transform="rotate(-89.98302)"><tspan
         sodipodi:role="line"
         id="tspan5888-7-1-0-2"
         style="stroke-width:0.264583"
         x="-169.37155"
         y="121.08492">Dense: 500</tspan></text>
  </g>
</svg>
