<?xml version="1.0" encoding="UTF-8" standalone="no"?>
<!-- Created with Inkscape (http://www.inkscape.org/) -->

<svg
   width="1189mm"
   height="841mm"
   viewBox="0 0 1189 841"
   version="1.1"
   id="svg5"
   inkscape:version="1.1.1 (1:1.1+202109281949+c3084ef5ed)"
   sodipodi:docname="M1.svg"
   inkscape:export-filename="/home/dorfell/Downloads/fer_sys_dev/docs/00_book/img/fer/M1.png"
   inkscape:export-xdpi="96.206001"
   inkscape:export-ydpi="96.206001"
   xmlns:inkscape="http://www.inkscape.org/namespaces/inkscape"
   xmlns:sodipodi="http://sodipodi.sourceforge.net/DTD/sodipodi-0.dtd"
   xmlns="http://www.w3.org/2000/svg"
   xmlns:svg="http://www.w3.org/2000/svg">
  <sodipodi:namedview
     id="namedview7"
     pagecolor="#ffffff"
     bordercolor="#666666"
     borderopacity="1.0"
     inkscape:pageshadow="2"
     inkscape:pageopacity="0.0"
     inkscape:pagecheckerboard="0"
     inkscape:document-units="mm"
     showgrid="true"
     inkscape:zoom="0.91046045"
     inkscape:cx="165.30097"
     inkscape:cy="461.30505"
     inkscape:window-width="1280"
     inkscape:window-height="683"
     inkscape:window-x="0"
     inkscape:window-y="0"
     inkscape:window-maximized="1"
     inkscape:current-layer="layer1">
    <inkscape:grid
       type="xygrid"
       id="grid824" />
  </sodipodi:namedview>
  <defs
     id="defs2">
    <rect
       x="40"
       y="180"
       width="1105.2158"
       height="1875.6505"
       id="rect25187" />
  </defs>
  <g
     inkscape:label="Layer 1"
     inkscape:groupmode="layer"
     id="layer1">
    <rect
       style="fill:#00ccff;stroke:#000000;stroke-width:1.44735"
       id="rect848"
       width="15.874749"
       height="95.249977"
       x="30.162493"
       y="79.375" />
    <text
       xml:space="preserve"
       style="font-style:normal;font-weight:normal;font-size:10.5833px;line-height:1.25;font-family:sans-serif;fill:#000000;fill-opacity:1;stroke:none;stroke-width:0.264583"
       x="-169.92261"
       y="43.296284"
       id="text5890"
       transform="rotate(-89.98302)"><tspan
         sodipodi:role="line"
         id="tspan5888"
         style="stroke-width:0.264583"
         x="-169.92261"
         y="43.296284">Conv1: 3x3x12</tspan></text>
    <rect
       style="fill:#ffcc00;stroke:#000000;stroke-width:1.44735"
       id="rect848-3-7"
       width="15.874999"
       height="95.249863"
       x="46.037491"
       y="79.375" />
    <text
       xml:space="preserve"
       style="font-style:normal;font-weight:normal;font-size:10.5833px;line-height:1.25;font-family:sans-serif;fill:#000000;fill-opacity:1;stroke:none;stroke-width:0.264583"
       x="-170.44739"
       y="58.642143"
       id="text5890-6-5"
       transform="rotate(-89.98302)"><tspan
         sodipodi:role="line"
         id="tspan5888-7-9"
         style="stroke-width:0.264583"
         x="-170.44739"
         y="58.642143">MaxPooling: 2x2</tspan></text>
    <text
       xml:space="preserve"
       transform="scale(0.26458333)"
       id="text25185"
       style="font-style:normal;font-weight:normal;font-size:40px;line-height:1.25;font-family:sans-serif;white-space:pre;shape-inside:url(#rect25187);fill:#000000;fill-opacity:1;stroke:none" />
    <rect
       style="fill:#ff0000;stroke:#000000;stroke-width:1.44735"
       id="rect848-7"
       width="15.874999"
       height="95.249977"
       x="6.3500013"
       y="79.375" />
    <text
       xml:space="preserve"
       style="font-style:normal;font-weight:normal;font-size:10.5833px;line-height:1.25;font-family:sans-serif;fill:#000000;fill-opacity:1;stroke:none;stroke-width:0.264583"
       x="-169.92958"
       y="19.48378"
       id="text5890-9"
       transform="rotate(-89.98302)"><tspan
         sodipodi:role="line"
         id="tspan5888-2"
         style="stroke-width:0.264583"
         x="-169.92958"
         y="19.48378">Input: 128x128</tspan></text>
    <rect
       style="fill:#b7c4c8;stroke:#000000;stroke-width:1.44735"
       id="rect848-3-73-6-6-0"
       width="15.875"
       height="95.249474"
       x="69.321877"
       y="79.375" />
    <text
       xml:space="preserve"
       style="font-style:normal;font-weight:normal;font-size:10.5833px;line-height:1.25;font-family:sans-serif;fill:#000000;fill-opacity:1;stroke:none;stroke-width:0.264583"
       x="-169.91357"
       y="81.927528"
       id="text5890-6-6-1-3-6"
       transform="rotate(-89.98302)"><tspan
         sodipodi:role="line"
         id="tspan5888-7-1-0-2-1"
         style="stroke-width:0.264583"
         x="-169.91357"
         y="81.927528">Flatten</tspan></text>
    <rect
       style="fill:#ccff00;stroke:#000000;stroke-width:1.44735"
       id="rect848-3-73-6-6-09-6"
       width="15.874999"
       height="95.249275"
       x="92.077042"
       y="79.375" />
    <text
       xml:space="preserve"
       style="font-style:normal;font-weight:normal;font-size:10.5833px;line-height:1.25;font-family:sans-serif;fill:#000000;fill-opacity:1;stroke:none;stroke-width:0.264583"
       x="-170.43513"
       y="104.6833"
       id="text5890-6-6-1-3-3-1"
       transform="rotate(-89.98302)"><tspan
         sodipodi:role="line"
         id="tspan5888-7-1-0-2-6-8"
         style="stroke-width:0.264583"
         x="-170.43513"
         y="104.6833">Dense: 7</tspan></text>
  </g>
</svg>
