\relax 
\providecommand\hyper@newdestlabel[2]{}
\providecommand*{\memsetcounter}[2]{}
\providecommand\HyperFirstAtBeginDocument{\AtBeginDocument}
\HyperFirstAtBeginDocument{\ifx\hyper@anchor\@undefined
\global\let\oldcontentsline\contentsline
\gdef\contentsline#1#2#3#4{\oldcontentsline{#1}{#2}{#3}}
\global\let\oldnewlabel\newlabel
\gdef\newlabel#1#2{\newlabelxx{#1}#2}
\gdef\newlabelxx#1#2#3#4#5#6{\oldnewlabel{#1}{{#2}{#3}}}
\AtEndDocument{\ifx\hyper@anchor\@undefined
\let\contentsline\oldcontentsline
\let\newlabel\oldnewlabel
\fi}
\fi}
\global\let\hyper@last\relax 
\gdef\HyperFirstAtBeginDocument#1{#1}
\providecommand\HyField@AuxAddToFields[1]{}
\providecommand\HyField@AuxAddToCoFields[2]{}
\@writefile{toc}{\nobreakspace  {}\hfill \textbf  {Pag.}\par }
\@writefile{toc}{\contentsline {chapter}{Contents}{viii}{section*.1}\protected@file@percent }
\citation{kan2001}
\citation{jaf2020}
\citation{kha2021}
\citation{sag2013}
\citation{yan2017}
\citation{kim2019}
\citation{zyboz72022}
\citation{zyboz7rm2022}
\citation{clb2022}
\citation{bram2022}
\citation{dsp482022}
\@writefile{Lista de Figuras}{\nobreakspace  {}\hfill \textbf  {Pag.}\par }
\@writefile{toc}{\contentsline {chapter}{List of Figures}{xi}{section*.2}\protected@file@percent }
\citation{pynq2022}
\citation{jac2017}
\citation{zyboz7rm2022}
\citation{clb2022}
\@writefile{Lista de Tablas}{\nobreakspace  {}\hfill \textbf  {Pag.}\par }
\@writefile{toc}{\contentsline {chapter}{List of Tables}{xii}{section*.3}\protected@file@percent }
\citation{bet2012}
\citation{yan2017}
\citation{kim2019}
\citation{omni2021}
\citation{dpuframe2020}
\citation{xie2019}
\citation{li2018}
\citation{tf2017}
\citation{qat2022}
\citation{merenda2020}
\citation{tltf2022}
\citation{jaf1998}
\citation{bet2012}
\citation{udd2017}
\citation{yan2017}
\@writefile{lof}{\addvspace {10pt}}
\@writefile{lot}{\addvspace {10pt}}
\@writefile{toc}{\contentsline {chapter}{\chapternumberline {1}Facial Expression Recognition (FER) Systems}{3}{chapter.1}\protected@file@percent }
\newlabel{ch:fer}{{\M@TitleReference {1}{Facial Expression Recognition (FER) Systems}}{3}{Facial Expression Recognition (FER) Systems}{chapter.1}{}}
\citation{bet2012}
\citation{kan2001}
\citation{kan2001}
\citation{kan2001}
\citation{xie2019}
\citation{zha2017}
\citation{yan2017}
\citation{kim2019}
\citation{xie2019}
\citation{zha2017}
\citation{yan2017}
\citation{kim2019}
\citation{xie2019}
\citation{li2018}
\citation{zha2017}
\citation{yan2017}
\citation{kim2019}
\citation{zha2017}
\citation{zha2017}
\citation{yan2017}
\citation{yan2017}
\citation{kim2019}
\citation{kim2019}
\@writefile{toc}{\contentsline {section}{\numberline {1}Facial Expression Recognition (FER) Systems}{4}{section.1.1}\protected@file@percent }
\newlabel{sc:fer_sys}{{\M@TitleReference {1}{Facial Expression Recognition (FER) Systems}}{4}{Facial Expression Recognition (FER) Systems}{section.1.1}{}}
\@writefile{toc}{\contentsline {subsection}{\numberline {1.1}CNN-based FER Systems}{4}{subsection.1.1.1}\protected@file@percent }
\newlabel{ssc:fer_cnn}{{\M@TitleReference {1.1}{CNN-based FER Systems}}{4}{CNN-based FER Systems}{subsection.1.1.1}{}}
\@writefile{lof}{\contentsline {figure}{\numberline {1.1}{\ignorespaces Examples of face action units (AUs). Taken from \cite  {kan2001}.\relax }}{5}{figure.caption.5}\protected@file@percent }
\providecommand*\caption@xref[2]{\@setref\relax\@undefined{#1}}
\newlabel{fg:faceau}{{\M@TitleReference {1.1}{Examples of face action units (AUs). Taken from \cite  {kan2001}.\relax }}{5}{Examples of face action units (AUs). Taken from \cite {kan2001}.\relax }{figure.caption.5}{}}
\@writefile{lof}{\contentsline {subfigure}{\numberline{(a)}{\ignorespaces {Upper face AUs.}}}{5}{subfigure.1.1}\protected@file@percent }
\@writefile{lof}{\contentsline {subfigure}{\numberline{(b)}{\ignorespaces {Lower face AUs.}}}{5}{subfigure.1.2}\protected@file@percent }
\@writefile{lof}{\contentsline {figure}{\numberline {1.2}{\ignorespaces Examples of CNN-based FER systems architectures proposed in literature.\relax }}{6}{figure.caption.6}\protected@file@percent }
\newlabel{fg:cnn_fer}{{\M@TitleReference {1.2}{Examples of CNN-based FER systems architectures proposed in literature.\relax }}{6}{Examples of CNN-based FER systems architectures proposed in literature.\relax }{figure.caption.6}{}}
\@writefile{lof}{\contentsline {subfigure}{\numberline{(a)}{\ignorespaces {$I^2$CNN: One channel architecture. Taken from \cite {zha2017}.}}}{6}{subfigure.2.1}\protected@file@percent }
\@writefile{lof}{\contentsline {subfigure}{\numberline{(b)}{\ignorespaces {WMDNN: Two channels architecture. Taken from \cite {yan2017}.}}}{6}{subfigure.2.2}\protected@file@percent }
\@writefile{lof}{\contentsline {subfigure}{\numberline{(c)}{\ignorespaces {Hierarchical DNN: Two channels architecture. Taken from \cite {kim2019}.}}}{6}{subfigure.2.3}\protected@file@percent }
\citation{bet2012}
\citation{kan2001}
\citation{kan2010}
\citation{jaf1998}
\citation{jaf2020}
\citation{kan2010}
\citation{kan2010}
\citation{jaf2020}
\citation{jaf2020}
\citation{jaf1998}
\@writefile{toc}{\contentsline {section}{\numberline {2}Data sets for FER systems}{7}{section.1.2}\protected@file@percent }
\newlabel{sc:fer_ds}{{\M@TitleReference {2}{Data sets for FER systems}}{7}{Data sets for FER systems}{section.1.2}{}}
\@writefile{lof}{\contentsline {figure}{\numberline {1.3}{\ignorespaces Examples of data sets used in FER systems.\relax }}{7}{figure.caption.7}\protected@file@percent }
\newlabel{fg:fer_ds}{{\M@TitleReference {1.3}{Examples of data sets used in FER systems.\relax }}{7}{Examples of data sets used in FER systems.\relax }{figure.caption.7}{}}
\@writefile{lof}{\contentsline {subfigure}{\numberline{(a)}{\ignorespaces {Example images from CK (1st row) and CK+ (2nd row). Taken from \cite {kan2010}.}}}{7}{subfigure.3.1}\protected@file@percent }
\@writefile{lof}{\contentsline {subfigure}{\numberline{(b)}{\ignorespaces {Example images from JAFFE. Taken from \cite {jaf2020}.}}}{7}{subfigure.3.2}\protected@file@percent }
\citation{jaf2020}
\citation{jaf2020}
\citation{kha2021}
\citation{kha2021}
\citation{vio2004}
\citation{kng2021}
\citation{sag2013}
\citation{dlib2009}
\citation{sag2013}
\citation{sag2013}
\citation{kha2021}
\citation{ocv2021}
\@writefile{lof}{\contentsline {figure}{\numberline {1.4}{\ignorespaces Acquisition setup used for JAFFE. Taken from \cite  {jaf2020}.\relax }}{8}{figure.caption.8}\protected@file@percent }
\newlabel{fg:fer_ds_acq}{{\M@TitleReference {1.4}{Acquisition setup used for JAFFE. Taken from \cite  {jaf2020}.\relax }}{8}{Acquisition setup used for JAFFE. Taken from \cite {jaf2020}.\relax }{figure.caption.8}{}}
\@writefile{toc}{\contentsline {section}{\numberline {3}Basic data set preprocessing for FER systems}{8}{section.1.3}\protected@file@percent }
\newlabel{sc:fer_pre}{{\M@TitleReference {3}{Basic data set preprocessing for FER systems}}{8}{Basic data set preprocessing for FER systems}{section.1.3}{}}
\@writefile{lof}{\contentsline {figure}{\numberline {1.5}{\ignorespaces JAFFE Pre-processing for FER. Adapted from \cite  {kha2021}.\relax }}{9}{figure.caption.9}\protected@file@percent }
\newlabel{fg:ds_pre}{{\M@TitleReference {1.5}{JAFFE Pre-processing for FER. Adapted from \cite  {kha2021}.\relax }}{9}{JAFFE Pre-processing for FER. Adapted from \cite {kha2021}.\relax }{figure.caption.9}{}}
\@writefile{lof}{\contentsline {figure}{\numberline {1.6}{\ignorespaces Facial Point Annotations. Taken from \cite  {sag2013}.\relax }}{9}{figure.caption.10}\protected@file@percent }
\newlabel{fg:landmarks}{{\M@TitleReference {1.6}{Facial Point Annotations. Taken from \cite  {sag2013}.\relax }}{9}{Facial Point Annotations. Taken from \cite {sag2013}.\relax }{figure.caption.10}{}}
\citation{yan2017}
\citation{kim2019}
\citation{yan2017}
\citation{kim2019}
\citation{yan2017}
\citation{kim2019}
\@writefile{toc}{\contentsline {section}{\numberline {4}Extended data set preprocessing for FER systems}{10}{section.1.4}\protected@file@percent }
\newlabel{sc:fer_pre_ex}{{\M@TitleReference {4}{Extended data set preprocessing for FER systems}}{10}{Extended data set preprocessing for FER systems}{section.1.4}{}}
\@writefile{toc}{\contentsline {subsection}{\numberline {4.1}Local Binary Pattern}{10}{subsection.1.4.1}\protected@file@percent }
\newlabel{eq:lbp0}{{1.1}{10}{Local Binary Pattern}{equation.1.4.1}{}}
\newlabel{eq:lbp1}{{1.2}{10}{Local Binary Pattern}{equation.1.4.2}{}}
\@writefile{lof}{\contentsline {figure}{\numberline {1.7}{\ignorespaces LBP encoding example. Adapted from from \cite  {yan2017}, \cite  {kim2019}.\relax }}{10}{figure.caption.11}\protected@file@percent }
\newlabel{fg:lbp_code}{{\M@TitleReference {1.7}{LBP encoding example. Adapted from from \cite  {yan2017}, \cite  {kim2019}.\relax }}{10}{LBP encoding example. Adapted from from \cite {yan2017}, \cite {kim2019}.\relax }{figure.caption.11}{}}
\citation{sci2014}
\citation{lbp2021}
\@writefile{lof}{\contentsline {figure}{\numberline {1.8}{\ignorespaces LBP methods comparison with JAFFE.\relax }}{11}{figure.caption.12}\protected@file@percent }
\newlabel{fg:lbp_methods}{{\M@TitleReference {1.8}{LBP methods comparison with JAFFE.\relax }}{11}{LBP methods comparison with JAFFE.\relax }{figure.caption.12}{}}
\@writefile{toc}{\contentsline {subsection}{\numberline {4.2}Data Augmentation}{11}{subsection.1.4.2}\protected@file@percent }
\citation{alb2020}
\citation{yan2017}
\citation{kim2019}
\@writefile{lof}{\contentsline {figure}{\numberline {1.9}{\ignorespaces Examples of data augmentation with JAFFE.\relax }}{12}{figure.caption.13}\protected@file@percent }
\newlabel{fg:fer_da}{{\M@TitleReference {1.9}{Examples of data augmentation with JAFFE.\relax }}{12}{Examples of data augmentation with JAFFE.\relax }{figure.caption.13}{}}
\citation{zha2017}
\citation{yan2017}
\citation{kim2019}
\citation{xie2019}
\citation{zha2017}
\citation{yan2017}
\citation{yan2017}
\citation{kim2019}
\@writefile{toc}{\contentsline {section}{\numberline {5}Designing a CNN-based FER system}{13}{section.1.5}\protected@file@percent }
\newlabel{sc:fer_des}{{\M@TitleReference {5}{Designing a CNN-based FER system}}{13}{Designing a CNN-based FER system}{section.1.5}{}}
\@writefile{lot}{\contentsline {table}{\numberline {1.1}{\ignorespaces Architectures of some CNN-based FER systems and their accuracy for JAFFE.}}{13}{table.caption.14}\protected@file@percent }
\newlabel{tb:fer_arch}{{\M@TitleReference {1.1}{Architectures of some CNN-based FER systems and their accuracy for JAFFE.}}{13}{Architectures of some CNN-based FER systems and their accuracy for JAFFE}{table.caption.14}{}}
\citation{tf2017}
\citation{earlystopping}
\citation{reducelronplateau}
\citation{tf2017}
\@writefile{toc}{\contentsline {subsection}{\numberline {5.1}Testing model M1}{15}{subsection.1.5.1}\protected@file@percent }
\citation{yan2017}
\@writefile{lof}{\contentsline {figure}{\numberline {1.10}{\ignorespaces Tests with the M1 model.\relax }}{16}{figure.caption.15}\protected@file@percent }
\newlabel{fg:fer_M1}{{\M@TitleReference {1.10}{Tests with the M1 model.\relax }}{16}{Tests with the M1 model.\relax }{figure.caption.15}{}}
\@writefile{lof}{\contentsline {subfigure}{\numberline{(a)}{\ignorespaces {Original architecture.}}}{16}{subfigure.10.1}\protected@file@percent }
\@writefile{lof}{\contentsline {subfigure}{\numberline{(b)}{\ignorespaces {$bs=256$, $lr=0.001$.}}}{16}{subfigure.10.2}\protected@file@percent }
\@writefile{lof}{\contentsline {subfigure}{\numberline{(c)}{\ignorespaces {$bs=128$, $lr=0.001$, with 128 filters.}}}{16}{subfigure.10.3}\protected@file@percent }
\@writefile{toc}{\contentsline {subsection}{\numberline {5.2}Testing model M2}{16}{subsection.1.5.2}\protected@file@percent }
\@writefile{lof}{\contentsline {figure}{\numberline {1.11}{\ignorespaces Tests with the M2 model.\relax }}{17}{figure.caption.16}\protected@file@percent }
\newlabel{fg:fer_M2}{{\M@TitleReference {1.11}{Tests with the M2 model.\relax }}{17}{Tests with the M2 model.\relax }{figure.caption.16}{}}
\@writefile{lof}{\contentsline {subfigure}{\numberline{(a)}{\ignorespaces {Original architecture.}}}{17}{subfigure.11.1}\protected@file@percent }
\@writefile{lof}{\contentsline {subfigure}{\numberline{(b)}{\ignorespaces {$bs=256$, $lr=0.001$}}}{17}{subfigure.11.2}\protected@file@percent }
\@writefile{lof}{\contentsline {subfigure}{\numberline{(c)}{\ignorespaces {$bs=128$, $lr=0.001$, without dropout and MaxPooling instead of AveragePooling.}}}{17}{subfigure.11.3}\protected@file@percent }
\@writefile{toc}{\contentsline {subsection}{\numberline {5.3}Testing model M3}{18}{subsection.1.5.3}\protected@file@percent }
\@writefile{lof}{\contentsline {figure}{\numberline {1.12}{\ignorespaces Tests with the M3 model.\relax }}{18}{figure.caption.17}\protected@file@percent }
\newlabel{fg:fer_M3}{{\M@TitleReference {1.12}{Tests with the M3 model.\relax }}{18}{Tests with the M3 model.\relax }{figure.caption.17}{}}
\@writefile{lof}{\contentsline {subfigure}{\numberline{(a)}{\ignorespaces {Original architecture.}}}{18}{subfigure.12.1}\protected@file@percent }
\@writefile{lof}{\contentsline {subfigure}{\numberline{(b)}{\ignorespaces {$bs=64$, $lr=0.001$}}}{18}{subfigure.12.2}\protected@file@percent }
\@writefile{lof}{\contentsline {subfigure}{\numberline{(c)}{\ignorespaces {$bs=64$, $lr=0.001$, without Dropout, Dense(1024), Dense(512) and MaxPooling instead of AveragePooling.}}}{18}{subfigure.12.3}\protected@file@percent }
\@writefile{toc}{\contentsline {subsection}{\numberline {5.4}Testing model M4}{19}{subsection.1.5.4}\protected@file@percent }
\@writefile{lof}{\contentsline {figure}{\numberline {1.13}{\ignorespaces Tests with the M4 model.\relax }}{19}{figure.caption.18}\protected@file@percent }
\newlabel{fg:fer_M4}{{\M@TitleReference {1.13}{Tests with the M4 model.\relax }}{19}{Tests with the M4 model.\relax }{figure.caption.18}{}}
\@writefile{lof}{\contentsline {subfigure}{\numberline{(a)}{\ignorespaces {Original architecture}}}{19}{subfigure.13.1}\protected@file@percent }
\@writefile{lof}{\contentsline {subfigure}{\numberline{(b)}{\ignorespaces {$bs=64$, $lr=0.0001$}}}{19}{subfigure.13.2}\protected@file@percent }
\@writefile{lof}{\contentsline {subfigure}{\numberline{(c)}{\ignorespaces {$bs=64$, $lr=0.0001$, with Conv of 32, 64 and 128 filtres, and kernel of (5,5).}}}{19}{subfigure.13.3}\protected@file@percent }
\@writefile{toc}{\contentsline {subsection}{\numberline {5.5}Testing model M6}{20}{subsection.1.5.5}\protected@file@percent }
\@writefile{lof}{\contentsline {figure}{\numberline {1.14}{\ignorespaces Tests with the M6 model.\relax }}{20}{figure.caption.19}\protected@file@percent }
\newlabel{fg:fer_M6}{{\M@TitleReference {1.14}{Tests with the M6 model.\relax }}{20}{Tests with the M6 model.\relax }{figure.caption.19}{}}
\@writefile{lof}{\contentsline {subfigure}{\numberline{(a)}{\ignorespaces {Original architecture}}}{20}{subfigure.14.1}\protected@file@percent }
\@writefile{lof}{\contentsline {subfigure}{\numberline{(b)}{\ignorespaces {$bs=32$, $lr=0.001$}}}{20}{subfigure.14.2}\protected@file@percent }
\@writefile{toc}{\contentsline {section}{\numberline {6}Discussion}{21}{section.1.6}\protected@file@percent }
\newlabel{sc:fer_dis}{{\M@TitleReference {6}{Discussion}}{21}{Discussion}{section.1.6}{}}
\@writefile{toc}{\contentsline {section}{\numberline {7}Conclusion}{21}{section.1.7}\protected@file@percent }
\newlabel{sc:fer_con}{{\M@TitleReference {7}{Conclusion}}{21}{Conclusion}{section.1.7}{}}
\citation{jaf1998}
\citation{jaf2020}
\citation{merenda2020}
\citation{pruning2023}
\citation{jac2017}
\@writefile{lof}{\addvspace {10pt}}
\@writefile{lot}{\addvspace {10pt}}
\@writefile{toc}{\contentsline {chapter}{\chapternumberline {2}Hardware Neural Networks (HNN)}{22}{chapter.2}\protected@file@percent }
\newlabel{ch:hnn}{{\M@TitleReference {2}{Hardware Neural Networks (HNN)}}{22}{Hardware Neural Networks (HNN)}{chapter.2}{}}
\@writefile{toc}{\contentsline {section}{\numberline {1}Quantization Aware Training}{23}{section.2.1}\protected@file@percent }
\newlabel{sc:hnn_qat}{{\M@TitleReference {1}{Quantization Aware Training}}{23}{Quantization Aware Training}{section.2.1}{}}
\@writefile{lof}{\contentsline {figure}{\numberline {2.1}{\ignorespaces Tflite Quantization Aware Training Example.\relax }}{23}{figure.caption.20}\protected@file@percent }
\newlabel{fg:hnn_qat}{{\M@TitleReference {2.1}{Tflite Quantization Aware Training Example.\relax }}{23}{Tflite Quantization Aware Training Example.\relax }{figure.caption.20}{}}
\citation{qsp2022}
\citation{qat2022}
\citation{qat2022}
\citation{qsp2022}
\citation{qsp2022}
\citation{fpga2022}
\citation{zyboz7rm2022}
\@writefile{lot}{\contentsline {table}{\numberline {2.1}{\ignorespaces Quantized models with comparable accuracy to floating point.}}{24}{table.caption.21}\protected@file@percent }
\newlabel{tb:hnn_qat}{{\M@TitleReference {2.1}{Quantized models with comparable accuracy to floating point.}}{24}{Quantized models with comparable accuracy to floating point}{table.caption.21}{}}
\@writefile{lot}{\contentsline {table}{\numberline {2.2}{\ignorespaces Specification for the quantized layers used in M6.}}{24}{table.caption.22}\protected@file@percent }
\newlabel{tb:hnn_qsp}{{\M@TitleReference {2.2}{Specification for the quantized layers used in M6.}}{24}{Specification for the quantized layers used in M6}{table.caption.22}{}}
\@writefile{lot}{\contentsline {table}{\numberline {2.3}{\ignorespaces Metrics for model M6 in float point and after quantization.}}{24}{table.caption.23}\protected@file@percent }
\newlabel{tb:hnn_qm6}{{\M@TitleReference {2.3}{Metrics for model M6 in float point and after quantization.}}{24}{Metrics for model M6 in float point and after quantization}{table.caption.23}{}}
\citation{zyboz72022}
\citation{zyboz72022}
\citation{zyboz7rm2022}
\citation{zyboz7rm2022}
\citation{clb2022}
\@writefile{toc}{\contentsline {section}{\numberline {2}Hardware Platform}{25}{section.2.2}\protected@file@percent }
\newlabel{sc:hnn_hwp}{{\M@TitleReference {2}{Hardware Platform}}{25}{Hardware Platform}{section.2.2}{}}
\@writefile{lof}{\contentsline {figure}{\numberline {2.2}{\ignorespaces Zybo-Z7 Development board. Taken from \cite  {zyboz72022}.\relax }}{25}{figure.caption.24}\protected@file@percent }
\newlabel{fg:hnn_zybo}{{\M@TitleReference {2.2}{Zybo-Z7 Development board. Taken from \cite  {zyboz72022}.\relax }}{25}{Zybo-Z7 Development board. Taken from \cite {zyboz72022}.\relax }{figure.caption.24}{}}
\@writefile{lof}{\contentsline {subfigure}{\numberline{(a)}{\ignorespaces {Top.}}}{25}{subfigure.2.1}\protected@file@percent }
\@writefile{lof}{\contentsline {subfigure}{\numberline{(b)}{\ignorespaces {Bottom.}}}{25}{subfigure.2.2}\protected@file@percent }
\citation{clb2022}
\citation{clb2022}
\citation{bram2022}
\citation{bram2022}
\citation{bram2022}
\citation{dsp482022}
\citation{dsp482022}
\citation{dsp482022}
\citation{zyboz72022}
\citation{zyboz72022}
\@writefile{lof}{\contentsline {figure}{\numberline {2.3}{\ignorespaces Zynq APSoC Architecture Simplified. Adapted from \cite  {zyboz7rm2022}.\relax }}{26}{figure.caption.25}\protected@file@percent }
\newlabel{fg:hnn_apsoc_simp}{{\M@TitleReference {2.3}{Zynq APSoC Architecture Simplified. Adapted from \cite  {zyboz7rm2022}.\relax }}{26}{Zynq APSoC Architecture Simplified. Adapted from \cite {zyboz7rm2022}.\relax }{figure.caption.25}{}}
\@writefile{lof}{\contentsline {figure}{\numberline {2.4}{\ignorespaces PL architecture. Taken from \cite  {clb2022}.\relax }}{27}{figure.caption.26}\protected@file@percent }
\newlabel{fg:hnn_clb}{{\M@TitleReference {2.4}{PL architecture. Taken from \cite  {clb2022}.\relax }}{27}{PL architecture. Taken from \cite {clb2022}.\relax }{figure.caption.26}{}}
\@writefile{lof}{\contentsline {subfigure}{\numberline{(a)}{\ignorespaces {CLB structure.}}}{27}{subfigure.4.1}\protected@file@percent }
\@writefile{lof}{\contentsline {subfigure}{\numberline{(b)}{\ignorespaces {SLICEM.}}}{27}{subfigure.4.2}\protected@file@percent }
\@writefile{lof}{\contentsline {figure}{\numberline {2.5}{\ignorespaces BRAM structure. Taken from \cite  {bram2022}.\relax }}{28}{figure.caption.27}\protected@file@percent }
\newlabel{fg:hnn_bram}{{\M@TitleReference {2.5}{BRAM structure. Taken from \cite  {bram2022}.\relax }}{28}{BRAM structure. Taken from \cite {bram2022}.\relax }{figure.caption.27}{}}
\@writefile{lof}{\contentsline {figure}{\numberline {2.6}{\ignorespaces Basic DSP48 Slice. Taken from \cite  {dsp482022}.\relax }}{28}{figure.caption.28}\protected@file@percent }
\newlabel{fg:hnn_dsp48}{{\M@TitleReference {2.6}{Basic DSP48 Slice. Taken from \cite  {dsp482022}.\relax }}{28}{Basic DSP48 Slice. Taken from \cite {dsp482022}.\relax }{figure.caption.28}{}}
\@writefile{lot}{\contentsline {table}{\numberline {2.4}{\ignorespaces XC7Z020-1CLG400C Specification.}}{28}{table.caption.29}\protected@file@percent }
\newlabel{tb:hnn_xc7}{{\M@TitleReference {2.4}{XC7Z020-1CLG400C Specification.}}{28}{XC7Z020-1CLG400C Specification}{table.caption.29}{}}
\@writefile{toc}{\contentsline {section}{\numberline {3}Hardware-software Development}{29}{section.2.3}\protected@file@percent }
\newlabel{sc:hnn_hw_dev}{{\M@TitleReference {3}{Hardware-software Development}}{29}{Hardware-software Development}{section.2.3}{}}
\@writefile{toc}{\contentsline {subsection}{\numberline {3.1}Base SoC Design}{29}{subsection.2.3.1}\protected@file@percent }
\@writefile{lof}{\contentsline {figure}{\numberline {2.7}{\ignorespaces Basic ARM SoC.\relax }}{29}{figure.caption.30}\protected@file@percent }
\newlabel{fg:hnn_basesoc}{{\M@TitleReference {2.7}{Basic ARM SoC.\relax }}{29}{Basic ARM SoC.\relax }{figure.caption.30}{}}
\@writefile{lof}{\contentsline {figure}{\numberline {2.8}{\ignorespaces Vivado Block Design for the Basic ARM SoC.\relax }}{29}{figure.caption.31}\protected@file@percent }
\newlabel{fg:hnn_basesoc_bd}{{\M@TitleReference {2.8}{Vivado Block Design for the Basic ARM SoC.\relax }}{29}{Vivado Block Design for the Basic ARM SoC.\relax }{figure.caption.31}{}}
\@writefile{loa}{\contentsline {algorithm}{\numberline {1}{\ignorespaces Function to read 4D tensors from the microSD.\relax }}{31}{algorithm.1}\protected@file@percent }
\newlabel{al:hnn_microsd}{{\M@TitleReference {1}{Function to read 4D tensors from the microSD.\relax }}{31}{Function to read 4D tensors from the microSD.\relax }{algorithm.1}{}}
\@writefile{toc}{\contentsline {subsection}{\numberline {3.2}Tflite Core}{31}{subsection.2.3.2}\protected@file@percent }
\@writefile{loa}{\contentsline {algorithm}{\numberline {2}{\ignorespaces Function SaturatingRoundingDoublingHighMul adapted from Tflite source code.\relax }}{31}{algorithm.2}\protected@file@percent }
\newlabel{al:hnn_srdhm}{{\M@TitleReference {2}{Function SaturatingRoundingDoublingHighMul adapted from Tflite source code.\relax }}{31}{Function SaturatingRoundingDoublingHighMul adapted from Tflite source code.\relax }{algorithm.2}{}}
\@writefile{loa}{\contentsline {algorithm}{\numberline {3}{\ignorespaces Function RoundingDivideByPOT adapted from Tflite.\relax }}{32}{algorithm.3}\protected@file@percent }
\newlabel{al:hnn_rdbp}{{\M@TitleReference {3}{Function RoundingDivideByPOT adapted from Tflite.\relax }}{32}{Function RoundingDivideByPOT adapted from Tflite.\relax }{algorithm.3}{}}
\@writefile{loa}{\contentsline {algorithm}{\numberline {4}{\ignorespaces Function MultiplyByQuantizedMultiplier adapted from Tflite.\relax }}{32}{algorithm.4}\protected@file@percent }
\newlabel{al:hnn_mbqm}{{\M@TitleReference {4}{Function MultiplyByQuantizedMultiplier adapted from Tflite.\relax }}{32}{Function MultiplyByQuantizedMultiplier adapted from Tflite.\relax }{algorithm.4}{}}
\@writefile{lof}{\contentsline {figure}{\numberline {2.9}{\ignorespaces Tflite Core.\relax }}{32}{figure.caption.32}\protected@file@percent }
\newlabel{fg:hnn_tflite_rtl}{{\M@TitleReference {2.9}{Tflite Core.\relax }}{32}{Tflite Core.\relax }{figure.caption.32}{}}
\@writefile{lof}{\contentsline {figure}{\numberline {2.10}{\ignorespaces Tflite Core Simulation.\relax }}{33}{figure.caption.33}\protected@file@percent }
\newlabel{fg:hnn_tflite_sim}{{\M@TitleReference {2.10}{Tflite Core Simulation.\relax }}{33}{Tflite Core Simulation.\relax }{figure.caption.33}{}}
\@writefile{loa}{\contentsline {algorithm}{\numberline {5}{\ignorespaces Function to write and read the tflite core registers.\relax }}{33}{algorithm.5}\protected@file@percent }
\newlabel{al:hnn_tflite_vitis}{{\M@TitleReference {5}{Function to write and read the tflite core registers.\relax }}{33}{Function to write and read the tflite core registers.\relax }{algorithm.5}{}}
\@writefile{toc}{\contentsline {subsection}{\numberline {3.3}Conv Core}{34}{subsection.2.3.3}\protected@file@percent }
\@writefile{loa}{\contentsline {algorithm}{\numberline {6}{\ignorespaces Tflite Convolution implemented in Numpy.\relax }}{34}{algorithm.6}\protected@file@percent }
\newlabel{al:hnn_cc_np}{{\M@TitleReference {6}{Tflite Convolution implemented in Numpy.\relax }}{34}{Tflite Convolution implemented in Numpy.\relax }{algorithm.6}{}}
\@writefile{lof}{\contentsline {figure}{\numberline {2.11}{\ignorespaces Conv Core.\relax }}{35}{figure.caption.34}\protected@file@percent }
\newlabel{fg:hnn_cc_rtl}{{\M@TitleReference {2.11}{Conv Core.\relax }}{35}{Conv Core.\relax }{figure.caption.34}{}}
\@writefile{lof}{\contentsline {figure}{\numberline {2.12}{\ignorespaces Conv Core Simulation.\relax }}{35}{figure.caption.35}\protected@file@percent }
\newlabel{fg:hnn_cc_sim}{{\M@TitleReference {2.12}{Conv Core Simulation.\relax }}{35}{Conv Core Simulation.\relax }{figure.caption.35}{}}
\@writefile{loa}{\contentsline {algorithm}{\numberline {7}{\ignorespaces Function to write and read the Conv core registers.\relax }}{35}{algorithm.7}\protected@file@percent }
\newlabel{al:hnn_cc_vitis}{{\M@TitleReference {7}{Function to write and read the Conv core registers.\relax }}{35}{Function to write and read the Conv core registers.\relax }{algorithm.7}{}}
\@writefile{loa}{\contentsline {algorithm}{\numberline {8}{\ignorespaces Function to compute a convolutional layer\relax }}{36}{algorithm.8}\protected@file@percent }
\newlabel{al:hnn_cl_vitis}{{\M@TitleReference {8}{Function to compute a convolutional layer\relax }}{36}{Function to compute a convolutional layer\relax }{algorithm.8}{}}
\@writefile{toc}{\contentsline {subsection}{\numberline {3.4}MaxPooling Core}{36}{subsection.2.3.4}\protected@file@percent }
\@writefile{loa}{\contentsline {algorithm}{\numberline {9}{\ignorespaces Tflite MaxPooling implemented in Numpy.\relax }}{36}{algorithm.9}\protected@file@percent }
\newlabel{al:hnn_mp_np}{{\M@TitleReference {9}{Tflite MaxPooling implemented in Numpy.\relax }}{36}{Tflite MaxPooling implemented in Numpy.\relax }{algorithm.9}{}}
\@writefile{lof}{\contentsline {figure}{\numberline {2.13}{\ignorespaces MaxPooling Core.\relax }}{37}{figure.caption.36}\protected@file@percent }
\newlabel{fg:hnn_mp_rtl}{{\M@TitleReference {2.13}{MaxPooling Core.\relax }}{37}{MaxPooling Core.\relax }{figure.caption.36}{}}
\@writefile{loa}{\contentsline {algorithm}{\numberline {10}{\ignorespaces Function to write and read the mp\_22 core registers.\relax }}{37}{algorithm.10}\protected@file@percent }
\newlabel{al:hnn_mp_vitis}{{\M@TitleReference {10}{Function to write and read the mp\_22 core registers.\relax }}{37}{Function to write and read the mp\_22 core registers.\relax }{algorithm.10}{}}
\@writefile{toc}{\contentsline {subsection}{\numberline {3.5}Dense Core}{37}{subsection.2.3.5}\protected@file@percent }
\@writefile{loa}{\contentsline {algorithm}{\numberline {11}{\ignorespaces Function to compute the maxpooling layer.\relax }}{38}{algorithm.11}\protected@file@percent }
\newlabel{al:hnn_mpl_vitis}{{\M@TitleReference {11}{Function to compute the maxpooling layer.\relax }}{38}{Function to compute the maxpooling layer.\relax }{algorithm.11}{}}
\@writefile{loa}{\contentsline {algorithm}{\numberline {12}{\ignorespaces Tflite Dense implemented in Numpy.\relax }}{38}{algorithm.12}\protected@file@percent }
\newlabel{al:hnn_ds_np}{{\M@TitleReference {12}{Tflite Dense implemented in Numpy.\relax }}{38}{Tflite Dense implemented in Numpy.\relax }{algorithm.12}{}}
\@writefile{lof}{\contentsline {figure}{\numberline {2.14}{\ignorespaces Dense Core.\relax }}{39}{figure.caption.37}\protected@file@percent }
\newlabel{fg:hnn_ds_rtl}{{\M@TitleReference {2.14}{Dense Core.\relax }}{39}{Dense Core.\relax }{figure.caption.37}{}}
\@writefile{loa}{\contentsline {algorithm}{\numberline {13}{\ignorespaces Function to write and read the Dense core registers .\relax }}{39}{algorithm.13}\protected@file@percent }
\newlabel{al:hnn_dc_vitis}{{\M@TitleReference {13}{Function to write and read the Dense core registers .\relax }}{39}{Function to write and read the Dense core registers .\relax }{algorithm.13}{}}
\@writefile{toc}{\contentsline {subsection}{\numberline {3.6}Additional functions}{39}{subsection.2.3.6}\protected@file@percent }
\@writefile{loa}{\contentsline {algorithm}{\numberline {14}{\ignorespaces Function to compute a dense layer\relax }}{40}{algorithm.14}\protected@file@percent }
\newlabel{al:hnn_dl_vitis}{{\M@TitleReference {14}{Function to compute a dense layer\relax }}{40}{Function to compute a dense layer\relax }{algorithm.14}{}}
\@writefile{loa}{\contentsline {algorithm}{\numberline {15}{\ignorespaces Function to compute the padding layer.\relax }}{40}{algorithm.15}\protected@file@percent }
\newlabel{al:hnn_padding}{{\M@TitleReference {15}{Function to compute the padding layer.\relax }}{40}{Function to compute the padding layer.\relax }{algorithm.15}{}}
\@writefile{loa}{\contentsline {algorithm}{\numberline {16}{\ignorespaces Function to compute the flatten layer.\relax }}{40}{algorithm.16}\protected@file@percent }
\newlabel{al:hnn_flatten}{{\M@TitleReference {16}{Function to compute the flatten layer.\relax }}{40}{Function to compute the flatten layer.\relax }{algorithm.16}{}}
\@writefile{toc}{\contentsline {section}{\numberline {4}Putting all together: the Hardware Neural Network Accelerator}{41}{section.2.4}\protected@file@percent }
\newlabel{sc:hnn_hw_acc}{{\M@TitleReference {4}{Putting all together: the Hardware Neural Network Accelerator}}{41}{Putting all together: the Hardware Neural Network Accelerator}{section.2.4}{}}
\@writefile{toc}{\contentsline {subsection}{\numberline {4.1}FER SoC design}{41}{subsection.2.4.1}\protected@file@percent }
\@writefile{lof}{\contentsline {figure}{\numberline {2.15}{\ignorespaces FER SoC.\relax }}{41}{figure.caption.38}\protected@file@percent }
\newlabel{fg:hnn_fer_soc}{{\M@TitleReference {2.15}{FER SoC.\relax }}{41}{FER SoC.\relax }{figure.caption.38}{}}
\newlabel{RF1}{42}
\@writefile{lof}{\contentsline {figure}{\numberline {2.16}{\ignorespaces Vivado Block Design for the FER SoC.\relax }}{42}{figure.caption.39}\protected@file@percent }
\newlabel{fg:hnn_fer_soc_bd}{{\M@TitleReference {2.16}{Vivado Block Design for the FER SoC.\relax }}{42}{Vivado Block Design for the FER SoC.\relax }{figure.caption.39}{}}
\@writefile{lof}{\contentsline {figure}{\numberline {2.17}{\ignorespaces Memory map for the FER SoC.\relax }}{43}{figure.caption.40}\protected@file@percent }
\newlabel{fg:hnn_fer_soc_addr}{{\M@TitleReference {2.17}{Memory map for the FER SoC.\relax }}{43}{Memory map for the FER SoC.\relax }{figure.caption.40}{}}
\@writefile{lot}{\contentsline {table}{\numberline {2.5}{\ignorespaces FER SoC Utilization.}}{43}{table.caption.41}\protected@file@percent }
\newlabel{tb:hnn_fer_soc_utilization}{{\M@TitleReference {2.5}{FER SoC Utilization.}}{43}{FER SoC Utilization}{table.caption.41}{}}
\@writefile{lof}{\contentsline {figure}{\numberline {2.18}{\ignorespaces FER SoC place and route.\relax }}{44}{figure.caption.42}\protected@file@percent }
\newlabel{fg:hnn_fer_soc_pr}{{\M@TitleReference {2.18}{FER SoC place and route.\relax }}{44}{FER SoC place and route.\relax }{figure.caption.42}{}}
\@writefile{lof}{\contentsline {figure}{\numberline {2.19}{\ignorespaces FER SoC power consumption.\relax }}{44}{figure.caption.43}\protected@file@percent }
\newlabel{fg:hnn_fer_soc_power}{{\M@TitleReference {2.19}{FER SoC power consumption.\relax }}{44}{FER SoC power consumption.\relax }{figure.caption.43}{}}
\@writefile{toc}{\contentsline {subsection}{\numberline {4.2}FER SoC testing}{45}{subsection.2.4.2}\protected@file@percent }
\@writefile{loa}{\contentsline {algorithm}{\numberline {17}{\ignorespaces Function to execute the M6 inference.\relax }}{45}{algorithm.17}\protected@file@percent }
\newlabel{al:hnn_sw_M6}{{\M@TitleReference {17}{Function to execute the M6 inference.\relax }}{45}{Function to execute the M6 inference.\relax }{algorithm.17}{}}
\@writefile{lof}{\contentsline {figure}{\numberline {2.20}{\ignorespaces Running the inference of a CNN-based FER system in the accelerator.\relax }}{46}{figure.caption.44}\protected@file@percent }
\newlabel{fg:hw_sw_simple}{{\M@TitleReference {2.20}{Running the inference of a CNN-based FER system in the accelerator.\relax }}{46}{Running the inference of a CNN-based FER system in the accelerator.\relax }{figure.caption.44}{}}
\@writefile{lot}{\contentsline {table}{\numberline {2.6}{\ignorespaces M6 inference perfomance comparison.}}{47}{table.caption.45}\protected@file@percent }
\newlabel{tb:hnn_M6_performance_comp}{{\M@TitleReference {2.6}{M6 inference perfomance comparison.}}{47}{M6 inference perfomance comparison}{table.caption.45}{}}
\@writefile{toc}{\contentsline {section}{\numberline {5}Discussion}{47}{section.2.5}\protected@file@percent }
\newlabel{sc:hnn_dis}{{\M@TitleReference {5}{Discussion}}{47}{Discussion}{section.2.5}{}}
\@writefile{toc}{\contentsline {section}{\numberline {6}Conclusion}{47}{section.2.6}\protected@file@percent }
\newlabel{sc:hnn_con}{{\M@TitleReference {6}{Conclusion}}{47}{Conclusion}{section.2.6}{}}
\citation{tltf2022}
\@writefile{lof}{\addvspace {10pt}}
\@writefile{lot}{\addvspace {10pt}}
\@writefile{toc}{\contentsline {chapter}{\chapternumberline {3}Resiliency: A Framework for Training a CNN with a custom Hardware-Software (HW-SW) Architecture.}{48}{chapter.3}\protected@file@percent }
\newlabel{ch:frame}{{\M@TitleReference {3}{Resiliency: A Framework for Training a CNN with a custom Hardware-Software (HW-SW) Architecture.}}{48}{Resiliency: A Framework for Training a CNN with a custom Hardware-Software (HW-SW) Architecture}{chapter.3}{}}
\citation{alexa}
\citation{heygoogle}
\citation{vector}
\citation{vectorddl}
\citation{emo}
\citation{vector}
\citation{vector}
\citation{emo}
\citation{emo}
\citation{coral2022}
\citation{ncs22022}
\citation{coral2022}
\citation{coral2022}
\citation{ncs22022}
\citation{ncs22022}
\citation{tltf2022}
\@writefile{toc}{\contentsline {section}{\numberline {1}Custom hardware-software architectures aimed to ML algorithms}{49}{section.3.1}\protected@file@percent }
\newlabel{sc:frame_soa}{{\M@TitleReference {1}{Custom hardware-software architectures aimed to ML algorithms}}{49}{Custom hardware-software architectures aimed to ML algorithms}{section.3.1}{}}
\@writefile{lof}{\contentsline {figure}{\numberline {3.1}{\ignorespaces Examples of AI desktop pets: Vector by DDL and EMO by Living AI.\relax }}{49}{figure.caption.46}\protected@file@percent }
\newlabel{fg:frame_pets}{{\M@TitleReference {3.1}{Examples of AI desktop pets: Vector by DDL and EMO by Living AI.\relax }}{49}{Examples of AI desktop pets: Vector by DDL and EMO by Living AI.\relax }{figure.caption.46}{}}
\@writefile{lof}{\contentsline {subfigure}{\numberline{(a)}{\ignorespaces {Vector Robot is based on a Qualcomm 200 Processor. Taken from \cite {vector}.}}}{49}{subfigure.1.1}\protected@file@percent }
\@writefile{lof}{\contentsline {subfigure}{\numberline{(b)}{\ignorespaces {EMO Robot uses a CPU with a NN processor. Taken from \cite {emo}.}}}{49}{subfigure.1.2}\protected@file@percent }
\citation{vitisai2022}
\citation{alveo2022}
\citation{vitisai2022}
\citation{vitisai2022}
\citation{alveo2022}
\citation{alveo2022}
\@writefile{lof}{\contentsline {figure}{\numberline {3.2}{\ignorespaces Hardware devices for acceleration.\relax }}{50}{figure.caption.47}\protected@file@percent }
\newlabel{fg:frame_acc_dev}{{\M@TitleReference {3.2}{Hardware devices for acceleration.\relax }}{50}{Hardware devices for acceleration.\relax }{figure.caption.47}{}}
\@writefile{lof}{\contentsline {subfigure}{\numberline{(a)}{\ignorespaces {Coral devices by Google. Taken from \cite {coral2022}.}}}{50}{subfigure.2.1}\protected@file@percent }
\@writefile{lof}{\contentsline {subfigure}{\numberline{(b)}{\ignorespaces {Intel NCS2. Taken from \cite {ncs22022}}}}{50}{subfigure.2.2}\protected@file@percent }
\@writefile{lof}{\contentsline {figure}{\numberline {3.3}{\ignorespaces Vitis AI and hardware platforms by Xilinx.\relax }}{50}{figure.caption.48}\protected@file@percent }
\newlabel{fg:frame_vitisai}{{\M@TitleReference {3.3}{Vitis AI and hardware platforms by Xilinx.\relax }}{50}{Vitis AI and hardware platforms by Xilinx.\relax }{figure.caption.48}{}}
\@writefile{lof}{\contentsline {subfigure}{\numberline{(a)}{\ignorespaces {Vitis AI environment. Taken from \cite {vitisai2022}.}}}{50}{subfigure.3.1}\protected@file@percent }
\@writefile{lof}{\contentsline {subfigure}{\numberline{(b)}{\ignorespaces {Alveo U200. Taken from \cite {alveo2022}.}}}{50}{subfigure.3.2}\protected@file@percent }
\citation{pynq2022}
\citation{bsp2022}
\citation{pynq2022}
\citation{pynq2022}
\citation{dpu2022}
\citation{pynqzyboz72022}
\@writefile{lof}{\contentsline {figure}{\numberline {3.4}{\ignorespaces Pynq development environment. Taken from \cite  {pynq2022}.\relax }}{51}{figure.caption.49}\protected@file@percent }
\newlabel{fg:frame_pynq}{{\M@TitleReference {3.4}{Pynq development environment. Taken from \cite  {pynq2022}.\relax }}{51}{Pynq development environment. Taken from \cite {pynq2022}.\relax }{figure.caption.49}{}}
\@writefile{toc}{\contentsline {section}{\numberline {2}Creating a Pynq image for Zybo-Z7}{51}{section.3.2}\protected@file@percent }
\newlabel{sc:frame_pynq}{{\M@TitleReference {2}{Creating a Pynq image for Zybo-Z7}}{51}{Creating a Pynq image for Zybo-Z7}{section.3.2}{}}
\citation{pynqrtg2022}
\@writefile{toc}{\contentsline {subsection}{\numberline {2.1}Create the Board Directory}{52}{subsection.3.2.1}\protected@file@percent }
\citation{zyboz7rm2022}
\@writefile{lol}{\contentsline {lstlisting}{\numberline {3.1}Zybo-Z7.spec}{53}{lstlisting.3.1}\protected@file@percent }
\@writefile{toc}{\contentsline {subsection}{\numberline {2.2}Create the Board Support Package (BSP) (30 min approx.)}{53}{subsection.3.2.2}\protected@file@percent }
\@writefile{lof}{\contentsline {figure}{\numberline {3.5}{\ignorespaces Board Support Package adapted for the Zybo-Z7 board.\relax }}{53}{figure.caption.50}\protected@file@percent }
\newlabel{fg:frame_bsp}{{\M@TitleReference {3.5}{Board Support Package adapted for the Zybo-Z7 board.\relax }}{53}{Board Support Package adapted for the Zybo-Z7 board.\relax }{figure.caption.50}{}}
\@writefile{lof}{\contentsline {figure}{\numberline {3.6}{\ignorespaces Vivado Block design for the BSP targetted to the Zybo-Z7 board.\relax }}{54}{figure.caption.51}\protected@file@percent }
\newlabel{fg:frame_bd_bsp}{{\M@TitleReference {3.6}{Vivado Block design for the BSP targetted to the Zybo-Z7 board.\relax }}{54}{Vivado Block design for the BSP targetted to the Zybo-Z7 board.\relax }{figure.caption.51}{}}
\newlabel{lst:frame_bsp}{{\M@TitleReference {3.2}{Create the Board Support Package (BSP) (30 min approx.)}}{55}{Zybo-Z7.spec}{lstlisting.3.2}{}}
\@writefile{lol}{\contentsline {lstlisting}{\numberline {3.2}Zybo-Z7.spec.}{55}{lstlisting.3.2}\protected@file@percent }
\@writefile{toc}{\contentsline {subsection}{\numberline {2.3}Create the image (2h30 min approx.)}{55}{subsection.3.2.3}\protected@file@percent }
\@writefile{lof}{\contentsline {figure}{\numberline {3.7}{\ignorespaces Block diagram of base overlay defined in \textit  {base.tcl}.\relax }}{56}{figure.caption.52}\protected@file@percent }
\newlabel{fg:frame_base_simple}{{\M@TitleReference {3.7}{Block diagram of base overlay defined in \textit  {base.tcl}.\relax }}{56}{Block diagram of base overlay defined in \textit {base.tcl}.\relax }{figure.caption.52}{}}
\newlabel{lst:frame_img}{{\M@TitleReference {3.3}{Create the image (2h30 min approx.)}}{56}{Image building}{lstlisting.3.3}{}}
\@writefile{lol}{\contentsline {lstlisting}{\numberline {3.3}Image building.}{56}{lstlisting.3.3}\protected@file@percent }
\@writefile{lof}{\contentsline {figure}{\numberline {3.8}{\ignorespaces Vivado Block design of base overlay defined in \textit  {base.tcl}.\relax }}{57}{figure.caption.53}\protected@file@percent }
\newlabel{fg:frame_bd_base}{{\M@TitleReference {3.8}{Vivado Block design of base overlay defined in \textit  {base.tcl}.\relax }}{57}{Vivado Block design of base overlay defined in \textit {base.tcl}.\relax }{figure.caption.53}{}}
\@writefile{toc}{\contentsline {subsection}{\numberline {2.4}Copy image to micro SD card (20 min approx.)}{58}{subsection.3.2.4}\protected@file@percent }
\newlabel{lst:frame_img_sdcard}{{\M@TitleReference {3.4}{Copy image to micro SD card (20 min approx.)}}{58}{Copying image to SD card}{lstlisting.3.4}{}}
\@writefile{lol}{\contentsline {lstlisting}{\numberline {3.4}Copying image to SD card.}{58}{lstlisting.3.4}\protected@file@percent }
\@writefile{lof}{\contentsline {figure}{\numberline {3.9}{\ignorespaces Pynq\nobreakspace  {}2.7 running on Zybo-Z7.\relax }}{58}{figure.caption.54}\protected@file@percent }
\newlabel{fg:frame_pynq_zyboz7}{{\M@TitleReference {3.9}{Pynq\nobreakspace  {}2.7 running on Zybo-Z7.\relax }}{58}{Pynq~2.7 running on Zybo-Z7.\relax }{figure.caption.54}{}}
\citation{logictronix2022}
\@writefile{toc}{\contentsline {section}{\numberline {3}Testing ML Frameworks on the hw-sw architectures proposed}{59}{section.3.3}\protected@file@percent }
\newlabel{sc:frame_ml}{{\M@TitleReference {3}{Testing ML Frameworks on the hw-sw architectures proposed}}{59}{Testing ML Frameworks on the hw-sw architectures proposed}{section.3.3}{}}
\@writefile{toc}{\contentsline {subsection}{\numberline {3.1}Tensorflow 2.5 in Zybo-Z7 running Pynq 2.7}{59}{subsection.3.3.1}\protected@file@percent }
\newlabel{ssc:tf}{{\M@TitleReference {3.1}{Tensorflow 2.5 in Zybo-Z7 running Pynq 2.7}}{59}{Tensorflow 2.5 in Zybo-Z7 running Pynq 2.7}{subsection.3.3.1}{}}
\@writefile{toc}{\contentsline {subsubsection}{\numberline {3.1.1}Installing Python3.7 (50 min approx.)}{59}{subsubsection.3.3.1.1}\protected@file@percent }
\newlabel{lst:frame_python37}{{\M@TitleReference {3.5}{Installing Python3.7 (50 min approx.)}}{59}{Installing Python3.7 on Pynq~2.7}{lstlisting.3.5}{}}
\@writefile{lol}{\contentsline {lstlisting}{\numberline {3.5}Installing Python3.7 on Pynq\nobreakspace  {}2.7.}{59}{lstlisting.3.5}\protected@file@percent }
\@writefile{toc}{\contentsline {subsubsection}{\numberline {3.1.2}Create a virtual environment for Python3.7 (5 min approx.)}{59}{subsubsection.3.3.1.2}\protected@file@percent }
\citation{hyodo2022}
\newlabel{lst:frame_python37_env}{{\M@TitleReference {3.6}{Create a virtual environment for Python3.7 (5 min approx.)}}{60}{Creating a virtual environment for Python3.7}{lstlisting.3.6}{}}
\@writefile{lol}{\contentsline {lstlisting}{\numberline {3.6}Creating a virtual environment for Python3.7.}{60}{lstlisting.3.6}\protected@file@percent }
\@writefile{toc}{\contentsline {subsubsection}{\numberline {3.1.3}Install TensorFlow in the virtual environment (\textgreater \nobreakspace  {}5h approx.)}{60}{subsubsection.3.3.1.3}\protected@file@percent }
\newlabel{lst:frame_tfhyodo}{{\M@TitleReference {3.7}{Install TensorFlow in the virtual environment (\textgreater \nobreakspace  {}5h approx.)}}{60}{Hyodo scripts for downloading TF wheel}{lstlisting.3.7}{}}
\@writefile{lol}{\contentsline {lstlisting}{\numberline {3.7}Hyodo scripts for downloading TF wheel.}{60}{lstlisting.3.7}\protected@file@percent }
\newlabel{lst:frame_tf25}{{\M@TitleReference {3.8}{Install TensorFlow in the virtual environment (\textgreater \nobreakspace  {}5h approx.)}}{60}{Installing TensorFlow 2.5 wheel}{lstlisting.3.8}{}}
\@writefile{lol}{\contentsline {lstlisting}{\numberline {3.8}Installing TensorFlow 2.5 wheel.}{60}{lstlisting.3.8}\protected@file@percent }
\@writefile{toc}{\contentsline {subsubsection}{\numberline {3.1.4}Create the IPython Kernel (1h approx.)}{61}{subsubsection.3.3.1.4}\protected@file@percent }
\newlabel{lst:frame_tf_kernel}{{\M@TitleReference {3.9}{Create the IPython Kernel (1h approx.)}}{61}{IPython kernel with TensorFlow 2.5}{lstlisting.3.9}{}}
\@writefile{lol}{\contentsline {lstlisting}{\numberline {3.9}IPython kernel with TensorFlow 2.5.}{61}{lstlisting.3.9}\protected@file@percent }
\@writefile{toc}{\contentsline {subsubsection}{\numberline {3.1.5}Testing Tensorflow\nobreakspace  {}2.5 running on Zybo-Z7 with Pynq 2.7}{61}{subsubsection.3.3.1.5}\protected@file@percent }
\@writefile{lof}{\contentsline {figure}{\numberline {3.10}{\ignorespaces Tensorflow running on Zybo-Z7 with Pynq.\relax }}{61}{figure.caption.55}\protected@file@percent }
\newlabel{fg:frame_tf_pynq}{{\M@TitleReference {3.10}{Tensorflow running on Zybo-Z7 with Pynq.\relax }}{61}{Tensorflow running on Zybo-Z7 with Pynq.\relax }{figure.caption.55}{}}
\@writefile{lof}{\contentsline {figure}{\numberline {3.11}{\ignorespaces TensorFlow \textit  {model.fit} error.\relax }}{62}{figure.caption.56}\protected@file@percent }
\newlabel{fg:frame_tf_error}{{\M@TitleReference {3.11}{TensorFlow \textit  {model.fit} error.\relax }}{62}{TensorFlow \textit {model.fit} error.\relax }{figure.caption.56}{}}
\@writefile{toc}{\contentsline {subsection}{\numberline {3.2}PyTorch 1.8 in Zybo-Z7 running Pynq 2.7}{63}{subsection.3.3.2}\protected@file@percent }
\newlabel{ssc:pytorch}{{\M@TitleReference {3.2}{PyTorch 1.8 in Zybo-Z7 running Pynq 2.7}}{63}{PyTorch 1.8 in Zybo-Z7 running Pynq 2.7}{subsection.3.3.2}{}}
\@writefile{toc}{\contentsline {subsubsection}{\numberline {3.2.1}Installing Python3.7 (50 min approx.)}{63}{subsubsection.3.3.2.1}\protected@file@percent }
\newlabel{lst:frame_pytorch_python}{{\M@TitleReference {3.10}{Installing Python3.7 (50 min approx.)}}{63}{Installing Python3.7 on Pynq 2.7}{lstlisting.3.10}{}}
\@writefile{lol}{\contentsline {lstlisting}{\numberline {3.10}Installing Python3.7 on Pynq 2.7.}{63}{lstlisting.3.10}\protected@file@percent }
\@writefile{toc}{\contentsline {subsubsection}{\numberline {3.2.2}Create a virtual environment for Python3.7 (5 min approx.)}{63}{subsubsection.3.3.2.2}\protected@file@percent }
\newlabel{lst:frame_pytorch_env}{{\M@TitleReference {3.11}{Create a virtual environment for Python3.7 (5 min approx.)}}{63}{Creating IPython kernel for PyTorch~1.8 on Pynq 2.7}{lstlisting.3.11}{}}
\@writefile{lol}{\contentsline {lstlisting}{\numberline {3.11}Creating IPython kernel for PyTorch\nobreakspace  {}1.8 on Pynq 2.7.}{63}{lstlisting.3.11}\protected@file@percent }
\@writefile{toc}{\contentsline {subsubsection}{\numberline {3.2.3}Install PyTorch in the virtual environment (\textgreater \nobreakspace  {}2h approx.)}{63}{subsubsection.3.3.2.3}\protected@file@percent }
\newlabel{lst:frame_pytorch}{{\M@TitleReference {3.12}{Install PyTorch in the virtual environment (\textgreater \nobreakspace  {}2h approx.)}}{64}{Installing PyTorch 1.8}{lstlisting.3.12}{}}
\@writefile{lol}{\contentsline {lstlisting}{\numberline {3.12}Installing PyTorch 1.8}{64}{lstlisting.3.12}\protected@file@percent }
\@writefile{toc}{\contentsline {subsubsection}{\numberline {3.2.4}Create the IPython Kernel (1h approx.)}{64}{subsubsection.3.3.2.4}\protected@file@percent }
\newlabel{lst:frame_pytorch_kernel}{{\M@TitleReference {3.13}{Create the IPython Kernel (1h approx.)}}{64}{Creating the IPython kernel for PyTorch 1.8}{lstlisting.3.13}{}}
\@writefile{lol}{\contentsline {lstlisting}{\numberline {3.13}Creating the IPython kernel for PyTorch 1.8}{64}{lstlisting.3.13}\protected@file@percent }
\@writefile{toc}{\contentsline {subsubsection}{\numberline {3.2.5}Testing PyTorch\nobreakspace  {}1.8 running on Zybo-Z7 with Pynq 2.7}{64}{subsubsection.3.3.2.5}\protected@file@percent }
\@writefile{lot}{\contentsline {table}{\numberline {3.1}{\ignorespaces Loss values for laptop and the hw-sw architecture proposed.}}{65}{table.caption.57}\protected@file@percent }
\newlabel{tb:frame_pytorch_loss}{{\M@TitleReference {3.1}{Loss values for laptop and the hw-sw architecture proposed.}}{65}{Loss values for laptop and the hw-sw architecture proposed}{table.caption.57}{}}
\@writefile{lof}{\contentsline {figure}{\numberline {3.12}{\ignorespaces PyTorch 1.8 running on Zybo-Z7 with Pynq.\relax }}{65}{figure.caption.58}\protected@file@percent }
\newlabel{fg:frame_pytorch_pynq}{{\M@TitleReference {3.12}{PyTorch 1.8 running on Zybo-Z7 with Pynq.\relax }}{65}{PyTorch 1.8 running on Zybo-Z7 with Pynq.\relax }{figure.caption.58}{}}
\@writefile{toc}{\contentsline {subsection}{\numberline {3.3}Testing model M6 in Zybo-Z7 running Pynq 2.7}{66}{subsection.3.3.3}\protected@file@percent }
\@writefile{loa}{\contentsline {algorithm}{\numberline {18}{\ignorespaces Model M6 class for PyTorch.\relax }}{66}{algorithm.18}\protected@file@percent }
\newlabel{al:frame_M6_pytorch}{{\M@TitleReference {18}{Model M6 class for PyTorch.\relax }}{66}{Model M6 class for PyTorch.\relax }{algorithm.18}{}}
\@writefile{lof}{\contentsline {figure}{\numberline {3.13}{\ignorespaces Hw-sw architecture for training the model M6 with PyTorch 1.8 in Pynq 2.7.\relax }}{67}{figure.caption.59}\protected@file@percent }
\newlabel{fg:frame_hwsw_pytorch_pynq}{{\M@TitleReference {3.13}{Hw-sw architecture for training the model M6 with PyTorch 1.8 in Pynq 2.7.\relax }}{67}{Hw-sw architecture for training the model M6 with PyTorch 1.8 in Pynq 2.7.\relax }{figure.caption.59}{}}
\@writefile{lot}{\contentsline {table}{\numberline {3.2}{\ignorespaces M6 training perfomance comparison.}}{67}{table.caption.60}\protected@file@percent }
\newlabel{tb:frame_M6_performance_comp}{{\M@TitleReference {3.2}{M6 training perfomance comparison.}}{67}{M6 training perfomance comparison}{table.caption.60}{}}
\citation{argus2019}
\citation{recon2019}
\citation{tf2fpga2019}
\citation{dpuframe2020}
\citation{omni2021}
\@writefile{toc}{\contentsline {section}{\numberline {4}Resiliency: A Framework for Training a CNN with a custom Hardware-Software Architecture.}{68}{section.3.4}\protected@file@percent }
\newlabel{sc:frame}{{\M@TitleReference {4}{Resiliency: A Framework for Training a CNN with a custom Hardware-Software Architecture.}}{68}{Resiliency: A Framework for Training a CNN with a custom Hardware-Software Architecture}{section.3.4}{}}
\citation{mpsoc2022}
\@writefile{loa}{\contentsline {algorithm}{\numberline {19}{\ignorespaces Framework for FER systems in a custom HW-SW architecture.\relax }}{69}{algorithm.19}\protected@file@percent }
\newlabel{al:frame_alg}{{\M@TitleReference {19}{Framework for FER systems in a custom HW-SW architecture.\relax }}{69}{Framework for FER systems in a custom HW-SW architecture.\relax }{algorithm.19}{}}
\newlabel{RF2}{70}
\@writefile{lof}{\contentsline {figure}{\numberline {3.14}{\ignorespaces Resiliency framework overview.\relax }}{70}{figure.caption.61}\protected@file@percent }
\newlabel{fg:frame_simple}{{\M@TitleReference {3.14}{Resiliency framework overview.\relax }}{70}{Resiliency framework overview.\relax }{figure.caption.61}{}}
\citation{mpsoc2022}
\citation{dpu2022}
\citation{dpu2022}
\citation{tltf2022}
\@writefile{toc}{\contentsline {section}{\numberline {5}Discussion}{71}{section.3.5}\protected@file@percent }
\newlabel{sc:frame_dis}{{\M@TitleReference {5}{Discussion}}{71}{Discussion}{section.3.5}{}}
\@writefile{toc}{\contentsline {section}{\numberline {6}Conclusion}{72}{section.3.6}\protected@file@percent }
\newlabel{sc:frame_con}{{\M@TitleReference {6}{Conclusion}}{72}{Conclusion}{section.3.6}{}}
\bibstyle{IEEEtran}
\bibdata{bibliography}
\bibcite{kan2001}{1}
\bibcite{jaf2020}{2}
\bibcite{kha2021}{3}
\bibcite{sag2013}{4}
\bibcite{yan2017}{5}
\bibcite{kim2019}{6}
\bibcite{zyboz72022}{7}
\bibcite{zyboz7rm2022}{8}
\bibcite{clb2022}{9}
\bibcite{bram2022}{10}
\bibcite{dsp482022}{11}
\bibcite{pynq2022}{12}
\bibcite{jac2017}{13}
\@writefile{toc}{\contentsline {chapter}{Bibliography}{75}{chapter*.63}\protected@file@percent }
\bibcite{bet2012}{14}
\bibcite{omni2021}{15}
\bibcite{dpuframe2020}{16}
\bibcite{xie2019}{17}
\bibcite{li2018}{18}
\bibcite{tf2017}{19}
\bibcite{qat2022}{20}
\bibcite{merenda2020}{21}
\bibcite{tltf2022}{22}
\bibcite{jaf1998}{23}
\bibcite{udd2017}{24}
\bibcite{zha2017}{25}
\bibcite{kan2010}{26}
\bibcite{vio2004}{27}
\bibcite{kng2021}{28}
\bibcite{dlib2009}{29}
\bibcite{ocv2021}{30}
\bibcite{sci2014}{31}
\bibcite{lbp2021}{32}
\bibcite{alb2020}{33}
\bibcite{earlystopping}{34}
\bibcite{reducelronplateau}{35}
\bibcite{pruning2023}{36}
\bibcite{qsp2022}{37}
\bibcite{fpga2022}{38}
\bibcite{alexa}{39}
\bibcite{heygoogle}{40}
\bibcite{vector}{41}
\bibcite{vectorddl}{42}
\bibcite{emo}{43}
\bibcite{coral2022}{44}
\bibcite{ncs22022}{45}
\bibcite{vitisai2022}{46}
\bibcite{alveo2022}{47}
\bibcite{bsp2022}{48}
\bibcite{dpu2022}{49}
\bibcite{pynqzyboz72022}{50}
\bibcite{pynqrtg2022}{51}
\bibcite{logictronix2022}{52}
\bibcite{hyodo2022}{53}
\bibcite{argus2019}{54}
\bibcite{recon2019}{55}
\bibcite{tf2fpga2019}{56}
\bibcite{mpsoc2022}{57}
\bibcite{zhang2015}{58}
\bibcite{venieris2016}{59}
\bibcite{dundar2016}{60}
\bibcite{misra2010}{61}
\bibcite{li2016}{62}
\bibcite{cf2017}{63}
\bibcite{mt2017}{64}
\bibcite{ct2017}{65}
\bibcite{chen2014}{66}
\bibcite{zhou2015}{67}
\bibcite{murakimi2016}{68}
\bibcite{kitchenham2009}{69}
\bibcite{kitchenham2010}{70}
\bibcite{krizhevsky2014}{71}
\bibcite{chetlur2014}{72}
\bibcite{ortega2016}{73}
\bibcite{farabet2011}{74}
\bibcite{rana2012}{75}
\bibcite{shak2013}{76}
\bibcite{moha2013}{77}
\bibcite{singh2015}{78}
\bibcite{du2015}{79}
\bibcite{motamedi2016}{80}
\bibcite{saldanha2016}{81}
\bibcite{wang2016}{82}
\bibcite{kyrkou2016}{83}
\bibcite{luo2016}{84}
\bibcite{duffner2007}{85}
\bibcite{saidane2011}{86}
\citation{zhang2015}
\citation{venieris2016}
\citation{dundar2016}
\citation{misra2010}
\citation{li2016}
\citation{cf2017}
\citation{mt2017}
\citation{tf2017}
\citation{ct2017}
\citation{chen2014}
\citation{zhou2015}
\citation{murakimi2016}
\citation{misra2010}
\citation{kitchenham2009}
\citation{kitchenham2010}
\citation{kitchenham2009}
\citation{kitchenham2010}
\citation{zhang2015}
\citation{venieris2016}
\citation{dundar2016}
\citation{krizhevsky2014}
\citation{chetlur2014}
\citation{dundar2016}
\citation{dundar2016}
\citation{ortega2016}
\@writefile{lof}{\addvspace {10pt}}
\@writefile{lot}{\addvspace {10pt}}
\@writefile{toc}{\contentsline {appendix}{\chapternumberline {A}State of the art of the Hardware Neural Networks (HNNs)}{81}{appendix.A}\protected@file@percent }
\newlabel{ch:soa}{{\M@TitleReference {A}{State of the art of the Hardware Neural Networks (HNNs)}}{81}{State of the art of the Hardware Neural Networks (HNNs)}{appendix.A}{}}
\@writefile{toc}{\contentsline {section}{\numberline {1}Systematic Literature Review Method}{81}{section.A.1}\protected@file@percent }
\@writefile{toc}{\contentsline {subsection}{\numberline {1.1}Research Questions (RQ)}{82}{subsection.A.1.1}\protected@file@percent }
\@writefile{toc}{\contentsline {subsection}{\numberline {1.2}Search Process}{82}{subsection.A.1.2}\protected@file@percent }
\@writefile{lot}{\contentsline {table}{\numberline {A.1}{\ignorespaces Selected journals, symposiums and conference proceedings.}}{83}{table.caption.64}\protected@file@percent }
\newlabel{tab:jou_sym_con}{{\M@TitleReference {A.1}{Selected journals, symposiums and conference proceedings.}}{83}{Selected journals, symposiums and conference proceedings}{table.caption.64}{}}
\@writefile{toc}{\contentsline {subsection}{\numberline {1.3}Study selection}{83}{subsection.A.1.3}\protected@file@percent }
\citation{kitchenham2009}
\@writefile{toc}{\contentsline {subsection}{\numberline {1.4}Quality assessment (QA)}{84}{subsection.A.1.4}\protected@file@percent }
\@writefile{toc}{\contentsline {subsection}{\numberline {1.5}Data collection}{84}{subsection.A.1.5}\protected@file@percent }
\citation{misra2010}
\citation{farabet2011}
\citation{rana2012}
\citation{shak2013}
\citation{moha2013}
\citation{chen2014}
\citation{singh2015}
\citation{zhang2015}
\citation{zhou2015}
\citation{du2015}
\citation{venieris2016}
\citation{murakimi2016}
\citation{motamedi2016}
\citation{dundar2016}
\citation{li2016}
\citation{saldanha2016}
\citation{wang2016}
\citation{ortega2016}
\citation{kyrkou2016}
\citation{luo2016}
\citation{misra2010}
\citation{farabet2011}
\citation{rana2012}
\citation{shak2013}
\citation{moha2013}
\citation{chen2014}
\citation{singh2015}
\citation{zhang2015}
\citation{zhou2015}
\citation{du2015}
\citation{venieris2016}
\citation{murakimi2016}
\citation{motamedi2016}
\citation{dundar2016}
\citation{li2016}
\citation{saldanha2016}
\citation{wang2016}
\citation{ortega2016}
\citation{kyrkou2016}
\citation{luo2016}
\@writefile{toc}{\contentsline {subsection}{\numberline {1.6}Data analysis}{85}{subsection.A.1.6}\protected@file@percent }
\@writefile{toc}{\contentsline {section}{\numberline {2}Results}{85}{section.A.2}\protected@file@percent }
\@writefile{toc}{\contentsline {subsection}{\numberline {2.1}Search Results}{85}{subsection.A.2.1}\protected@file@percent }
\@writefile{toc}{\contentsline {subsection}{\numberline {2.2}Quality evaluation of the HNN works.}{85}{subsection.A.2.2}\protected@file@percent }
\@writefile{toc}{\contentsline {subsection}{\numberline {2.3}Quality factors}{85}{subsection.A.2.3}\protected@file@percent }
\citation{misra2010}
\citation{chen2014}
\citation{du2015}
\citation{luo2016}
\citation{wang2016}
\citation{duffner2007}
\citation{saidane2011}
\@writefile{lot}{\contentsline {table}{\numberline {A.2}{\ignorespaces Systematic Review of HNN Studies.}}{86}{table.caption.65}\protected@file@percent }
\newlabel{tab:srs_HNN}{{\M@TitleReference {A.2}{Systematic Review of HNN Studies.}}{86}{Systematic Review of HNN Studies}{table.caption.65}{}}
\@writefile{toc}{\contentsline {section}{\numberline {3}Discussion}{86}{section.A.3}\protected@file@percent }
\citation{chen2014}
\citation{du2015}
\citation{wang2016}
\citation{farabet2011}
\citation{dundar2016}
\citation{venieris2016}
\citation{ortega2016}
\@writefile{lot}{\contentsline {table}{\numberline {A.3}{\ignorespaces Quality evaluation of the HNN studies.}}{87}{table.caption.66}\protected@file@percent }
\newlabel{tab:qu_ev_slr}{{\M@TitleReference {A.3}{Quality evaluation of the HNN studies.}}{87}{Quality evaluation of the HNN studies}{table.caption.66}{}}
\@writefile{lot}{\contentsline {table}{\numberline {A.4}{\ignorespaces Average Quality Scores (QS) for studies by publication date.}}{87}{table.caption.67}\protected@file@percent }
\newlabel{tab:avg_qual_sco}{{\M@TitleReference {A.4}{Average Quality Scores (QS) for studies by publication date.}}{87}{Average Quality Scores (QS) for studies by publication date}{table.caption.67}{}}
\@writefile{toc}{\contentsline {section}{\numberline {4}Conclusions}{88}{section.A.4}\protected@file@percent }
\@writefile{toc}{\contentsline {section}{\numberline {5}Research Questions}{88}{section.A.5}\protected@file@percent }
\@writefile{toc}{\contentsline {section}{\numberline {6}Hypothesis}{89}{section.A.6}\protected@file@percent }
\@writefile{lof}{\addvspace {10pt}}
\@writefile{lot}{\addvspace {10pt}}
\@writefile{toc}{\contentsline {appendix}{\chapternumberline {B}Useful Scripts}{90}{appendix.B}\protected@file@percent }
\newlabel{app:codes}{{\M@TitleReference {B}{Useful Scripts}}{90}{Useful Scripts}{appendix.B}{}}
\newlabel{cd:M6_6emo}{{\M@TitleReference {B.1}{Useful Scripts}}{90}{00\_M6\_jaffe\_6emo.py}{lstlisting.B.1}{}}
\@writefile{lol}{\contentsline {lstlisting}{\numberline {B.1}00\_M6\_jaffe\_6emo.py}{90}{lstlisting.B.1}\protected@file@percent }
\@writefile{lof}{\contentsline {figure}{\numberline {B.1}{\ignorespaces Notebook for M6 model in PyTorch installed on Pynq 1.8 running on the Zybo-Z7 board.\relax }}{95}{figure.caption.68}\protected@file@percent }
\newlabel{fg:frame_M6_pytorch_notebook0}{{\M@TitleReference {B.1}{Notebook for M6 model in PyTorch installed on Pynq 1.8 running on the Zybo-Z7 board.\relax }}{95}{Notebook for M6 model in PyTorch installed on Pynq 1.8 running on the Zybo-Z7 board.\relax }{figure.caption.68}{}}
\@writefile{lof}{\contentsline {figure}{\numberline {B.2}{\ignorespaces Notebook for M6 model in PyTorch installed on Pynq 1.8 running on the Zybo-Z7 board.\relax }}{96}{figure.caption.69}\protected@file@percent }
\newlabel{fg:frame_M6_pytorch_notebook1}{{\M@TitleReference {B.2}{Notebook for M6 model in PyTorch installed on Pynq 1.8 running on the Zybo-Z7 board.\relax }}{96}{Notebook for M6 model in PyTorch installed on Pynq 1.8 running on the Zybo-Z7 board.\relax }{figure.caption.69}{}}
\@writefile{lof}{\contentsline {figure}{\numberline {B.3}{\ignorespaces Notebook for M6 model in PyTorch installed on Pynq 1.8 running on the Zybo-Z7 board.\relax }}{97}{figure.caption.70}\protected@file@percent }
\newlabel{fg:frame_M6_pytorch_notebook2}{{\M@TitleReference {B.3}{Notebook for M6 model in PyTorch installed on Pynq 1.8 running on the Zybo-Z7 board.\relax }}{97}{Notebook for M6 model in PyTorch installed on Pynq 1.8 running on the Zybo-Z7 board.\relax }{figure.caption.70}{}}
\citation{jac2017}
\citation{jac2017}
\citation{zyboz7rm2022}
\citation{zyboz7rm2022}
\citation{clb2022}
\citation{clb2022}
\@writefile{lof}{\addvspace {10pt}}
\@writefile{lot}{\addvspace {10pt}}
\@writefile{toc}{\contentsline {appendix}{\chapternumberline {C}Complementary Resources}{98}{appendix.C}\protected@file@percent }
\newlabel{app:cmp_res}{{\M@TitleReference {C}{Complementary Resources}}{98}{Complementary Resources}{appendix.C}{}}
\@writefile{lof}{\contentsline {figure}{\numberline {C.1}{\ignorespaces Tflite Quantization Aware Training. Taken from \cite  {jac2017}.\relax }}{98}{figure.caption.71}\protected@file@percent }
\newlabel{fg:hnn_qat_orig}{{\M@TitleReference {C.1}{Tflite Quantization Aware Training. Taken from \cite  {jac2017}.\relax }}{98}{Tflite Quantization Aware Training. Taken from \cite {jac2017}.\relax }{figure.caption.71}{}}
\@writefile{lof}{\contentsline {subfigure}{\numberline{(a)}{\ignorespaces {Original Convolutional Layer.}}}{98}{subfigure.1.1}\protected@file@percent }
\@writefile{lof}{\contentsline {subfigure}{\numberline{(b)}{\ignorespaces {Quantization Aware Training Layer.}}}{98}{subfigure.1.2}\protected@file@percent }
\@writefile{lof}{\contentsline {subfigure}{\numberline{(c)}{\ignorespaces {Quantized Layer.}}}{98}{subfigure.1.3}\protected@file@percent }
\@writefile{lof}{\contentsline {figure}{\numberline {C.2}{\ignorespaces Zynq APSoC Architecture. Taken from \cite  {zyboz7rm2022}.\relax }}{99}{figure.caption.72}\protected@file@percent }
\newlabel{fg:hnn_apsoc}{{\M@TitleReference {C.2}{Zynq APSoC Architecture. Taken from \cite  {zyboz7rm2022}.\relax }}{99}{Zynq APSoC Architecture. Taken from \cite {zyboz7rm2022}.\relax }{figure.caption.72}{}}
\@writefile{lof}{\contentsline {figure}{\numberline {C.3}{\ignorespaces PL architecture. Taken from \cite  {clb2022}.\relax }}{99}{figure.caption.73}\protected@file@percent }
\newlabel{fg:hnn_clb_comple.}{{\M@TitleReference {C.3}{PL architecture. Taken from \cite  {clb2022}.\relax }}{99}{PL architecture. Taken from \cite {clb2022}.\relax }{figure.caption.73}{}}
\@writefile{lof}{\contentsline {subfigure}{\numberline{(a)}{\ignorespaces {CLB structure.}}}{99}{subfigure.3.1}\protected@file@percent }
\@writefile{lof}{\contentsline {figure}{\numberline {C.4}{\ignorespaces Validation of results. Comparison between the Numpy and the SoC.\relax }}{100}{figure.caption.74}\protected@file@percent }
\newlabel{fg:hnn_fer_soc_val}{{\M@TitleReference {C.4}{Validation of results. Comparison between the Numpy and the SoC.\relax }}{100}{Validation of results. Comparison between the Numpy and the SoC.\relax }{figure.caption.74}{}}
\@writefile{lof}{\contentsline {figure}{\numberline {C.5}{\ignorespaces M6 model trained with PyTorch 1.8 in Pynq 2.7.\relax }}{100}{figure.caption.75}\protected@file@percent }
\newlabel{fg:frame_M6_pytorch_val}{{\M@TitleReference {C.5}{M6 model trained with PyTorch 1.8 in Pynq 2.7.\relax }}{100}{M6 model trained with PyTorch 1.8 in Pynq 2.7.\relax }{figure.caption.75}{}}
\memsetcounter{lastsheet}{113}
\memsetcounter{lastpage}{100}
