This is BibTeX, Version 0.99d (TeX Live 2022/dev/Debian)
Capacity: max_strings=200000, hash_size=200000, hash_prime=170003
The top-level auxiliary file: book.aux
The style file: IEEEtran.bst
Reallocated singl_function (elt_size=4) to 100 items from 50.
Reallocated singl_function (elt_size=4) to 100 items from 50.
Reallocated singl_function (elt_size=4) to 100 items from 50.
Reallocated wiz_functions (elt_size=4) to 6000 items from 3000.
Reallocated singl_function (elt_size=4) to 100 items from 50.
Database file #1: bibliography.bib
-- IEEEtran.bst version 1.14 (2015/08/26) by Michael Shell.
-- http://www.michaelshell.org/tex/ieeetran/bibtex/
-- See the "IEEEtran_bst_HOWTO.pdf" manual for usage information.
Warning--empty booktitle in zhang2015
Warning--empty booktitle in venieris2016
Warning--empty booktitle in li2016
Warning--empty booktitle in chen2014
Warning--empty booktitle in zhou2015
Warning--empty booktitle in murakimi2016
Warning--empty booktitle in farabet2011
Warning--empty booktitle in du2015
Warning--empty booktitle in motamedi2016
Warning--empty booktitle in saldanha2016
Warning--empty booktitle in wang2016

Done.
You've used 86 entries,
            4087 wiz_defined-function locations,
            1237 strings with 21669 characters,
and the built_in function-call counts, 53400 in all, are:
= -- 4192
> -- 1211
< -- 338
+ -- 669
- -- 245
* -- 2348
:= -- 8117
add.period$ -- 183
call.type$ -- 86
change.case$ -- 126
chr.to.int$ -- 771
cite$ -- 97
duplicate$ -- 4150
empty$ -- 4564
format.name$ -- 268
if$ -- 12361
int.to.chr$ -- 0
int.to.str$ -- 86
missing$ -- 810
newline$ -- 291
num.names$ -- 81
pop$ -- 1968
preamble$ -- 1
purify$ -- 0
quote$ -- 2
skip$ -- 4022
stack$ -- 0
substring$ -- 2016
swap$ -- 3128
text.length$ -- 81
text.prefix$ -- 0
top$ -- 5
type$ -- 86
warning$ -- 11
while$ -- 207
width$ -- 88
write$ -- 791
(There were 11 warnings)
