\relax 
\providecommand\hyper@newdestlabel[2]{}
\providecommand\HyperFirstAtBeginDocument{\AtBeginDocument}
\HyperFirstAtBeginDocument{\ifx\hyper@anchor\@undefined
\global\let\oldcontentsline\contentsline
\gdef\contentsline#1#2#3#4{\oldcontentsline{#1}{#2}{#3}}
\global\let\oldnewlabel\newlabel
\gdef\newlabel#1#2{\newlabelxx{#1}#2}
\gdef\newlabelxx#1#2#3#4#5#6{\oldnewlabel{#1}{{#2}{#3}}}
\AtEndDocument{\ifx\hyper@anchor\@undefined
\let\contentsline\oldcontentsline
\let\newlabel\oldnewlabel
\fi}
\fi}
\global\let\hyper@last\relax 
\gdef\HyperFirstAtBeginDocument#1{#1}
\providecommand\HyField@AuxAddToFields[1]{}
\providecommand\HyField@AuxAddToCoFields[2]{}
\bibstyle{biblatex}
\bibdata{presentation-blx,mybibliography}
\citation{biblatex-control}
\abx@aux@refcontext{none/global//global/global}
\providecommand \oddpage@label [2]{}
\@writefile{nav}{\headcommand {\slideentry {0}{0}{1}{1/1}{}{0}}}
\@writefile{nav}{\headcommand {\beamer@framepages {1}{1}}}
\@writefile{nav}{\headcommand {\beamer@sectionpages {1}{1}}}
\@writefile{nav}{\headcommand {\beamer@subsectionpages {1}{1}}}
\@writefile{nav}{\headcommand {\sectionentry {1}{Intro}{2}{Intro}{0}}}
\@writefile{nav}{\headcommand {\slideentry {1}{0}{1}{2/2}{}{0}}}
\@writefile{nav}{\headcommand {\beamer@framepages {2}{2}}}
\@writefile{nav}{\headcommand {\beamer@subsectionpages {2}{2}}}
\@writefile{nav}{\headcommand {\slideentry {1}{1}{1}{3/3}{}{0}}}
\@writefile{nav}{\headcommand {\beamer@framepages {3}{3}}}
\@writefile{nav}{\headcommand {\beamer@subsectionpages {3}{3}}}
\@writefile{nav}{\headcommand {\slideentry {1}{2}{1}{4/4}{}{0}}}
\@writefile{nav}{\headcommand {\beamer@framepages {4}{4}}}
\@writefile{nav}{\headcommand {\beamer@subsectionpages {4}{4}}}
\@writefile{nav}{\headcommand {\slideentry {1}{3}{1}{5/6}{}{0}}}
\@writefile{nav}{\headcommand {\beamer@framepages {5}{6}}}
\@writefile{nav}{\headcommand {\beamer@sectionpages {2}{6}}}
\@writefile{nav}{\headcommand {\beamer@subsectionpages {5}{6}}}
\@writefile{nav}{\headcommand {\sectionentry {2}{Method}{7}{Method}{0}}}
\@writefile{nav}{\headcommand {\slideentry {2}{0}{1}{7/7}{}{0}}}
\@writefile{nav}{\headcommand {\beamer@framepages {7}{7}}}
\@writefile{nav}{\headcommand {\beamer@subsectionpages {7}{7}}}
\@writefile{nav}{\headcommand {\slideentry {2}{1}{1}{8/8}{}{0}}}
\@writefile{nav}{\headcommand {\beamer@framepages {8}{8}}}
\@writefile{nav}{\headcommand {\beamer@subsectionpages {8}{8}}}
\@writefile{nav}{\headcommand {\slideentry {2}{2}{1}{9/9}{}{0}}}
\@writefile{nav}{\headcommand {\beamer@framepages {9}{9}}}
\@writefile{nav}{\headcommand {\beamer@subsectionpages {9}{9}}}
\@writefile{nav}{\headcommand {\slideentry {2}{3}{1}{10/10}{}{0}}}
\@writefile{nav}{\headcommand {\beamer@framepages {10}{10}}}
\@writefile{nav}{\headcommand {\beamer@sectionpages {7}{10}}}
\@writefile{nav}{\headcommand {\beamer@subsectionpages {10}{10}}}
\@writefile{nav}{\headcommand {\sectionentry {3}{Results}{11}{Results}{0}}}
\@writefile{nav}{\headcommand {\slideentry {3}{0}{1}{11/11}{}{0}}}
\@writefile{nav}{\headcommand {\beamer@framepages {11}{11}}}
\@writefile{nav}{\headcommand {\beamer@subsectionpages {11}{11}}}
\@writefile{nav}{\headcommand {\slideentry {3}{1}{1}{12/12}{}{0}}}
\@writefile{nav}{\headcommand {\beamer@framepages {12}{12}}}
\@writefile{nav}{\headcommand {\beamer@subsectionpages {12}{12}}}
\@writefile{nav}{\headcommand {\slideentry {3}{2}{1}{13/13}{}{0}}}
\@writefile{nav}{\headcommand {\beamer@framepages {13}{13}}}
\@writefile{nav}{\headcommand {\beamer@subsectionpages {13}{13}}}
\@writefile{nav}{\headcommand {\slideentry {3}{3}{1}{14/14}{}{0}}}
\@writefile{nav}{\headcommand {\beamer@framepages {14}{14}}}
\@writefile{nav}{\headcommand {\slideentry {3}{3}{2}{15/15}{}{0}}}
\@writefile{nav}{\headcommand {\beamer@framepages {15}{15}}}
\@writefile{nav}{\headcommand {\beamer@sectionpages {11}{15}}}
\@writefile{nav}{\headcommand {\beamer@subsectionpages {14}{15}}}
\@writefile{nav}{\headcommand {\sectionentry {4}{Summary}{16}{Summary}{0}}}
\@writefile{nav}{\headcommand {\slideentry {4}{0}{1}{16/16}{}{0}}}
\@writefile{nav}{\headcommand {\beamer@framepages {16}{16}}}
\@writefile{nav}{\headcommand {\slideentry {4}{0}{2}{17/18}{}{0}}}
\@writefile{nav}{\headcommand {\beamer@framepages {17}{18}}}
\@writefile{toc}{\beamer@subsectionintoc {4}{1}{Thanks!}{19}{0}{0}}
\@writefile{nav}{\headcommand {\beamer@subsectionpages {16}{18}}}
\@writefile{nav}{\headcommand {\beamer@subsectionentry {0}{4}{1}{19}{Thanks!}}}
\@writefile{nav}{\headcommand {\slideentry {4}{1}{1}{19/19}{Thanks!}{0}}}
\@writefile{nav}{\headcommand {\beamer@framepages {19}{19}}}
\@writefile{nav}{\headcommand {\beamer@partpages {1}{19}}}
\@writefile{nav}{\headcommand {\beamer@subsectionpages {19}{19}}}
\@writefile{nav}{\headcommand {\beamer@sectionpages {16}{19}}}
\@writefile{nav}{\headcommand {\beamer@documentpages {19}}}
\@writefile{nav}{\headcommand {\gdef \inserttotalframenumber {17}}}
\abx@aux@read@bbl@mdfivesum{205FA30EE4C093BB2BC4676324AB99FD}
\gdef \@abspage@last{19}
