Copyright 1986-2021 Xilinx, Inc. All Rights Reserved.
---------------------------------------------------------------------------------------------------------------------------------------------------------------------------------------
| Tool Version : Vivado v.2021.1 (lin64) Build 3247384 Thu Jun 10 19:36:07 MDT 2021
| Date         : Thu Nov 18 09:13:10 2021
| Host         : dplegion running 64-bit Ubuntu 20.04.2 LTS
| Command      : report_bus_skew -warn_on_violation -file fer_soc_bd_wrapper_bus_skew_routed.rpt -pb fer_soc_bd_wrapper_bus_skew_routed.pb -rpx fer_soc_bd_wrapper_bus_skew_routed.rpx
| Design       : fer_soc_bd_wrapper
| Device       : 7z020-clg400
| Speed File   : -1  PRODUCTION 1.12 2019-11-22
---------------------------------------------------------------------------------------------------------------------------------------------------------------------------------------

Bus Skew Report

No bus skew constraints

